%!PS-Adobe-3.0 EPSF-3.0
%%Creator: cairo 1.16.0 (https://cairographics.org)
%%CreationDate: Thu Aug 22 11:48:40 2019
%%Pages: 1
%%DocumentData: Clean7Bit
%%LanguageLevel: 2
%%BoundingBox: 0 0 168 85
%%EndComments
%%BeginProlog
50 dict begin
/q { gsave } bind def
/Q { grestore } bind def
/cm { 6 array astore concat } bind def
/w { setlinewidth } bind def
/J { setlinecap } bind def
/j { setlinejoin } bind def
/M { setmiterlimit } bind def
/d { setdash } bind def
/m { moveto } bind def
/l { lineto } bind def
/c { curveto } bind def
/h { closepath } bind def
/re { exch dup neg 3 1 roll 5 3 roll moveto 0 rlineto
      0 exch rlineto 0 rlineto closepath } bind def
/S { stroke } bind def
/f { fill } bind def
/f* { eofill } bind def
/n { newpath } bind def
/W { clip } bind def
/W* { eoclip } bind def
/BT { } bind def
/ET { } bind def
/BDC { mark 3 1 roll /BDC pdfmark } bind def
/EMC { mark /EMC pdfmark } bind def
/cairo_store_point { /cairo_point_y exch def /cairo_point_x exch def } def
/Tj { show currentpoint cairo_store_point } bind def
/TJ {
  {
    dup
    type /stringtype eq
    { show } { -0.001 mul 0 cairo_font_matrix dtransform rmoveto } ifelse
  } forall
  currentpoint cairo_store_point
} bind def
/cairo_selectfont { cairo_font_matrix aload pop pop pop 0 0 6 array astore
    cairo_font exch selectfont cairo_point_x cairo_point_y moveto } bind def
/Tf { pop /cairo_font exch def /cairo_font_matrix where
      { pop cairo_selectfont } if } bind def
/Td { matrix translate cairo_font_matrix matrix concatmatrix dup
      /cairo_font_matrix exch def dup 4 get exch 5 get cairo_store_point
      /cairo_font where { pop cairo_selectfont } if } bind def
/Tm { 2 copy 8 2 roll 6 array astore /cairo_font_matrix exch def
      cairo_store_point /cairo_font where { pop cairo_selectfont } if } bind def
/g { setgray } bind def
/rg { setrgbcolor } bind def
/d1 { setcachedevice } bind def
/cairo_data_source {
  CairoDataIndex CairoData length lt
    { CairoData CairoDataIndex get /CairoDataIndex CairoDataIndex 1 add def }
    { () } ifelse
} def
/cairo_flush_ascii85_file { cairo_ascii85_file status { cairo_ascii85_file flushfile } if } def
/cairo_image { image cairo_flush_ascii85_file } def
/cairo_imagemask { imagemask cairo_flush_ascii85_file } def
%%EndProlog
%%BeginSetup
%%EndSetup
%%Page: 1 1
%%BeginPageSetup
%%PageBoundingBox: 0 0 168 85
%%EndPageSetup
q 0 0 168 85 rectclip
1 0 0 -1 0 85 cm q
0.129412 0.117647 0.117647 rg
0.39 w
0 J
0 j
[] 0.0 d
4 M q 1 0 0 1 0 0 cm
146.121 20.91 m 130.52 37.031 l 130.52 68.922 l 146.641 52.285 l h
16.469 36.684 m 130.52 36.684 l 146.121 20.391 m 33.105 20.043 l 16.469
 36.684 l 16.469 68.922 l 130.52 68.922 l S Q
0.26 w
[ 1.56 1.56 1.56 1.56 1.56 1.56] 0 d
q 1 0 0 1 0 0 cm
32.773 21.105 m 32.773 65.824 l 17.16 67.535 m 31.723 51.59 l 144.387 51.59
 l 66.734 9.992 m 27.215 48.469 l S Q
[] 0.0 d
q 1 0 0 1 0 0 cm
40.906 43.098 m 74.883 43.098 l S Q
0.39 w
[ 1.04 1.04 1.04 1.04 1.04 1.04] 0 d
q 1 0 0 1 0 0 cm
38.266 62.078 m 34.688 66.312 l 52.637 66.395 l 55.598 62.422 l h
38.266 62.078 m S Q
[] 0.0 d
q 1 0 0 1 0 0 cm
53.062 64.578 m 59.648 64.578 l S Q
[ 1.04 1.04 1.04 1.04 1.04 1.04] 0 d
q 1 0 0 1 0 0 cm
47.277 54.211 m 43.703 58.445 l 61.648 58.527 l 64.609 54.555 l h
47.277 54.211 m S Q
[] 0.0 d
q 1 0 0 1 0 0 cm
62.074 56.711 m 68.664 56.711 l S Q
37.266 29.621 m 34.012 33.57 l 52.219 33.52 l 54.922 29.68 l 37.266 29.621
 l f
q 1 0 0 1 0 0 cm
37.266 29.621 m 34.012 33.57 l 52.219 33.52 l 54.922 29.68 l h
37.266 29.621 m S Q
q 1 0 0 1 0 0 cm
52.109 31.98 m 58.695 31.98 l S Q
45.328 22.211 m 42.273 26.188 l 60.539 26.109 l 63.18 22.297 l 45.328 22.211
 l f
q 1 0 0 1 0 0 cm
45.328 22.211 m 42.273 26.188 l 60.539 26.109 l 63.18 22.297 l h
45.328 22.211 m S Q
Q q
0 0 70.75 84.789 re W n
q
0 0 71 85 re W n
[ 1 0 0 1 0 0 ] concat
  q
0.129412 0.117647 0.117647 rg
0.39 w
0 J
0 j
[] 0.0 d
4 M q 1 0 0 -1 0 0 cm
61.121 -24.113 m 67.711 -24.113 l 36.746 -19.871 m 36.746 -0.457 l 8.148
 -27.844 l 8.148 -84.352 l 24.961 -69.098 l 30.16 -0.457 m 36.746 -0.457
 l 1.387 -27.844 m 8.148 -27.844 l 0 -84.523 m 8.148 -84.523 l 28.945 -1.152
 m 32.152 -4.355 l 25.926 -4.195 m 29.133 -7.402 l 22.551 -7.559 m 25.758
 -10.766 l 19.527 -10.602 m 22.734 -13.809 l 15.512 -13.727 m 18.719 -16.934
 l 12.488 -16.77 m 15.695 -19.977 l 9.113 -20.133 m 12.32 -23.34 l 6.094
 -23.176 m 9.297 -26.383 l 2.109 -36.367 m 8.059 -30.422 l 2.391 -42.82 
m 8.336 -36.875 l 2.445 -50.047 m 8.391 -44.102 l 2.203 -57.02 m 8.152 -51.074
 l 2.094 -63.617 m 8.039 -57.672 l 1.852 -70.59 m 7.801 -64.645 l 1.91 -77.816
 m 7.855 -71.871 l 3.48 -82.977 m 8.133 -78.324 l S Q
  Q
Q
Q q
83.75 10.223 84.25 61 re W n
q
83 10 85 62 re W n
[ 1 0 0 1 0 0 ] concat
  q
0.129412 0.117647 0.117647 rg
0.26 w
0 J
0 j
[] 0.0 d
4 M q 1 0 0 -1 0 0 cm
85.648 -43.465 m 119.621 -43.465 l 128.094 -38.418 m 118.387 -48.125 l 
148.895 -19.695 m 166.922 -19.695 l 149.438 -52.652 m 167.465 -52.652 l 
133.836 -69.281 m 151.863 -69.281 l 157.387 -57.137 m 148.199 -66.324 l 
159.641 -25.938 m 159.641 -47.43 l 130.867 -12.07 m 130.867 -23.855 l S Q
  Q
Q
0.129412 0.117647 0.117647 rg
117.504 43.789 m 117.504 42.035 l 121.891 43.789 l 117.504 45.547 l 117.504
 43.789 l f*
Q q
0.129412 0.117647 0.117647 rg
39.695 43.27 m 39.695 45.027 l 35.309 43.27 l 39.695 41.516 l 39.695 43.27
 l f*
159.988 24.898 m 158.234 24.898 l 159.988 20.508 l 161.742 24.898 l 159.988
 24.898 l f*
160.16 46.922 m 161.914 46.922 l 160.16 51.312 l 158.406 46.922 l 160.16
 46.922 l f*
157.387 56.617 m 156.145 55.375 l 160.488 53.516 l 158.629 57.859 l 157.387
 56.617 l f*
149.355 65.516 m 150.598 66.758 l 146.254 68.617 l 148.117 64.273 l 149.355
 65.516 l f*
130.867 23.855 m 132.621 23.855 l 130.867 28.246 l 129.113 23.855 l 130.867
 23.855 l f*
0.0784314 0 0 rg
64.094 31.184 m 64.156 31.184 64.234 31.184 64.297 31.184 c 64.609 31.184
 65.156 31.23 65.156 31.855 c 65.156 32.277 64.828 32.559 64.359 32.559 
c 63.672 32.559 63.594 32.09 63.578 31.746 c 63.094 31.746 l 63.125 32.168
 63.234 32.59 63.641 32.809 c 63.828 32.902 64.047 32.965 64.328 32.965 
c 65.25 32.965 65.641 32.387 65.641 31.793 c 65.641 31.309 65.391 31.059
 65.031 30.934 c 65.234 30.871 65.5 30.637 65.5 30.184 c 65.5 29.621 65.078
 29.215 64.375 29.215 c 63.406 29.215 63.188 29.871 63.188 30.402 c 63.641
 30.402 l 63.656 30.152 63.703 29.621 64.344 29.621 c 64.891 29.621 65.031
 29.98 65.031 30.199 c 65.031 30.652 64.688 30.793 64.328 30.793 c 64.25
 30.793 64.172 30.793 64.094 30.793 c h
64.094 31.184 m f
72.77 21.934 m 72.41 21.934 l 72.254 22.527 72.02 22.59 71.426 22.637 c
 71.426 22.996 l 72.27 22.996 l 72.27 25.59 l 72.77 25.59 l h
72.77 21.934 m f
127.285 7.078 m 129.113 7.078 l 129.113 6.641 l 127.285 6.641 l 127.285
 5.5 l 129.363 5.5 l 129.363 5.047 l 126.785 5.047 l 126.785 8.781 l 127.285
 8.781 l h
127.285 7.078 m f
132.164 9.488 m 132.148 9.488 l 131.445 7.27 l 130.914 7.27 l 131.898 9.988
 l 132.398 9.988 l 133.43 7.27 l 132.93 7.27 l h
132.164 9.488 m f
72.215 56.492 m 72.23 56.242 72.262 55.586 72.949 55.586 c 73.496 55.586
 73.684 55.961 73.684 56.258 c 73.684 56.727 73.402 56.883 73.012 57.102
 c 72.527 57.383 l 72.027 57.664 71.684 58.07 71.668 58.836 c 74.168 58.836
 l 74.168 58.398 l 72.184 58.398 l 72.199 58.258 72.309 57.977 72.809 57.695
 c 73.184 57.492 l 73.73 57.195 74.168 56.93 74.168 56.273 c 74.168 55.586
 73.652 55.18 73.027 55.18 c 72.621 55.18 71.762 55.305 71.762 56.492 c 
h
72.215 56.492 m f
79.367 39.848 m 78.852 39.848 l 78.852 43.582 l 81.258 43.582 l 81.258 
43.129 l 79.367 43.129 l h
79.367 39.848 m f
68.355 64.879 m 68.355 64.488 l 67.824 64.488 l 67.824 62.113 l 67.449 
62.113 l 65.762 64.426 l 65.762 64.879 l 67.371 64.879 l 67.371 65.77 l 
67.824 65.77 l 67.824 64.879 l h
67.355 62.832 m 67.371 62.832 l 67.371 64.488 l 66.184 64.488 l h
67.355 62.832 m f
156.215 66.844 m 156.215 66.5 l 156.23 66.5 l 156.324 66.656 156.512 66.922
 156.98 66.922 c 157.902 66.922 158.168 66.047 158.168 65.406 c 158.168 
64.641 157.762 64.047 157.043 64.047 c 156.715 64.047 156.449 64.188 156.246
 64.469 c 156.246 63.109 l 155.777 63.109 l 155.777 66.844 l h
157.699 65.469 m 157.699 66.078 157.465 66.531 156.965 66.531 c 156.668
 66.531 156.215 66.328 156.215 65.609 c 156.215 65.172 156.293 64.453 156.949
 64.453 c 157.668 64.453 157.699 65.125 157.699 65.469 c h
157.699 65.469 m f
167.734 38.289 m 167.734 37.523 167.219 37.352 166.797 37.352 c 166.359
 37.352 166.125 37.617 166 37.789 c 165.984 37.789 l 165.984 36.414 l 165.531
 36.414 l 165.531 40.148 l 165.984 40.148 l 165.984 38.664 l 165.984 37.977
 166.375 37.758 166.75 37.758 c 167.188 37.758 167.281 37.992 167.281 38.367
 c 167.281 40.148 l 167.734 40.148 l h
167.734 38.289 m f
Q Q
showpage
%%Trailer
end
%%EOF
