%!PS-Adobe-3.0 EPSF-3.0
%%Creator: cairo 1.16.0 (https://cairographics.org)
%%CreationDate: Tue Aug 20 22:35:51 2019
%%Pages: 1
%%DocumentData: Clean7Bit
%%LanguageLevel: 2
%%BoundingBox: 0 0 142 196
%%EndComments
%%BeginProlog
50 dict begin
/q { gsave } bind def
/Q { grestore } bind def
/cm { 6 array astore concat } bind def
/w { setlinewidth } bind def
/J { setlinecap } bind def
/j { setlinejoin } bind def
/M { setmiterlimit } bind def
/d { setdash } bind def
/m { moveto } bind def
/l { lineto } bind def
/c { curveto } bind def
/h { closepath } bind def
/re { exch dup neg 3 1 roll 5 3 roll moveto 0 rlineto
      0 exch rlineto 0 rlineto closepath } bind def
/S { stroke } bind def
/f { fill } bind def
/f* { eofill } bind def
/n { newpath } bind def
/W { clip } bind def
/W* { eoclip } bind def
/BT { } bind def
/ET { } bind def
/BDC { mark 3 1 roll /BDC pdfmark } bind def
/EMC { mark /EMC pdfmark } bind def
/cairo_store_point { /cairo_point_y exch def /cairo_point_x exch def } def
/Tj { show currentpoint cairo_store_point } bind def
/TJ {
  {
    dup
    type /stringtype eq
    { show } { -0.001 mul 0 cairo_font_matrix dtransform rmoveto } ifelse
  } forall
  currentpoint cairo_store_point
} bind def
/cairo_selectfont { cairo_font_matrix aload pop pop pop 0 0 6 array astore
    cairo_font exch selectfont cairo_point_x cairo_point_y moveto } bind def
/Tf { pop /cairo_font exch def /cairo_font_matrix where
      { pop cairo_selectfont } if } bind def
/Td { matrix translate cairo_font_matrix matrix concatmatrix dup
      /cairo_font_matrix exch def dup 4 get exch 5 get cairo_store_point
      /cairo_font where { pop cairo_selectfont } if } bind def
/Tm { 2 copy 8 2 roll 6 array astore /cairo_font_matrix exch def
      cairo_store_point /cairo_font where { pop cairo_selectfont } if } bind def
/g { setgray } bind def
/rg { setrgbcolor } bind def
/d1 { setcachedevice } bind def
/cairo_data_source {
  CairoDataIndex CairoData length lt
    { CairoData CairoDataIndex get /CairoDataIndex CairoDataIndex 1 add def }
    { () } ifelse
} def
/cairo_flush_ascii85_file { cairo_ascii85_file status { cairo_ascii85_file flushfile } if } def
/cairo_image { image cairo_flush_ascii85_file } def
/cairo_imagemask { imagemask cairo_flush_ascii85_file } def
%%EndProlog
%%BeginSetup
%%EndSetup
%%Page: 1 1
%%BeginPageSetup
%%PageBoundingBox: 0 0 142 196
%%EndPageSetup
q 0 0 142 196 rectclip
1 0 0 -1 0 196 cm q
0 g
1.079826 w
1 J
1 j
[] 0.0 d
10 M q 1 0 0 1 0 0 cm
39.426 65.242 m 39.426 71.801 34.105 77.121 27.547 77.121 c 20.984 77.121
 15.664 71.801 15.664 65.242 c 15.664 58.68 20.984 53.359 27.547 53.359 
c 34.105 53.359 39.426 58.68 39.426 65.242 c S Q
q 1 0 0 1 0 0 cm
24.664 62.359 m 32.945 54.438 l S Q
q 1 0 0 1 0 0 cm
24.664 67.762 m 32.945 76.043 l S Q
q 1 0 0 1 0 0 cm
32.945 76.043 m 32.945 76.043 l S Q
2.159652 w
q 1 0 0 1 0 0 cm
24.664 56.957 m 24.664 73.16 l S Q
q 1 0 0 1 0 0 cm
24.664 73.16 m 24.664 73.16 l S Q
27.547 72.801 m 29.703 70.641 l 31.867 74.957 l h
27.547 72.801 m f*
1.079826 w
q 1 0 0 1 0 0 cm
27.547 72.801 m 29.703 70.641 l 31.867 74.957 l h
27.547 72.801 m S Q
q 1 0 0 1 0 0 cm
24.664 65.242 m 0.547 65.242 l S Q
0.86386 w
q 1 0 0 1 0 0 cm
14.223 71.723 m 10.984 71.723 l S Q
q 1 0 0 1 0 0 cm
12.426 71.723 m 12.426 66.32 l S Q
q 1 0 0 1 0 0 cm
12.426 66.32 m 12.066 67.043 l S Q
q 1 0 0 1 0 0 cm
12.066 67.043 m 11.348 67.398 l S Q
q 1 0 0 1 0 0 cm
11.348 67.398 m 10.984 67.762 l S Q
1.079826 w
q 1 0 0 1 0 0 cm
32.945 54.438 m 32.945 43.641 l S Q
0.86386 w
q 1 0 0 1 0 0 cm
34.387 50.484 m 34.387 50.121 l S Q
q 1 0 0 1 0 0 cm
34.387 50.121 m 34.027 49.762 l S Q
q 1 0 0 1 0 0 cm
34.027 49.762 m 34.027 48.32 l S Q
q 1 0 0 1 0 0 cm
34.027 48.32 m 34.387 47.957 l S Q
q 1 0 0 1 0 0 cm
34.387 47.957 m 34.387 47.602 l S Q
q 1 0 0 1 0 0 cm
34.387 47.602 m 35.105 47.242 l S Q
q 1 0 0 1 0 0 cm
35.105 47.242 m 35.465 47.242 l S Q
q 1 0 0 1 0 0 cm
35.465 47.242 m 36.184 47.602 l S Q
q 1 0 0 1 0 0 cm
36.184 47.602 m 39.426 50.84 l S Q
q 1 0 0 1 0 0 cm
39.426 50.84 m 39.426 47.242 l S Q
1.079826 w
q 1 0 0 1 0 0 cm
32.945 76.043 m 32.945 86.84 l S Q
0.86386 w
q 1 0 0 1 0 0 cm
34.027 83.242 m 34.027 79.641 l S Q
q 1 0 0 1 0 0 cm
34.027 79.641 m 36.184 81.438 l S Q
q 1 0 0 1 0 0 cm
36.184 81.438 m 36.184 80.723 l S Q
q 1 0 0 1 0 0 cm
36.184 80.723 m 36.184 80.359 l S Q
q 1 0 0 1 0 0 cm
36.184 80.359 m 36.547 80.004 l S Q
q 1 0 0 1 0 0 cm
36.547 80.004 m 37.262 79.641 l S Q
q 1 0 0 1 0 0 cm
37.262 79.641 m 38.348 79.641 l S Q
q 1 0 0 1 0 0 cm
38.348 79.641 m 38.703 80.004 l S Q
q 1 0 0 1 0 0 cm
38.703 80.004 m 39.066 80.359 l S Q
q 1 0 0 1 0 0 cm
39.066 80.359 m 39.426 80.723 l S Q
q 1 0 0 1 0 0 cm
39.426 80.723 m 39.426 82.523 l S Q
q 1 0 0 1 0 0 cm
39.426 82.523 m 39.066 82.879 l S Q
q 1 0 0 1 0 0 cm
39.066 82.879 m 38.703 83.242 l S Q
q 1 0 0 1 0 0 cm
48.066 63.438 m 47.348 63.082 l S Q
q 1 0 0 1 0 0 cm
47.348 63.082 m 46.984 62.723 l S Q
q 1 0 0 1 0 0 cm
46.984 62.723 m 46.262 62.004 l S Q
q 1 0 0 1 0 0 cm
46.262 62.004 m 45.547 61.641 l S Q
q 1 0 0 1 0 0 cm
45.547 61.641 m 45.184 61.641 l S Q
q 1 0 0 1 0 0 cm
45.547 62.723 m 44.828 62.723 l S Q
q 1 0 0 1 0 0 cm
44.828 62.723 m 44.465 62.004 l S Q
q 1 0 0 1 0 0 cm
44.465 62.004 m 44.105 60.918 l S Q
q 1 0 0 1 0 0 cm
44.105 60.918 m 44.105 59.121 l S Q
q 1 0 0 1 0 0 cm
44.105 59.121 m 44.465 58.043 l S Q
q 1 0 0 1 0 0 cm
44.465 58.043 m 44.828 57.68 l S Q
q 1 0 0 1 0 0 cm
44.828 57.68 m 45.547 57.32 l S Q
q 1 0 0 1 0 0 cm
45.547 57.32 m 46.262 57.32 l S Q
q 1 0 0 1 0 0 cm
46.262 57.32 m 46.984 57.68 l S Q
q 1 0 0 1 0 0 cm
46.984 57.68 m 47.348 58.043 l S Q
q 1 0 0 1 0 0 cm
47.348 58.043 m 47.703 59.121 l S Q
q 1 0 0 1 0 0 cm
47.703 59.121 m 47.703 60.918 l S Q
q 1 0 0 1 0 0 cm
47.703 60.918 m 47.348 62.004 l S Q
q 1 0 0 1 0 0 cm
47.348 62.004 m 46.984 62.723 l S Q
q 1 0 0 1 0 0 cm
46.984 62.723 m 46.262 62.723 l S Q
q 1 0 0 1 0 0 cm
46.262 62.723 m 45.547 62.723 l S Q
q 1 0 0 1 0 0 cm
52.742 62.723 m 49.867 62.723 l S Q
q 1 0 0 1 0 0 cm
51.309 62.723 m 51.309 57.32 l S Q
q 1 0 0 1 0 0 cm
51.309 57.32 m 50.945 58.043 l S Q
q 1 0 0 1 0 0 cm
50.945 58.043 m 50.223 58.762 l S Q
q 1 0 0 1 0 0 cm
50.223 58.762 m 49.867 58.762 l S Q
1.079826 w
q 1 0 0 1 0 0 cm
39.426 130.043 m 39.426 136.605 34.105 141.918 27.547 141.918 c 20.984 
141.918 15.664 136.605 15.664 130.043 c 15.664 123.48 20.984 118.16 27.547
 118.16 c 34.105 118.16 39.426 123.48 39.426 130.043 c S Q
q 1 0 0 1 0 0 cm
24.664 127.16 m 32.945 119.242 l S Q
q 1 0 0 1 0 0 cm
24.664 132.562 m 32.945 140.84 l S Q
q 1 0 0 1 0 0 cm
32.945 140.84 m 32.945 140.84 l S Q
2.159652 w
q 1 0 0 1 0 0 cm
24.664 121.762 m 24.664 137.957 l S Q
q 1 0 0 1 0 0 cm
24.664 137.957 m 24.664 137.957 l S Q
27.547 137.602 m 29.703 135.438 l 31.867 139.762 l h
27.547 137.602 m f*
1.079826 w
q 1 0 0 1 0 0 cm
27.547 137.602 m 29.703 135.438 l 31.867 139.762 l h
27.547 137.602 m S Q
q 1 0 0 1 0 0 cm
24.664 130.043 m 0.547 130.043 l S Q
0.86386 w
q 1 0 0 1 0 0 cm
14.223 136.523 m 10.984 136.523 l S Q
q 1 0 0 1 0 0 cm
12.426 136.523 m 12.426 131.121 l S Q
q 1 0 0 1 0 0 cm
12.426 131.121 m 12.066 131.84 l S Q
q 1 0 0 1 0 0 cm
12.066 131.84 m 11.348 132.199 l S Q
q 1 0 0 1 0 0 cm
11.348 132.199 m 10.984 132.562 l S Q
1.079826 w
q 1 0 0 1 0 0 cm
32.945 119.242 m 32.945 108.438 l S Q
0.86386 w
q 1 0 0 1 0 0 cm
34.387 115.281 m 34.387 114.918 l S Q
q 1 0 0 1 0 0 cm
34.387 114.918 m 34.027 114.562 l S Q
q 1 0 0 1 0 0 cm
34.027 114.562 m 34.027 113.121 l S Q
q 1 0 0 1 0 0 cm
34.027 113.121 m 34.387 112.762 l S Q
q 1 0 0 1 0 0 cm
34.387 112.762 m 34.387 112.398 l S Q
q 1 0 0 1 0 0 cm
34.387 112.398 m 35.105 112.043 l S Q
q 1 0 0 1 0 0 cm
35.105 112.043 m 35.465 112.043 l S Q
q 1 0 0 1 0 0 cm
35.465 112.043 m 36.184 112.398 l S Q
q 1 0 0 1 0 0 cm
36.184 112.398 m 39.426 115.641 l S Q
q 1 0 0 1 0 0 cm
39.426 115.641 m 39.426 112.043 l S Q
1.079826 w
q 1 0 0 1 0 0 cm
32.945 140.84 m 32.945 151.641 l S Q
0.86386 w
q 1 0 0 1 0 0 cm
34.027 148.043 m 34.027 144.438 l S Q
q 1 0 0 1 0 0 cm
34.027 144.438 m 36.184 146.242 l S Q
q 1 0 0 1 0 0 cm
36.184 146.242 m 36.184 145.523 l S Q
q 1 0 0 1 0 0 cm
36.184 145.523 m 36.184 145.16 l S Q
q 1 0 0 1 0 0 cm
36.184 145.16 m 36.547 144.801 l S Q
q 1 0 0 1 0 0 cm
36.547 144.801 m 37.262 144.438 l S Q
q 1 0 0 1 0 0 cm
37.262 144.438 m 38.348 144.438 l S Q
q 1 0 0 1 0 0 cm
38.348 144.438 m 38.703 144.801 l S Q
q 1 0 0 1 0 0 cm
38.703 144.801 m 39.066 145.16 l S Q
q 1 0 0 1 0 0 cm
39.066 145.16 m 39.426 145.523 l S Q
q 1 0 0 1 0 0 cm
39.426 145.523 m 39.426 147.32 l S Q
q 1 0 0 1 0 0 cm
39.426 147.32 m 39.066 147.68 l S Q
q 1 0 0 1 0 0 cm
39.066 147.68 m 38.703 148.043 l S Q
q 1 0 0 1 0 0 cm
48.066 128.242 m 47.348 127.879 l S Q
q 1 0 0 1 0 0 cm
47.348 127.879 m 46.984 127.523 l S Q
q 1 0 0 1 0 0 cm
46.984 127.523 m 46.262 126.801 l S Q
q 1 0 0 1 0 0 cm
46.262 126.801 m 45.547 126.438 l S Q
q 1 0 0 1 0 0 cm
45.547 126.438 m 45.184 126.438 l S Q
q 1 0 0 1 0 0 cm
45.547 127.523 m 44.828 127.523 l S Q
q 1 0 0 1 0 0 cm
44.828 127.523 m 44.465 126.801 l S Q
q 1 0 0 1 0 0 cm
44.465 126.801 m 44.105 125.723 l S Q
q 1 0 0 1 0 0 cm
44.105 125.723 m 44.105 123.918 l S Q
q 1 0 0 1 0 0 cm
44.105 123.918 m 44.465 122.84 l S Q
q 1 0 0 1 0 0 cm
44.465 122.84 m 44.828 122.484 l S Q
q 1 0 0 1 0 0 cm
44.828 122.484 m 45.547 122.121 l S Q
q 1 0 0 1 0 0 cm
45.547 122.121 m 46.262 122.121 l S Q
q 1 0 0 1 0 0 cm
46.262 122.121 m 46.984 122.484 l S Q
q 1 0 0 1 0 0 cm
46.984 122.484 m 47.348 122.84 l S Q
q 1 0 0 1 0 0 cm
47.348 122.84 m 47.703 123.918 l S Q
q 1 0 0 1 0 0 cm
47.703 123.918 m 47.703 125.723 l S Q
q 1 0 0 1 0 0 cm
47.703 125.723 m 47.348 126.801 l S Q
q 1 0 0 1 0 0 cm
47.348 126.801 m 46.984 127.523 l S Q
q 1 0 0 1 0 0 cm
46.984 127.523 m 46.262 127.523 l S Q
q 1 0 0 1 0 0 cm
46.262 127.523 m 45.547 127.523 l S Q
q 1 0 0 1 0 0 cm
49.867 122.84 m 50.223 122.484 l S Q
q 1 0 0 1 0 0 cm
50.223 122.484 m 50.586 122.121 l S Q
q 1 0 0 1 0 0 cm
50.586 122.121 m 51.664 122.121 l S Q
q 1 0 0 1 0 0 cm
51.664 122.121 m 52.387 122.484 l S Q
q 1 0 0 1 0 0 cm
52.387 122.484 m 52.742 122.84 l S Q
q 1 0 0 1 0 0 cm
52.742 122.84 m 52.742 123.199 l S Q
q 1 0 0 1 0 0 cm
52.742 123.199 m 52.742 123.562 l S Q
q 1 0 0 1 0 0 cm
52.742 123.562 m 52.742 124.641 l S Q
q 1 0 0 1 0 0 cm
52.742 124.641 m 49.504 127.523 l S Q
q 1 0 0 1 0 0 cm
49.504 127.523 m 52.742 127.523 l S Q
1.079826 w
q 1 0 0 1 0 0 cm
125.465 65.242 m 125.465 71.801 120.148 77.121 113.586 77.121 c 107.023
 77.121 101.703 71.801 101.703 65.242 c 101.703 58.68 107.023 53.359 113.586
 53.359 c 120.148 53.359 125.465 58.68 125.465 65.242 c S Q
q 1 0 0 1 0 0 cm
116.465 62.359 m 108.547 54.438 l S Q
q 1 0 0 1 0 0 cm
116.465 67.762 m 108.547 76.043 l S Q
q 1 0 0 1 0 0 cm
108.547 76.043 m 108.547 76.043 l S Q
2.159652 w
q 1 0 0 1 0 0 cm
116.465 56.957 m 116.465 73.16 l S Q
q 1 0 0 1 0 0 cm
116.465 73.16 m 116.465 73.16 l S Q
113.945 72.801 m 111.789 70.641 l 109.625 74.957 l h
113.945 72.801 m f*
1.079826 w
q 1 0 0 1 0 0 cm
113.945 72.801 m 111.789 70.641 l 109.625 74.957 l h
113.945 72.801 m S Q
q 1 0 0 1 0 0 cm
116.465 65.242 m 140.945 65.242 l S Q
0.86386 w
q 1 0 0 1 0 0 cm
130.145 71.723 m 126.906 71.723 l S Q
q 1 0 0 1 0 0 cm
128.703 71.723 m 128.703 66.32 l S Q
q 1 0 0 1 0 0 cm
128.703 66.32 m 127.984 67.043 l S Q
q 1 0 0 1 0 0 cm
127.984 67.043 m 127.625 67.398 l S Q
q 1 0 0 1 0 0 cm
127.625 67.398 m 126.906 67.762 l S Q
1.079826 w
q 1 0 0 1 0 0 cm
108.547 54.438 m 108.547 43.641 l S Q
0.86386 w
q 1 0 0 1 0 0 cm
109.984 50.484 m 109.984 50.121 l S Q
q 1 0 0 1 0 0 cm
109.984 50.121 m 109.625 49.762 l S Q
q 1 0 0 1 0 0 cm
109.625 49.762 m 109.625 48.32 l S Q
q 1 0 0 1 0 0 cm
109.625 48.32 m 109.984 47.957 l S Q
q 1 0 0 1 0 0 cm
109.984 47.957 m 109.984 47.602 l S Q
q 1 0 0 1 0 0 cm
109.984 47.602 m 110.703 47.242 l S Q
q 1 0 0 1 0 0 cm
110.703 47.242 m 111.066 47.242 l S Q
q 1 0 0 1 0 0 cm
111.066 47.242 m 111.789 47.602 l S Q
q 1 0 0 1 0 0 cm
111.789 47.602 m 115.027 50.84 l S Q
q 1 0 0 1 0 0 cm
115.027 50.84 m 115.027 47.242 l S Q
1.079826 w
q 1 0 0 1 0 0 cm
108.547 76.043 m 108.547 86.84 l S Q
0.86386 w
q 1 0 0 1 0 0 cm
109.625 83.242 m 109.625 79.641 l S Q
q 1 0 0 1 0 0 cm
109.625 79.641 m 111.426 81.438 l S Q
q 1 0 0 1 0 0 cm
111.426 81.438 m 111.426 80.723 l S Q
q 1 0 0 1 0 0 cm
111.426 80.723 m 111.789 80.359 l S Q
q 1 0 0 1 0 0 cm
111.789 80.359 m 112.145 80.004 l S Q
q 1 0 0 1 0 0 cm
112.145 80.004 m 112.504 79.641 l S Q
q 1 0 0 1 0 0 cm
112.504 79.641 m 113.945 79.641 l S Q
q 1 0 0 1 0 0 cm
113.945 79.641 m 114.309 80.004 l S Q
q 1 0 0 1 0 0 cm
114.309 80.004 m 114.664 80.359 l S Q
q 1 0 0 1 0 0 cm
114.664 80.359 m 115.027 80.723 l S Q
q 1 0 0 1 0 0 cm
115.027 80.723 m 115.027 82.523 l S Q
q 1 0 0 1 0 0 cm
115.027 82.523 m 114.664 82.879 l S Q
q 1 0 0 1 0 0 cm
114.664 82.879 m 114.309 83.242 l S Q
q 1 0 0 1 0 0 cm
92.348 63.438 m 91.984 63.082 l S Q
q 1 0 0 1 0 0 cm
91.984 63.082 m 91.262 62.723 l S Q
q 1 0 0 1 0 0 cm
91.262 62.723 m 90.547 62.004 l S Q
q 1 0 0 1 0 0 cm
90.547 62.004 m 90.184 61.641 l S Q
q 1 0 0 1 0 0 cm
90.184 61.641 m 89.465 61.641 l S Q
q 1 0 0 1 0 0 cm
89.828 62.723 m 89.105 62.723 l S Q
q 1 0 0 1 0 0 cm
89.105 62.723 m 88.742 62.004 l S Q
q 1 0 0 1 0 0 cm
88.742 62.004 m 88.387 60.918 l S Q
q 1 0 0 1 0 0 cm
88.387 60.918 m 88.387 59.121 l S Q
q 1 0 0 1 0 0 cm
88.387 59.121 m 88.742 58.043 l S Q
q 1 0 0 1 0 0 cm
88.742 58.043 m 89.105 57.68 l S Q
q 1 0 0 1 0 0 cm
89.105 57.68 m 89.828 57.32 l S Q
q 1 0 0 1 0 0 cm
89.828 57.32 m 90.906 57.32 l S Q
q 1 0 0 1 0 0 cm
90.906 57.32 m 91.262 57.68 l S Q
q 1 0 0 1 0 0 cm
91.262 57.68 m 91.984 58.043 l S Q
q 1 0 0 1 0 0 cm
91.984 58.043 m 91.984 59.121 l S Q
q 1 0 0 1 0 0 cm
91.984 59.121 m 91.984 60.918 l S Q
q 1 0 0 1 0 0 cm
91.984 60.918 m 91.984 62.004 l S Q
q 1 0 0 1 0 0 cm
91.984 62.004 m 91.262 62.723 l S Q
q 1 0 0 1 0 0 cm
91.262 62.723 m 90.906 62.723 l S Q
q 1 0 0 1 0 0 cm
90.906 62.723 m 89.828 62.723 l S Q
q 1 0 0 1 0 0 cm
93.789 57.32 m 97.387 57.32 l S Q
q 1 0 0 1 0 0 cm
97.387 57.32 m 95.223 59.484 l S Q
q 1 0 0 1 0 0 cm
95.223 59.484 m 96.309 59.484 l S Q
q 1 0 0 1 0 0 cm
96.309 59.484 m 96.664 59.84 l S Q
q 1 0 0 1 0 0 cm
96.664 59.84 m 97.027 59.84 l S Q
q 1 0 0 1 0 0 cm
97.027 59.84 m 97.387 60.562 l S Q
q 1 0 0 1 0 0 cm
97.387 60.562 m 97.387 62.004 l S Q
q 1 0 0 1 0 0 cm
97.387 62.004 m 97.027 62.359 l S Q
q 1 0 0 1 0 0 cm
97.027 62.359 m 96.664 62.723 l S Q
q 1 0 0 1 0 0 cm
96.664 62.723 m 96.309 62.723 l S Q
q 1 0 0 1 0 0 cm
96.309 62.723 m 94.504 62.723 l S Q
q 1 0 0 1 0 0 cm
94.504 62.723 m 94.145 62.723 l S Q
q 1 0 0 1 0 0 cm
94.145 62.723 m 93.789 62.359 l S Q
1.079826 w
q 1 0 0 1 0 0 cm
125.465 130.043 m 125.465 136.605 120.148 141.918 113.586 141.918 c 107.023
 141.918 101.703 136.605 101.703 130.043 c 101.703 123.48 107.023 118.16
 113.586 118.16 c 120.148 118.16 125.465 123.48 125.465 130.043 c S Q
q 1 0 0 1 0 0 cm
116.465 127.16 m 108.547 119.242 l S Q
q 1 0 0 1 0 0 cm
116.465 132.562 m 108.547 140.84 l S Q
q 1 0 0 1 0 0 cm
108.547 140.84 m 108.547 140.84 l S Q
2.159652 w
q 1 0 0 1 0 0 cm
116.465 121.762 m 116.465 137.957 l S Q
q 1 0 0 1 0 0 cm
116.465 137.957 m 116.465 137.957 l S Q
113.945 137.602 m 111.789 135.438 l 109.625 139.762 l h
113.945 137.602 m f*
1.079826 w
q 1 0 0 1 0 0 cm
113.945 137.602 m 111.789 135.438 l 109.625 139.762 l h
113.945 137.602 m S Q
q 1 0 0 1 0 0 cm
116.465 130.043 m 140.945 130.043 l S Q
0.86386 w
q 1 0 0 1 0 0 cm
130.145 136.523 m 126.906 136.523 l S Q
q 1 0 0 1 0 0 cm
128.703 136.523 m 128.703 131.121 l S Q
q 1 0 0 1 0 0 cm
128.703 131.121 m 127.984 131.84 l S Q
q 1 0 0 1 0 0 cm
127.984 131.84 m 127.625 132.199 l S Q
q 1 0 0 1 0 0 cm
127.625 132.199 m 126.906 132.562 l S Q
1.079826 w
q 1 0 0 1 0 0 cm
108.547 119.242 m 108.547 108.438 l S Q
0.86386 w
q 1 0 0 1 0 0 cm
109.984 115.281 m 109.984 114.918 l S Q
q 1 0 0 1 0 0 cm
109.984 114.918 m 109.625 114.562 l S Q
q 1 0 0 1 0 0 cm
109.625 114.562 m 109.625 113.121 l S Q
q 1 0 0 1 0 0 cm
109.625 113.121 m 109.984 112.762 l S Q
q 1 0 0 1 0 0 cm
109.984 112.762 m 109.984 112.398 l S Q
q 1 0 0 1 0 0 cm
109.984 112.398 m 110.703 112.043 l S Q
q 1 0 0 1 0 0 cm
110.703 112.043 m 111.066 112.043 l S Q
q 1 0 0 1 0 0 cm
111.066 112.043 m 111.789 112.398 l S Q
q 1 0 0 1 0 0 cm
111.789 112.398 m 115.027 115.641 l S Q
q 1 0 0 1 0 0 cm
115.027 115.641 m 115.027 112.043 l S Q
1.079826 w
q 1 0 0 1 0 0 cm
108.547 140.84 m 108.547 151.641 l S Q
0.86386 w
q 1 0 0 1 0 0 cm
109.625 148.043 m 109.625 144.438 l S Q
q 1 0 0 1 0 0 cm
109.625 144.438 m 111.426 146.242 l S Q
q 1 0 0 1 0 0 cm
111.426 146.242 m 111.426 145.523 l S Q
q 1 0 0 1 0 0 cm
111.426 145.523 m 111.789 145.16 l S Q
q 1 0 0 1 0 0 cm
111.789 145.16 m 112.145 144.801 l S Q
q 1 0 0 1 0 0 cm
112.145 144.801 m 112.504 144.438 l S Q
q 1 0 0 1 0 0 cm
112.504 144.438 m 113.945 144.438 l S Q
q 1 0 0 1 0 0 cm
113.945 144.438 m 114.309 144.801 l S Q
q 1 0 0 1 0 0 cm
114.309 144.801 m 114.664 145.16 l S Q
q 1 0 0 1 0 0 cm
114.664 145.16 m 115.027 145.523 l S Q
q 1 0 0 1 0 0 cm
115.027 145.523 m 115.027 147.32 l S Q
q 1 0 0 1 0 0 cm
115.027 147.32 m 114.664 147.68 l S Q
q 1 0 0 1 0 0 cm
114.664 147.68 m 114.309 148.043 l S Q
q 1 0 0 1 0 0 cm
92.348 128.242 m 91.984 127.879 l S Q
q 1 0 0 1 0 0 cm
91.984 127.879 m 91.262 127.523 l S Q
q 1 0 0 1 0 0 cm
91.262 127.523 m 90.547 126.801 l S Q
q 1 0 0 1 0 0 cm
90.547 126.801 m 90.184 126.438 l S Q
q 1 0 0 1 0 0 cm
90.184 126.438 m 89.465 126.438 l S Q
q 1 0 0 1 0 0 cm
89.828 127.523 m 89.105 127.523 l S Q
q 1 0 0 1 0 0 cm
89.105 127.523 m 88.742 126.801 l S Q
q 1 0 0 1 0 0 cm
88.742 126.801 m 88.387 125.723 l S Q
q 1 0 0 1 0 0 cm
88.387 125.723 m 88.387 123.918 l S Q
q 1 0 0 1 0 0 cm
88.387 123.918 m 88.742 122.84 l S Q
q 1 0 0 1 0 0 cm
88.742 122.84 m 89.105 122.484 l S Q
q 1 0 0 1 0 0 cm
89.105 122.484 m 89.828 122.121 l S Q
q 1 0 0 1 0 0 cm
89.828 122.121 m 90.906 122.121 l S Q
q 1 0 0 1 0 0 cm
90.906 122.121 m 91.262 122.484 l S Q
q 1 0 0 1 0 0 cm
91.262 122.484 m 91.984 122.84 l S Q
q 1 0 0 1 0 0 cm
91.984 122.84 m 91.984 123.918 l S Q
q 1 0 0 1 0 0 cm
91.984 123.918 m 91.984 125.723 l S Q
q 1 0 0 1 0 0 cm
91.984 125.723 m 91.984 126.801 l S Q
q 1 0 0 1 0 0 cm
91.984 126.801 m 91.262 127.523 l S Q
q 1 0 0 1 0 0 cm
91.262 127.523 m 90.906 127.523 l S Q
q 1 0 0 1 0 0 cm
90.906 127.523 m 89.828 127.523 l S Q
q 1 0 0 1 0 0 cm
96.664 123.918 m 96.664 127.523 l S Q
q 1 0 0 1 0 0 cm
95.223 122.121 m 94.145 125.723 l S Q
q 1 0 0 1 0 0 cm
94.145 125.723 m 97.387 125.723 l S Q
1.079826 w
q 1 0 0 1 0 0 cm
85.504 97.641 m 85.504 105.199 79.379 111.32 71.828 111.32 c 64.27 111.32
 58.145 105.199 58.145 97.641 c 58.145 90.086 64.27 83.957 71.828 83.957
 c 79.379 83.957 85.504 90.086 85.504 97.641 c S Q
q 1 0 0 1 0 0 cm
79.387 103.043 m 63.184 103.043 l S Q
q 1 0 0 1 0 0 cm
63.184 103.043 m 73.984 97.641 l S Q
q 1 0 0 1 0 0 cm
73.984 97.641 m 63.184 92.242 l S Q
q 1 0 0 1 0 0 cm
63.184 92.242 m 79.387 92.242 l S Q
q 1 0 0 1 0 0 cm
97.742 97.641 m 95.586 97.641 l S Q
q 1 0 0 1 0 0 cm
85.504 97.641 m 87.309 97.641 l S Q
q 1 0 0 1 0 0 cm
57.789 97.641 m 56.348 97.641 l S Q
q 1 0 0 1 0 0 cm
56.703 97.641 m 54.547 97.641 l S Q
q 1 0 0 1 0 0 cm
54.547 97.641 m 43.742 97.641 l S Q
0.86386 w
q 1 0 0 1 0 0 cm
46.984 93.68 m 51.309 93.68 l S Q
q 1 0 0 1 0 0 cm
49.145 95.84 m 49.145 91.879 l S Q
q 1 0 0 1 0 0 cm
50.586 104.121 m 47.348 104.121 l S Q
q 1 0 0 1 0 0 cm
49.145 104.121 m 49.145 98.723 l S Q
q 1 0 0 1 0 0 cm
49.145 98.723 m 48.426 99.438 l S Q
q 1 0 0 1 0 0 cm
48.426 99.438 m 48.066 99.801 l S Q
q 1 0 0 1 0 0 cm
48.066 99.801 m 47.348 100.16 l S Q
1.079826 w
q 1 0 0 1 0 0 cm
86.945 97.641 m 97.742 97.641 l S Q
0.86386 w
q 1 0 0 1 0 0 cm
90.184 93.68 m 94.145 93.68 l S Q
q 1 0 0 1 0 0 cm
90.547 99.082 m 90.906 99.082 l S Q
q 1 0 0 1 0 0 cm
90.906 99.082 m 91.262 98.723 l S Q
q 1 0 0 1 0 0 cm
91.262 98.723 m 92.703 98.723 l S Q
q 1 0 0 1 0 0 cm
92.703 98.723 m 93.066 99.082 l S Q
q 1 0 0 1 0 0 cm
93.066 99.082 m 93.426 99.082 l S Q
q 1 0 0 1 0 0 cm
93.426 99.082 m 93.789 99.801 l S Q
q 1 0 0 1 0 0 cm
93.789 99.801 m 93.789 100.16 l S Q
q 1 0 0 1 0 0 cm
93.789 100.16 m 93.426 100.879 l S Q
q 1 0 0 1 0 0 cm
93.426 100.879 m 90.547 104.121 l S Q
q 1 0 0 1 0 0 cm
90.547 104.121 m 93.789 104.121 l S Q
1.079826 w
q 1 0 0 1 0 0 cm
70.746 173.242 m 70.746 178.641 l S Q
q 1 0 0 1 0 0 cm
70.746 178.641 m 76.148 178.641 l S Q
q 1 0 0 1 0 0 cm
76.148 178.641 m 70.746 184.043 l S Q
q 1 0 0 1 0 0 cm
70.746 184.043 m 65.348 178.641 l S Q
q 1 0 0 1 0 0 cm
65.348 178.641 m 70.746 178.641 l S Q
0.86386 w
q 1 0 0 1 0 0 cm
67.148 189.801 m 66.426 189.438 l S Q
q 1 0 0 1 0 0 cm
66.426 189.438 m 65.707 189.438 l S Q
q 1 0 0 1 0 0 cm
65.707 189.438 m 64.984 189.801 l S Q
q 1 0 0 1 0 0 cm
64.984 189.801 m 64.629 190.16 l S Q
q 1 0 0 1 0 0 cm
64.629 190.16 m 64.266 190.879 l S Q
q 1 0 0 1 0 0 cm
64.266 190.879 m 63.906 191.957 l S Q
q 1 0 0 1 0 0 cm
63.906 191.957 m 63.906 192.68 l S Q
q 1 0 0 1 0 0 cm
63.906 192.68 m 64.266 193.762 l S Q
q 1 0 0 1 0 0 cm
64.266 193.762 m 64.629 194.121 l S Q
q 1 0 0 1 0 0 cm
64.629 194.121 m 64.984 194.84 l S Q
q 1 0 0 1 0 0 cm
64.984 194.84 m 65.707 194.84 l S Q
q 1 0 0 1 0 0 cm
65.707 194.84 m 66.426 194.84 l S Q
q 1 0 0 1 0 0 cm
66.426 194.84 m 67.148 194.84 l S Q
q 1 0 0 1 0 0 cm
67.148 194.84 m 67.504 194.484 l S Q
q 1 0 0 1 0 0 cm
67.504 194.484 m 67.504 192.68 l S Q
q 1 0 0 1 0 0 cm
67.504 192.68 m 66.426 192.68 l S Q
q 1 0 0 1 0 0 cm
69.668 194.84 m 69.668 189.438 l S Q
q 1 0 0 1 0 0 cm
69.668 189.438 m 72.906 194.84 l S Q
q 1 0 0 1 0 0 cm
72.906 194.84 m 72.906 189.438 l S Q
q 1 0 0 1 0 0 cm
75.426 194.84 m 75.426 189.438 l S Q
q 1 0 0 1 0 0 cm
75.426 189.438 m 76.504 189.438 l S Q
q 1 0 0 1 0 0 cm
76.504 189.438 m 77.227 189.801 l S Q
q 1 0 0 1 0 0 cm
77.227 189.801 m 77.945 190.16 l S Q
q 1 0 0 1 0 0 cm
77.945 190.16 m 78.305 190.879 l S Q
q 1 0 0 1 0 0 cm
78.305 190.879 m 78.305 191.957 l S Q
q 1 0 0 1 0 0 cm
78.305 191.957 m 78.305 192.68 l S Q
q 1 0 0 1 0 0 cm
78.305 192.68 m 78.305 193.762 l S Q
q 1 0 0 1 0 0 cm
78.305 193.762 m 77.945 194.121 l S Q
q 1 0 0 1 0 0 cm
77.945 194.121 m 77.227 194.84 l S Q
q 1 0 0 1 0 0 cm
77.227 194.84 m 76.504 194.84 l S Q
q 1 0 0 1 0 0 cm
76.504 194.84 m 75.426 194.84 l S Q
1.079826 w
q 1 0 0 1 0 0 cm
73.266 13.762 m 73.266 17.121 68.227 17.121 68.227 13.762 c 68.227 10.398
 73.266 10.398 73.266 13.762 c S Q
q 1 0 0 1 0 0 cm
70.746 22.043 m 70.746 16.641 l S Q
0.86386 w
q 1 0 0 1 0 0 cm
65.348 0.438 m 67.148 5.84 l S Q
q 1 0 0 1 0 0 cm
67.148 5.84 m 68.945 0.438 l S Q
q 1 0 0 1 0 0 cm
73.629 5.121 m 73.629 5.484 l S Q
q 1 0 0 1 0 0 cm
73.629 5.484 m 72.906 5.84 l S Q
q 1 0 0 1 0 0 cm
72.906 5.84 m 72.188 5.84 l S Q
q 1 0 0 1 0 0 cm
72.188 5.84 m 71.465 5.484 l S Q
q 1 0 0 1 0 0 cm
71.465 5.484 m 70.746 4.762 l S Q
q 1 0 0 1 0 0 cm
70.746 4.762 m 70.746 4.398 l S Q
q 1 0 0 1 0 0 cm
70.746 4.398 m 70.387 3.32 l S Q
q 1 0 0 1 0 0 cm
70.387 3.32 m 70.387 2.602 l S Q
q 1 0 0 1 0 0 cm
70.387 2.602 m 70.746 1.523 l S Q
q 1 0 0 1 0 0 cm
70.746 1.523 m 70.746 1.16 l S Q
q 1 0 0 1 0 0 cm
70.746 1.16 m 71.465 0.438 l S Q
q 1 0 0 1 0 0 cm
71.465 0.438 m 72.188 0.438 l S Q
q 1 0 0 1 0 0 cm
72.188 0.438 m 72.906 0.438 l S Q
q 1 0 0 1 0 0 cm
72.906 0.438 m 73.629 0.438 l S Q
q 1 0 0 1 0 0 cm
73.629 0.438 m 73.629 0.801 l S Q
q 1 0 0 1 0 0 cm
79.023 5.121 m 79.023 5.484 l S Q
q 1 0 0 1 0 0 cm
79.023 5.484 m 78.305 5.84 l S Q
q 1 0 0 1 0 0 cm
78.305 5.84 m 77.59 5.84 l S Q
q 1 0 0 1 0 0 cm
77.59 5.84 m 76.867 5.484 l S Q
q 1 0 0 1 0 0 cm
76.867 5.484 m 76.148 4.762 l S Q
q 1 0 0 1 0 0 cm
76.148 4.762 m 76.148 4.398 l S Q
q 1 0 0 1 0 0 cm
76.148 4.398 m 75.785 3.32 l S Q
q 1 0 0 1 0 0 cm
75.785 3.32 m 75.785 2.602 l S Q
q 1 0 0 1 0 0 cm
75.785 2.602 m 76.148 1.523 l S Q
q 1 0 0 1 0 0 cm
76.148 1.523 m 76.148 1.16 l S Q
q 1 0 0 1 0 0 cm
76.148 1.16 m 76.867 0.438 l S Q
q 1 0 0 1 0 0 cm
76.867 0.438 m 77.59 0.438 l S Q
q 1 0 0 1 0 0 cm
77.59 0.438 m 78.305 0.438 l S Q
q 1 0 0 1 0 0 cm
78.305 0.438 m 79.023 0.438 l S Q
q 1 0 0 1 0 0 cm
79.023 0.438 m 79.023 0.801 l S Q
1.079826 w
q 1 0 0 1 0 0 cm
32.945 86.84 m 32.945 97.641 l S Q
q 1 0 0 1 0 0 cm
43.742 97.641 m 32.945 97.641 l S Q
q 1 0 0 1 0 0 cm
32.945 97.641 m 32.945 108.438 l S Q
q 1 0 0 1 0 0 cm
108.547 86.84 m 108.547 97.641 l S Q
q 1 0 0 1 0 0 cm
108.547 97.641 m 97.742 97.641 l S Q
q 1 0 0 1 0 0 cm
108.547 97.641 m 108.547 108.438 l S Q
q 1 0 0 1 0 0 cm
32.945 43.641 m 32.945 32.84 l S Q
q 1 0 0 1 0 0 cm
32.945 32.84 m 108.547 32.84 l S Q
q 1 0 0 1 0 0 cm
108.547 32.84 m 108.547 43.641 l S Q
q 1 0 0 1 0 0 cm
32.945 151.641 m 32.945 162.438 l S Q
q 1 0 0 1 0 0 cm
32.945 162.438 m 108.547 162.438 l S Q
q 1 0 0 1 0 0 cm
108.547 162.438 m 108.547 151.641 l S Q
q 1 0 0 1 0 0 cm
70.746 173.242 m 70.746 162.438 l S Q
q 1 0 0 1 0 0 cm
70.746 22.043 m 70.746 32.84 l S Q
35.105 97.641 m 35.105 100.523 30.789 100.523 30.789 97.641 c 30.789 94.762
 35.105 94.762 35.105 97.641 c f
0.323947 w
q 1 0 0 1 0 0 cm
35.105 97.641 m 35.105 100.523 30.789 100.523 30.789 97.641 c 30.789 94.762
 35.105 94.762 35.105 97.641 c S Q
110.348 97.641 m 110.348 100.523 106.027 100.523 106.027 97.641 c 106.027
 94.762 110.348 94.762 110.348 97.641 c f
q 1 0 0 1 0 0 cm
110.348 97.641 m 110.348 100.523 106.027 100.523 106.027 97.641 c 106.027
 94.762 110.348 94.762 110.348 97.641 c S Q
72.906 162.438 m 72.906 165.32 68.59 165.32 68.59 162.438 c 68.59 159.562
 72.906 159.562 72.906 162.438 c f
q 1 0 0 1 0 0 cm
72.906 162.438 m 72.906 165.32 68.59 165.32 68.59 162.438 c 68.59 159.562
 72.906 159.562 72.906 162.438 c S Q
72.906 32.84 m 72.906 35.723 68.59 35.723 68.59 32.84 c 68.59 29.957 72.906
 29.957 72.906 32.84 c f
q 1 0 0 1 0 0 cm
72.906 32.84 m 72.906 35.723 68.59 35.723 68.59 32.84 c 68.59 29.957 72.906
 29.957 72.906 32.84 c S Q
Q Q
showpage
%%Trailer
end
%%EOF
