%!PS-Adobe-3.0 EPSF-3.0
%%Creator: cairo 1.16.0 (https://cairographics.org)
%%CreationDate: Tue Aug 20 18:55:55 2019
%%Pages: 1
%%DocumentData: Clean7Bit
%%LanguageLevel: 2
%%BoundingBox: 0 0 68 131
%%EndComments
%%BeginProlog
50 dict begin
/q { gsave } bind def
/Q { grestore } bind def
/cm { 6 array astore concat } bind def
/w { setlinewidth } bind def
/J { setlinecap } bind def
/j { setlinejoin } bind def
/M { setmiterlimit } bind def
/d { setdash } bind def
/m { moveto } bind def
/l { lineto } bind def
/c { curveto } bind def
/h { closepath } bind def
/re { exch dup neg 3 1 roll 5 3 roll moveto 0 rlineto
      0 exch rlineto 0 rlineto closepath } bind def
/S { stroke } bind def
/f { fill } bind def
/f* { eofill } bind def
/n { newpath } bind def
/W { clip } bind def
/W* { eoclip } bind def
/BT { } bind def
/ET { } bind def
/BDC { mark 3 1 roll /BDC pdfmark } bind def
/EMC { mark /EMC pdfmark } bind def
/cairo_store_point { /cairo_point_y exch def /cairo_point_x exch def } def
/Tj { show currentpoint cairo_store_point } bind def
/TJ {
  {
    dup
    type /stringtype eq
    { show } { -0.001 mul 0 cairo_font_matrix dtransform rmoveto } ifelse
  } forall
  currentpoint cairo_store_point
} bind def
/cairo_selectfont { cairo_font_matrix aload pop pop pop 0 0 6 array astore
    cairo_font exch selectfont cairo_point_x cairo_point_y moveto } bind def
/Tf { pop /cairo_font exch def /cairo_font_matrix where
      { pop cairo_selectfont } if } bind def
/Td { matrix translate cairo_font_matrix matrix concatmatrix dup
      /cairo_font_matrix exch def dup 4 get exch 5 get cairo_store_point
      /cairo_font where { pop cairo_selectfont } if } bind def
/Tm { 2 copy 8 2 roll 6 array astore /cairo_font_matrix exch def
      cairo_store_point /cairo_font where { pop cairo_selectfont } if } bind def
/g { setgray } bind def
/rg { setrgbcolor } bind def
/d1 { setcachedevice } bind def
/cairo_data_source {
  CairoDataIndex CairoData length lt
    { CairoData CairoDataIndex get /CairoDataIndex CairoDataIndex 1 add def }
    { () } ifelse
} def
/cairo_flush_ascii85_file { cairo_ascii85_file status { cairo_ascii85_file flushfile } if } def
/cairo_image { image cairo_flush_ascii85_file } def
/cairo_imagemask { imagemask cairo_flush_ascii85_file } def
%%EndProlog
%%BeginSetup
%%EndSetup
%%Page: 1 1
%%BeginPageSetup
%%PageBoundingBox: 0 0 68 131
%%EndPageSetup
q 0 0 68 131 rectclip
1 0 0 -1 0 131 cm q
0 g
0.719884 w
1 J
1 j
[] 0.0 d
10 M q 1 0 0 1 0 0 cm
44.043 65.094 m 44.043 70.133 39.961 74.215 34.922 74.215 c 29.887 74.215
 25.805 70.133 25.805 65.094 c 25.805 60.059 29.887 55.973 34.922 55.973
 c 39.961 55.973 44.043 60.059 44.043 65.094 c S Q
q 1 0 0 1 0 0 cm
39.965 68.695 m 29.164 68.695 l S Q
q 1 0 0 1 0 0 cm
29.164 68.695 m 36.363 65.094 l S Q
q 1 0 0 1 0 0 cm
36.363 65.094 m 29.164 61.496 l S Q
q 1 0 0 1 0 0 cm
29.164 61.496 m 39.965 61.496 l S Q
q 1 0 0 1 0 0 cm
52.203 65.094 m 50.762 65.094 l S Q
q 1 0 0 1 0 0 cm
44.043 65.094 m 45.242 65.094 l S Q
q 1 0 0 1 0 0 cm
25.562 65.094 m 24.602 65.094 l S Q
q 1 0 0 1 0 0 cm
24.844 65.094 m 23.402 65.094 l S Q
q 1 0 0 1 0 0 cm
23.402 65.094 m 16.203 65.094 l S Q
0.575907 w
q 1 0 0 1 0 0 cm
18.363 62.453 m 21.242 62.453 l S Q
q 1 0 0 1 0 0 cm
19.805 63.895 m 19.805 61.254 l S Q
q 1 0 0 1 0 0 cm
20.762 69.414 m 18.602 69.414 l S Q
q 1 0 0 1 0 0 cm
19.805 69.414 m 19.805 65.816 l S Q
q 1 0 0 1 0 0 cm
19.805 65.816 m 19.324 66.293 l S Q
q 1 0 0 1 0 0 cm
19.324 66.293 m 19.082 66.535 l S Q
q 1 0 0 1 0 0 cm
19.082 66.535 m 18.602 66.773 l S Q
0.719884 w
q 1 0 0 1 0 0 cm
45.004 65.094 m 52.203 65.094 l S Q
0.575907 w
q 1 0 0 1 0 0 cm
47.164 62.453 m 50.043 62.453 l S Q
q 1 0 0 1 0 0 cm
47.402 66.055 m 47.645 66.055 l S Q
q 1 0 0 1 0 0 cm
47.645 66.055 m 47.883 65.816 l S Q
q 1 0 0 1 0 0 cm
47.883 65.816 m 48.844 65.816 l S Q
q 1 0 0 1 0 0 cm
48.844 65.816 m 49.324 66.055 l S Q
q 1 0 0 1 0 0 cm
49.324 66.055 m 49.324 66.055 l S Q
q 1 0 0 1 0 0 cm
49.324 66.055 m 49.562 66.535 l S Q
q 1 0 0 1 0 0 cm
49.562 66.535 m 49.562 66.773 l S Q
q 1 0 0 1 0 0 cm
49.562 66.773 m 49.324 67.254 l S Q
q 1 0 0 1 0 0 cm
49.324 67.254 m 47.402 69.414 l S Q
q 1 0 0 1 0 0 cm
47.402 69.414 m 49.562 69.414 l S Q
0.719884 w
q 1 0 0 1 0 0 cm
6.844 45.656 m 6.844 47.574 3.965 47.574 3.965 45.656 c 3.965 43.734 6.844
 43.734 6.844 45.656 c S Q
q 1 0 0 1 0 0 cm
6.844 34.133 m 6.844 36.055 3.965 36.055 3.965 34.133 c 3.965 32.215 6.844
 32.215 6.844 34.133 c S Q
q 1 0 0 1 0 0 cm
4.684 44.215 m 0.363 35.574 l S Q
q 1 0 0 1 0 0 cm
5.402 47.094 m 5.402 54.293 l S Q
0.575907 w
q 1 0 0 1 0 0 cm
9.723 49.496 m 9.723 51.656 l S Q
q 1 0 0 1 0 0 cm
9.723 50.695 m 6.125 50.695 l S Q
q 1 0 0 1 0 0 cm
6.125 50.695 m 6.602 50.934 l S Q
q 1 0 0 1 0 0 cm
6.602 50.934 m 6.844 51.414 l S Q
q 1 0 0 1 0 0 cm
6.844 51.414 m 7.082 51.656 l S Q
0.719884 w
q 1 0 0 1 0 0 cm
5.402 32.695 m 5.402 25.496 l S Q
0.575907 w
q 1 0 0 1 0 0 cm
6.363 30.055 m 6.363 29.816 l S Q
q 1 0 0 1 0 0 cm
6.363 29.816 m 6.125 29.574 l S Q
q 1 0 0 1 0 0 cm
6.125 29.574 m 6.125 28.613 l S Q
q 1 0 0 1 0 0 cm
6.125 28.613 m 6.363 28.375 l S Q
q 1 0 0 1 0 0 cm
6.363 28.375 m 6.363 28.133 l S Q
q 1 0 0 1 0 0 cm
6.363 28.133 m 6.844 27.895 l S Q
q 1 0 0 1 0 0 cm
6.844 27.895 m 7.082 27.895 l S Q
q 1 0 0 1 0 0 cm
7.082 27.895 m 7.562 28.133 l S Q
q 1 0 0 1 0 0 cm
7.562 28.133 m 9.723 30.293 l S Q
q 1 0 0 1 0 0 cm
9.723 30.293 m 9.723 27.895 l S Q
0.719884 w
q 1 0 0 1 0 0 cm
6.844 96.055 m 6.844 97.973 3.965 97.973 3.965 96.055 c 3.965 94.133 6.844
 94.133 6.844 96.055 c S Q
q 1 0 0 1 0 0 cm
6.844 84.535 m 6.844 86.453 3.965 86.453 3.965 84.535 c 3.965 82.613 6.844
 82.613 6.844 84.535 c S Q
q 1 0 0 1 0 0 cm
4.684 94.613 m 0.363 85.973 l S Q
q 1 0 0 1 0 0 cm
5.402 97.496 m 5.402 104.695 l S Q
0.575907 w
q 1 0 0 1 0 0 cm
9.723 99.895 m 9.723 102.055 l S Q
q 1 0 0 1 0 0 cm
9.723 101.094 m 6.125 101.094 l S Q
q 1 0 0 1 0 0 cm
6.125 101.094 m 6.602 101.336 l S Q
q 1 0 0 1 0 0 cm
6.602 101.336 m 6.844 101.816 l S Q
q 1 0 0 1 0 0 cm
6.844 101.816 m 7.082 102.055 l S Q
0.719884 w
q 1 0 0 1 0 0 cm
5.402 83.094 m 5.402 75.895 l S Q
0.575907 w
q 1 0 0 1 0 0 cm
6.363 80.453 m 6.363 80.215 l S Q
q 1 0 0 1 0 0 cm
6.363 80.215 m 6.125 79.973 l S Q
q 1 0 0 1 0 0 cm
6.125 79.973 m 6.125 79.016 l S Q
q 1 0 0 1 0 0 cm
6.125 79.016 m 6.363 78.773 l S Q
q 1 0 0 1 0 0 cm
6.363 78.773 m 6.363 78.535 l S Q
q 1 0 0 1 0 0 cm
6.363 78.535 m 6.844 78.293 l S Q
q 1 0 0 1 0 0 cm
6.844 78.293 m 7.082 78.293 l S Q
q 1 0 0 1 0 0 cm
7.082 78.293 m 7.562 78.535 l S Q
q 1 0 0 1 0 0 cm
7.562 78.535 m 9.723 80.695 l S Q
q 1 0 0 1 0 0 cm
9.723 80.695 m 9.723 78.293 l S Q
0.719884 w
q 1 0 0 1 0 0 cm
64.441 96.055 m 64.441 97.973 61.562 97.973 61.562 96.055 c 61.562 94.133
 64.441 94.133 64.441 96.055 c S Q
q 1 0 0 1 0 0 cm
64.441 84.535 m 64.441 86.453 61.562 86.453 61.562 84.535 c 61.562 82.613
 64.441 82.613 64.441 84.535 c S Q
q 1 0 0 1 0 0 cm
62.281 94.613 m 57.965 85.973 l S Q
q 1 0 0 1 0 0 cm
63.004 97.496 m 63.004 104.695 l S Q
0.575907 w
q 1 0 0 1 0 0 cm
67.324 99.895 m 67.324 102.055 l S Q
q 1 0 0 1 0 0 cm
67.324 101.094 m 63.723 101.094 l S Q
q 1 0 0 1 0 0 cm
63.723 101.094 m 64.203 101.336 l S Q
q 1 0 0 1 0 0 cm
64.203 101.336 m 64.441 101.816 l S Q
q 1 0 0 1 0 0 cm
64.441 101.816 m 64.684 102.055 l S Q
0.719884 w
q 1 0 0 1 0 0 cm
63.004 83.094 m 63.004 75.895 l S Q
0.575907 w
q 1 0 0 1 0 0 cm
63.965 80.453 m 63.965 80.215 l S Q
q 1 0 0 1 0 0 cm
63.965 80.215 m 63.723 79.973 l S Q
q 1 0 0 1 0 0 cm
63.723 79.973 m 63.723 79.016 l S Q
q 1 0 0 1 0 0 cm
63.723 79.016 m 63.965 78.773 l S Q
q 1 0 0 1 0 0 cm
63.965 78.773 m 63.965 78.535 l S Q
q 1 0 0 1 0 0 cm
63.965 78.535 m 64.441 78.293 l S Q
q 1 0 0 1 0 0 cm
64.441 78.293 m 64.684 78.293 l S Q
q 1 0 0 1 0 0 cm
64.684 78.293 m 65.164 78.535 l S Q
q 1 0 0 1 0 0 cm
65.164 78.535 m 67.324 80.695 l S Q
q 1 0 0 1 0 0 cm
67.324 80.695 m 67.324 78.293 l S Q
0.719884 w
q 1 0 0 1 0 0 cm
64.441 45.656 m 64.441 47.574 61.562 47.574 61.562 45.656 c 61.562 43.734
 64.441 43.734 64.441 45.656 c S Q
q 1 0 0 1 0 0 cm
64.441 34.133 m 64.441 36.055 61.562 36.055 61.562 34.133 c 61.562 32.215
 64.441 32.215 64.441 34.133 c S Q
q 1 0 0 1 0 0 cm
62.281 44.215 m 57.965 35.574 l S Q
q 1 0 0 1 0 0 cm
63.004 47.094 m 63.004 54.293 l S Q
0.575907 w
q 1 0 0 1 0 0 cm
67.324 49.496 m 67.324 51.656 l S Q
q 1 0 0 1 0 0 cm
67.324 50.695 m 63.723 50.695 l S Q
q 1 0 0 1 0 0 cm
63.723 50.695 m 64.203 50.934 l S Q
q 1 0 0 1 0 0 cm
64.203 50.934 m 64.441 51.414 l S Q
q 1 0 0 1 0 0 cm
64.441 51.414 m 64.684 51.656 l S Q
0.719884 w
q 1 0 0 1 0 0 cm
63.004 32.695 m 63.004 25.496 l S Q
0.575907 w
q 1 0 0 1 0 0 cm
63.965 30.055 m 63.965 29.816 l S Q
q 1 0 0 1 0 0 cm
63.965 29.816 m 63.723 29.574 l S Q
q 1 0 0 1 0 0 cm
63.723 29.574 m 63.723 28.613 l S Q
q 1 0 0 1 0 0 cm
63.723 28.613 m 63.965 28.375 l S Q
q 1 0 0 1 0 0 cm
63.965 28.375 m 63.965 28.133 l S Q
q 1 0 0 1 0 0 cm
63.965 28.133 m 64.441 27.895 l S Q
q 1 0 0 1 0 0 cm
64.441 27.895 m 64.684 27.895 l S Q
q 1 0 0 1 0 0 cm
64.684 27.895 m 65.164 28.133 l S Q
q 1 0 0 1 0 0 cm
65.164 28.133 m 67.324 30.293 l S Q
q 1 0 0 1 0 0 cm
67.324 30.293 m 67.324 27.895 l S Q
0.719884 w
q 1 0 0 1 0 0 cm
5.402 54.293 m 5.402 65.094 l S Q
q 1 0 0 1 0 0 cm
16.203 65.094 m 5.402 65.094 l S Q
q 1 0 0 1 0 0 cm
5.402 65.094 m 5.402 75.895 l S Q
q 1 0 0 1 0 0 cm
63.004 54.293 m 63.004 65.094 l S Q
q 1 0 0 1 0 0 cm
52.203 65.094 m 63.004 65.094 l S Q
q 1 0 0 1 0 0 cm
63.004 65.094 m 63.004 75.895 l S Q
q 1 0 0 1 0 0 cm
5.402 104.695 m 5.402 115.496 l S Q
q 1 0 0 1 0 0 cm
5.402 115.496 m 34.203 115.496 l S Q
q 1 0 0 1 0 0 cm
63.004 115.496 m 63.004 104.695 l S Q
q 1 0 0 1 0 0 cm
5.402 25.496 m 5.402 14.695 l S Q
q 1 0 0 1 0 0 cm
5.402 14.695 m 34.203 14.695 l S Q
q 1 0 0 1 0 0 cm
63.004 14.695 m 63.004 25.496 l S Q
q 1 0 0 1 0 0 cm
34.203 115.496 m 34.203 119.094 l S Q
q 1 0 0 1 0 0 cm
34.203 119.094 m 37.805 119.094 l S Q
q 1 0 0 1 0 0 cm
37.805 119.094 m 34.203 122.695 l S Q
q 1 0 0 1 0 0 cm
34.203 122.695 m 30.602 119.094 l S Q
q 1 0 0 1 0 0 cm
30.602 119.094 m 34.203 119.094 l S Q
0.575907 w
q 1 0 0 1 0 0 cm
31.805 126.535 m 31.324 126.293 l S Q
q 1 0 0 1 0 0 cm
31.324 126.293 m 30.844 126.293 l S Q
q 1 0 0 1 0 0 cm
30.844 126.293 m 30.363 126.535 l S Q
q 1 0 0 1 0 0 cm
30.363 126.535 m 30.125 126.773 l S Q
q 1 0 0 1 0 0 cm
30.125 126.773 m 29.883 127.254 l S Q
q 1 0 0 1 0 0 cm
29.883 127.254 m 29.645 127.973 l S Q
q 1 0 0 1 0 0 cm
29.645 127.973 m 29.645 128.453 l S Q
q 1 0 0 1 0 0 cm
29.645 128.453 m 29.883 128.934 l S Q
q 1 0 0 1 0 0 cm
29.883 128.934 m 30.125 129.414 l S Q
q 1 0 0 1 0 0 cm
30.125 129.414 m 30.363 129.656 l S Q
q 1 0 0 1 0 0 cm
30.363 129.656 m 30.844 129.895 l S Q
q 1 0 0 1 0 0 cm
30.844 129.895 m 31.324 129.895 l S Q
q 1 0 0 1 0 0 cm
31.324 129.895 m 31.805 129.656 l S Q
q 1 0 0 1 0 0 cm
31.805 129.656 m 32.043 129.656 l S Q
q 1 0 0 1 0 0 cm
32.043 129.656 m 32.043 128.453 l S Q
q 1 0 0 1 0 0 cm
32.043 128.453 m 31.324 128.453 l S Q
q 1 0 0 1 0 0 cm
33.484 129.895 m 33.484 126.293 l S Q
q 1 0 0 1 0 0 cm
33.484 126.293 m 35.645 129.895 l S Q
q 1 0 0 1 0 0 cm
35.645 129.895 m 35.645 126.293 l S Q
q 1 0 0 1 0 0 cm
37.324 129.895 m 37.324 126.293 l S Q
q 1 0 0 1 0 0 cm
37.324 126.293 m 38.043 126.293 l S Q
q 1 0 0 1 0 0 cm
38.043 126.293 m 38.523 126.535 l S Q
q 1 0 0 1 0 0 cm
38.523 126.535 m 39.004 126.773 l S Q
q 1 0 0 1 0 0 cm
39.004 126.773 m 39.242 127.254 l S Q
q 1 0 0 1 0 0 cm
39.242 127.254 m 39.242 127.973 l S Q
q 1 0 0 1 0 0 cm
39.242 127.973 m 39.242 128.453 l S Q
q 1 0 0 1 0 0 cm
39.242 128.453 m 39.242 128.934 l S Q
q 1 0 0 1 0 0 cm
39.242 128.934 m 39.004 129.414 l S Q
q 1 0 0 1 0 0 cm
39.004 129.414 m 38.523 129.656 l S Q
q 1 0 0 1 0 0 cm
38.523 129.656 m 38.043 129.895 l S Q
q 1 0 0 1 0 0 cm
38.043 129.895 m 37.324 129.895 l S Q
0.719884 w
q 1 0 0 1 0 0 cm
34.203 115.496 m 63.004 115.496 l S Q
q 1 0 0 1 0 0 cm
35.883 9.176 m 35.883 11.414 32.523 11.414 32.523 9.176 c 32.523 6.934 
35.883 6.934 35.883 9.176 c S Q
q 1 0 0 1 0 0 cm
34.203 14.695 m 34.203 11.094 l S Q
0.575907 w
q 1 0 0 1 0 0 cm
30.602 0.293 m 32.043 3.895 l S Q
q 1 0 0 1 0 0 cm
32.043 3.895 m 33.242 0.293 l S Q
q 1 0 0 1 0 0 cm
34.203 3.656 m 34.684 3.895 l S Q
q 1 0 0 1 0 0 cm
34.684 3.895 m 35.645 3.895 l S Q
q 1 0 0 1 0 0 cm
35.645 3.895 m 35.883 3.656 l S Q
q 1 0 0 1 0 0 cm
35.883 3.656 m 36.125 3.414 l S Q
q 1 0 0 1 0 0 cm
36.125 3.414 m 36.125 3.176 l S Q
q 1 0 0 1 0 0 cm
36.125 3.176 m 36.125 2.695 l S Q
q 1 0 0 1 0 0 cm
36.125 2.695 m 36.125 2.453 l S Q
q 1 0 0 1 0 0 cm
36.125 2.453 m 35.883 2.215 l S Q
q 1 0 0 1 0 0 cm
35.883 2.215 m 35.645 1.973 l S Q
q 1 0 0 1 0 0 cm
35.645 1.973 m 34.922 1.973 l S Q
q 1 0 0 1 0 0 cm
34.922 1.973 m 34.441 1.734 l S Q
q 1 0 0 1 0 0 cm
34.441 1.734 m 34.203 1.496 l S Q
q 1 0 0 1 0 0 cm
34.203 1.496 m 34.203 1.254 l S Q
q 1 0 0 1 0 0 cm
34.203 1.254 m 34.203 1.016 l S Q
q 1 0 0 1 0 0 cm
34.203 1.016 m 34.203 0.535 l S Q
q 1 0 0 1 0 0 cm
34.203 0.535 m 34.441 0.293 l S Q
q 1 0 0 1 0 0 cm
34.441 0.293 m 34.922 0.293 l S Q
q 1 0 0 1 0 0 cm
34.922 0.293 m 35.645 0.293 l S Q
q 1 0 0 1 0 0 cm
35.645 0.293 m 36.125 0.293 l S Q
q 1 0 0 1 0 0 cm
37.562 3.656 m 38.043 3.895 l S Q
q 1 0 0 1 0 0 cm
38.043 3.895 m 39.004 3.895 l S Q
q 1 0 0 1 0 0 cm
39.004 3.895 m 39.242 3.656 l S Q
q 1 0 0 1 0 0 cm
39.242 3.656 m 39.484 3.414 l S Q
q 1 0 0 1 0 0 cm
39.484 3.414 m 39.723 3.176 l S Q
q 1 0 0 1 0 0 cm
39.723 3.176 m 39.723 2.695 l S Q
q 1 0 0 1 0 0 cm
39.723 2.695 m 39.484 2.453 l S Q
q 1 0 0 1 0 0 cm
39.484 2.453 m 39.242 2.215 l S Q
q 1 0 0 1 0 0 cm
39.242 2.215 m 39.004 1.973 l S Q
q 1 0 0 1 0 0 cm
39.004 1.973 m 38.281 1.973 l S Q
q 1 0 0 1 0 0 cm
38.281 1.973 m 37.805 1.734 l S Q
q 1 0 0 1 0 0 cm
37.805 1.734 m 37.805 1.496 l S Q
q 1 0 0 1 0 0 cm
37.805 1.496 m 37.562 1.254 l S Q
q 1 0 0 1 0 0 cm
37.562 1.254 m 37.562 1.016 l S Q
q 1 0 0 1 0 0 cm
37.562 1.016 m 37.805 0.535 l S Q
q 1 0 0 1 0 0 cm
37.805 0.535 m 37.805 0.293 l S Q
q 1 0 0 1 0 0 cm
37.805 0.293 m 38.281 0.293 l S Q
q 1 0 0 1 0 0 cm
38.281 0.293 m 39.242 0.293 l S Q
q 1 0 0 1 0 0 cm
39.242 0.293 m 39.723 0.293 l S Q
0.719884 w
q 1 0 0 1 0 0 cm
34.203 14.695 m 63.004 14.695 l S Q
6.844 65.094 m 6.844 67.016 3.965 67.016 3.965 65.094 c 3.965 63.176 6.844
 63.176 6.844 65.094 c f
0.215965 w
q 1 0 0 1 0 0 cm
6.844 65.094 m 6.844 67.016 3.965 67.016 3.965 65.094 c 3.965 63.176 6.844
 63.176 6.844 65.094 c S Q
64.441 65.094 m 64.441 67.016 61.562 67.016 61.562 65.094 c 61.562 63.176
 64.441 63.176 64.441 65.094 c f
q 1 0 0 1 0 0 cm
64.441 65.094 m 64.441 67.016 61.562 67.016 61.562 65.094 c 61.562 63.176
 64.441 63.176 64.441 65.094 c S Q
35.645 115.254 m 35.645 117.176 32.762 117.176 32.762 115.254 c 32.762 
113.336 35.645 113.336 35.645 115.254 c f
q 1 0 0 1 0 0 cm
35.645 115.254 m 35.645 117.176 32.762 117.176 32.762 115.254 c 32.762 
113.336 35.645 113.336 35.645 115.254 c S Q
35.645 14.695 m 35.645 16.613 32.762 16.613 32.762 14.695 c 32.762 12.773
 35.645 12.773 35.645 14.695 c f
q 1 0 0 1 0 0 cm
35.645 14.695 m 35.645 16.613 32.762 16.613 32.762 14.695 c 32.762 12.773
 35.645 12.773 35.645 14.695 c S Q
Q Q
showpage
%%Trailer
end
%%EOF
