%!PS-Adobe-3.0 EPSF-3.0
%%Creator: cairo 1.16.0 (https://cairographics.org)
%%CreationDate: Mon Aug 19 18:55:12 2019
%%Pages: 1
%%DocumentData: Clean7Bit
%%LanguageLevel: 2
%%BoundingBox: 0 0 272 150
%%EndComments
%%BeginProlog
50 dict begin
/q { gsave } bind def
/Q { grestore } bind def
/cm { 6 array astore concat } bind def
/w { setlinewidth } bind def
/J { setlinecap } bind def
/j { setlinejoin } bind def
/M { setmiterlimit } bind def
/d { setdash } bind def
/m { moveto } bind def
/l { lineto } bind def
/c { curveto } bind def
/h { closepath } bind def
/re { exch dup neg 3 1 roll 5 3 roll moveto 0 rlineto
      0 exch rlineto 0 rlineto closepath } bind def
/S { stroke } bind def
/f { fill } bind def
/f* { eofill } bind def
/n { newpath } bind def
/W { clip } bind def
/W* { eoclip } bind def
/BT { } bind def
/ET { } bind def
/BDC { mark 3 1 roll /BDC pdfmark } bind def
/EMC { mark /EMC pdfmark } bind def
/cairo_store_point { /cairo_point_y exch def /cairo_point_x exch def } def
/Tj { show currentpoint cairo_store_point } bind def
/TJ {
  {
    dup
    type /stringtype eq
    { show } { -0.001 mul 0 cairo_font_matrix dtransform rmoveto } ifelse
  } forall
  currentpoint cairo_store_point
} bind def
/cairo_selectfont { cairo_font_matrix aload pop pop pop 0 0 6 array astore
    cairo_font exch selectfont cairo_point_x cairo_point_y moveto } bind def
/Tf { pop /cairo_font exch def /cairo_font_matrix where
      { pop cairo_selectfont } if } bind def
/Td { matrix translate cairo_font_matrix matrix concatmatrix dup
      /cairo_font_matrix exch def dup 4 get exch 5 get cairo_store_point
      /cairo_font where { pop cairo_selectfont } if } bind def
/Tm { 2 copy 8 2 roll 6 array astore /cairo_font_matrix exch def
      cairo_store_point /cairo_font where { pop cairo_selectfont } if } bind def
/g { setgray } bind def
/rg { setrgbcolor } bind def
/d1 { setcachedevice } bind def
/cairo_data_source {
  CairoDataIndex CairoData length lt
    { CairoData CairoDataIndex get /CairoDataIndex CairoDataIndex 1 add def }
    { () } ifelse
} def
/cairo_flush_ascii85_file { cairo_ascii85_file status { cairo_ascii85_file flushfile } if } def
/cairo_image { image cairo_flush_ascii85_file } def
/cairo_imagemask { imagemask cairo_flush_ascii85_file } def
%%EndProlog
%%BeginSetup
%%EndSetup
%%Page: 1 1
%%BeginPageSetup
%%PageBoundingBox: 0 0 272 150
%%EndPageSetup
q 0 0 272 150 rectclip
1 0 0 -1 0 150 cm q
0.682353 0.670588 0.670588 rg
211.449 76.098 m 211.449 98.906 192.965 117.391 170.164 117.391 c 147.121
 117.391 128.637 98.906 128.637 76.098 c 128.637 53.051 147.121 34.566 170.164
 34.566 c 192.965 34.566 211.449 53.051 211.449 76.098 c f*
0.129412 0.117647 0.117647 rg
128.156 75.859 m 128.156 79.938 l 128.395 82.102 l 129.355 85.941 l 129.836
 88.344 l 130.559 90.262 l 131.277 91.941 l 131.996 93.863 l 132.957 95.543
 l 133.918 97.465 l 135.117 99.145 l 136.316 100.586 l 137.52 102.266 l 
143.277 108.027 l 144.961 109.227 l 146.398 110.426 l 148.078 111.629 l 
150 112.59 l 151.68 113.547 l 153.602 114.27 l 155.281 114.988 l 157.203
 115.711 l 159.602 116.188 l 163.441 117.148 l 165.602 117.391 l 167.762
 117.391 l 169.922 117.629 l 171.844 117.391 l 174.004 117.391 l 176.164
 117.148 l 180.004 116.188 l 182.406 115.711 l 184.324 114.988 l 186.004
 114.27 l 187.926 113.547 l 189.605 112.59 l 191.527 111.629 l 193.207 110.426
 l 194.645 109.227 l 196.328 108.027 l 202.086 102.266 l 203.289 100.586
 l 204.488 99.145 l 205.688 97.465 l 206.648 95.543 l 207.609 93.863 l 208.328
 91.941 l 209.047 90.262 l 209.77 88.344 l 210.25 85.941 l 211.211 82.102
 l 211.449 79.938 l 211.449 77.777 l 211.691 75.859 l 211.449 73.699 l 211.449
 71.535 l 211.211 69.379 l 210.25 65.535 l 209.77 63.137 l 209.047 61.215
 l 208.328 59.535 l 207.609 57.613 l 206.648 55.934 l 205.688 54.012 l 204.488
 52.332 l 203.289 50.891 l 202.086 49.211 l 196.328 43.449 l 194.645 42.25
 l 193.207 41.051 l 191.527 39.848 l 189.605 38.891 l 187.926 37.93 l 186.004
 37.207 l 184.324 36.488 l 182.406 35.77 l 180.004 35.289 l 176.164 34.328
 l 174.004 34.086 l 165.602 34.086 l 163.441 34.328 l 159.602 35.289 l 157.203
 35.77 l 155.281 36.488 l 153.602 37.207 l 151.68 37.93 l 150 38.891 l 148.078
 39.848 l 146.398 41.051 l 144.961 42.25 l 143.277 43.449 l 137.52 49.211
 l 136.316 50.891 l 135.117 52.332 l 133.918 54.012 l 132.957 55.934 l 131.996
 57.613 l 131.277 59.535 l 130.559 61.215 l 129.836 63.137 l 129.355 65.535
 l 128.395 69.379 l 128.156 71.535 l 128.156 75.859 l 129.117 75.859 l 129.117
 71.535 l 129.355 69.379 l 130.797 63.613 l 131.516 61.695 l 132.238 60.016
 l 132.957 58.094 l 133.918 56.414 l 134.879 54.492 l 136.078 52.812 l 137.277
 51.371 l 138.477 49.691 l 139.438 48.25 l 142.32 45.371 l 143.758 44.41
 l 145.441 43.211 l 146.879 42.008 l 148.559 40.809 l 150.48 39.848 l 152.16
 38.891 l 154.082 38.168 l 155.762 37.449 l 157.68 36.727 l 163.441 35.289
 l 165.602 35.047 l 174.004 35.047 l 176.164 35.289 l 181.926 36.727 l 183.844
 37.449 l 185.527 38.168 l 187.445 38.891 l 189.125 39.848 l 191.047 40.809
 l 192.727 42.008 l 194.168 43.211 l 195.848 44.41 l 197.289 45.371 l 200.168
 48.25 l 201.129 49.691 l 202.328 51.371 l 203.527 52.812 l 204.727 54.492
 l 205.688 56.414 l 206.648 58.094 l 207.367 60.016 l 208.09 61.695 l 208.809
 63.613 l 210.25 69.379 l 210.488 71.535 l 210.488 73.699 l 210.73 75.859
 l 210.488 77.777 l 210.488 79.938 l 210.25 82.102 l 209.289 85.941 l 208.809
 87.863 l 208.09 89.781 l 207.367 91.461 l 206.648 93.383 l 205.688 95.062
 l 204.727 96.984 l 203.527 98.664 l 202.328 100.105 l 201.129 101.785 l
 200.168 103.227 l 197.289 106.105 l 195.848 107.066 l 194.168 108.266 l
 192.727 109.469 l 191.047 110.668 l 189.125 111.629 l 187.445 112.59 l 
185.527 113.309 l 183.844 114.027 l 181.926 114.75 l 176.164 116.188 l 174.004
 116.43 l 171.844 116.43 l 169.922 116.668 l 167.762 116.43 l 165.602 116.43
 l 163.441 116.188 l 157.68 114.75 l 155.762 114.027 l 154.082 113.309 l
 152.16 112.59 l 150.48 111.629 l 148.559 110.668 l 146.879 109.469 l 145.441
 108.266 l 143.758 107.066 l 142.32 106.105 l 139.438 103.227 l 138.477 
101.785 l 137.277 100.105 l 136.078 98.664 l 134.879 96.984 l 133.918 95.062
 l 132.957 93.383 l 132.238 91.461 l 131.516 89.781 l 130.797 87.863 l 130.316
 85.941 l 129.355 82.102 l 129.117 79.938 l 129.117 75.859 l 128.156 75.859
 l f*
1 g
174.242 38.648 m 174.242 40.809 172.324 42.73 170.164 42.73 c 168.004 42.73
 166.082 40.809 166.082 38.648 c 166.082 36.488 168.004 34.566 170.164 34.566
 c 172.324 34.566 174.242 36.488 174.242 38.648 c f*
0.129412 0.117647 0.117647 rg
165.602 38.406 m 165.602 39.848 l 165.844 40.09 l 165.844 40.328 l 166.082
 40.57 l 166.082 40.809 l 167.523 42.25 l 167.762 42.008 l 167.762 42.25
 l 168.242 42.488 l 168.484 42.73 l 169.684 42.73 l 170.402 42.488 l 170.164
 42.488 l 171.125 42.73 l 171.363 42.488 l 171.844 42.25 l 171.844 42.008
 l 172.082 42.25 l 172.562 41.77 l 172.562 41.527 l 172.805 41.527 l 172.805
 41.289 l 173.043 41.289 l 173.043 41.051 l 173.285 41.051 l 173.762 40.57
 l 173.523 40.328 l 173.762 40.328 l 174.004 39.848 l 174.242 39.609 l 174.004
 38.648 l 174.004 38.891 l 174.242 38.168 l 174.242 36.969 l 174.004 36.727
 l 173.762 36.25 l 173.523 36.25 l 173.762 36.008 l 172.324 34.566 l 172.082
 34.566 l 171.844 34.328 l 171.602 34.328 l 171.363 34.086 l 168.242 34.086
 l 168.004 34.328 l 167.762 34.328 l 167.281 34.809 l 167.281 35.047 l 167.043
 35.047 l 167.043 35.289 l 166.801 35.289 l 166.801 35.527 l 166.562 35.527
 l 166.562 35.77 l 166.324 35.77 l 165.844 36.25 l 165.844 36.488 l 165.602
 36.727 l 165.602 38.406 l 166.562 38.406 l 166.562 37.207 l 166.801 36.969
 l 166.801 36.727 l 167.043 36.488 l 166.801 36.25 l 167.043 36.25 l 167.043
 36.008 l 167.281 36.008 l 167.281 35.77 l 167.523 35.77 l 167.523 35.527
 l 167.762 35.527 l 167.762 35.289 l 168.004 35.527 l 168.242 35.289 l 168.484
 35.289 l 168.723 35.047 l 170.883 35.047 l 171.125 35.289 l 171.363 35.289
 l 171.602 35.527 l 171.844 35.527 l 173.043 36.727 l 173.285 36.727 l 173.043
 37.207 l 173.285 37.449 l 173.285 38.406 l 173.762 38.648 l 174.004 37.93
 l 173.523 38.168 l 173.285 39.129 l 173.043 39.367 l 173.285 39.848 l 173.043
 39.848 l 172.562 40.328 l 172.805 40.57 l 172.562 40.57 l 172.562 40.809
 l 172.324 40.809 l 172.324 41.051 l 172.082 41.051 l 172.082 41.289 l 171.844
 41.051 l 171.363 41.527 l 171.363 41.77 l 170.883 41.527 l 170.645 41.77
 l 169.684 42.008 l 169.445 42.488 l 170.164 42.25 l 169.922 41.77 l 168.961
 41.77 l 168.723 41.527 l 168.242 41.77 l 168.242 41.527 l 167.043 40.328
 l 167.043 40.09 l 166.801 39.848 l 166.801 39.609 l 166.562 39.367 l 166.562
 38.406 l 165.602 38.406 l f*
1 g
192.246 45.609 m 191.285 46.812 l 189.844 47.531 l 188.406 47.531 l 186.965
 47.051 l 185.766 45.852 l 185.047 44.648 l 184.805 42.969 l 185.285 41.527
 l 186.484 40.328 l 187.684 39.848 l 189.367 39.609 l 190.805 40.09 l 192.008
 41.289 l 192.727 42.488 l 192.727 44.172 l 192.246 45.609 l f*
0.129412 0.117647 0.117647 rg
192.246 45.129 m 191.766 45.371 l 190.805 46.332 l 190.805 46.57 l 190.566
 46.332 l 190.328 46.57 l 190.086 46.57 l 189.844 46.812 l 187.684 47.051
 l 187.684 46.812 l 186.965 46.57 l 187.207 46.57 l 187.207 46.812 l 186.965
 46.332 l 186.727 46.332 l 186.484 46.09 l 186.246 46.09 l 186.246 45.852
 l 186.004 45.609 l 186.004 45.371 l 185.766 45.129 l 185.766 44.891 l 185.527
 44.648 l 185.527 44.172 l 185.285 43.93 l 185.285 42.488 l 185.527 42.25
 l 185.285 41.77 l 185.285 42.008 l 185.766 41.77 l 185.766 41.289 l 186.004
 41.051 l 186.004 40.809 l 186.246 40.809 l 186.246 40.57 l 186.484 40.809
 l 186.965 40.328 l 187.445 40.09 l 187.445 39.848 l 189.605 40.09 l 189.844
 40.328 l 190.566 40.328 l 190.566 40.57 l 190.805 40.57 l 191.047 40.809
 l 191.285 40.809 l 191.285 41.051 l 191.527 41.289 l 191.527 41.527 l 191.766
 41.77 l 191.766 42.008 l 192.008 42.25 l 192.008 42.73 l 192.246 42.969
 l 192.246 43.93 l 192.008 44.172 l 192.008 44.648 l 191.766 44.891 l 191.766
 45.609 l 192.246 45.129 l 192.246 46.09 l 192.727 45.609 l 192.727 45.371
 l 192.965 45.129 l 192.965 44.648 l 193.207 44.41 l 193.207 42.488 l 192.965
 42.25 l 192.965 41.77 l 192.727 41.527 l 192.727 41.289 l 192.488 41.051
 l 192.488 40.809 l 192.008 40.328 l 191.766 40.57 l 191.766 40.328 l 191.527
 40.328 l 191.766 40.09 l 191.285 39.609 l 190.805 39.609 l 191.047 39.609
 l 191.047 39.848 l 190.805 39.367 l 190.328 39.367 l 190.086 39.129 l 186.965
 39.367 l 186.965 39.609 l 186.484 39.367 l 185.766 40.09 l 185.766 40.328
 l 185.527 40.328 l 185.527 40.57 l 185.285 40.328 l 184.805 40.809 l 184.805
 41.527 l 184.805 41.289 l 185.285 41.051 l 184.805 41.289 l 184.566 41.77
 l 184.324 42.008 l 184.324 44.41 l 184.566 44.648 l 184.566 45.129 l 184.805
 45.371 l 184.805 45.609 l 185.047 45.852 l 185.047 46.09 l 185.527 46.57
 l 185.766 46.332 l 185.766 46.57 l 186.004 46.57 l 185.766 46.812 l 186.246
 47.293 l 186.727 47.293 l 186.727 47.531 l 186.965 47.531 l 187.207 47.293
 l 187.207 47.531 l 190.328 47.77 l 190.566 47.531 l 190.805 47.531 l 191.047
 47.293 l 191.285 47.051 l 191.285 46.812 l 191.527 47.051 l 192.488 46.09
 l 192.246 45.852 l 192.246 46.09 l 192.246 45.129 l f*
1 g
204.488 60.973 m 203.047 61.453 l 201.609 61.453 l 200.168 60.734 l 199.207
 59.535 l 198.727 58.094 l 198.727 56.414 l 199.449 55.215 l 200.648 54.012
 l 202.086 53.531 l 203.77 53.773 l 204.969 54.254 l 206.168 55.453 l 206.648
 56.895 l 206.41 58.574 l 205.688 59.773 l 204.488 60.973 l f*
0.129412 0.117647 0.117647 rg
204.488 60.492 m 203.77 60.492 l 203.527 60.734 l 203.047 60.734 l 202.809
 60.973 l 201.848 60.973 l 201.609 60.734 l 201.129 60.734 l 200.648 60.254
 l 200.406 60.254 l 199.688 59.535 l 199.688 59.293 l 199.449 59.293 l 199.449
 58.812 l 199.207 58.574 l 199.207 58.094 l 198.969 57.852 l 198.969 56.895
 l 199.207 56.652 l 199.207 56.172 l 199.449 55.934 l 199.449 55.691 l 199.688
 55.453 l 199.688 55.215 l 199.926 54.973 l 199.926 54.734 l 200.168 54.734
 l 200.406 54.492 l 200.887 54.492 l 201.129 54.012 l 200.887 54.012 l 201.367
 54.254 l 201.609 54.012 l 203.77 53.773 l 203.77 54.012 l 204.25 54.254
 l 204.727 54.734 l 204.969 54.492 l 204.969 54.734 l 205.207 54.734 l 205.207
 54.973 l 205.449 55.215 l 205.449 55.453 l 205.93 55.691 l 205.688 55.691
 l 205.688 55.453 l 205.688 56.172 l 205.93 56.414 l 205.93 58.094 l 205.688
 58.336 l 205.688 58.574 l 205.449 58.812 l 205.449 59.055 l 205.207 59.293
 l 205.207 59.535 l 204.969 59.773 l 204.969 60.016 l 204.727 60.016 l 204.25
 60.492 l 204.008 60.973 l 204.488 60.492 l 204.488 61.453 l 204.969 60.973
 l 204.727 60.973 l 204.969 61.215 l 205.449 60.734 l 205.207 60.492 l 205.449
 60.492 l 205.449 60.254 l 205.688 60.492 l 206.168 60.016 l 206.168 59.773
 l 206.41 59.535 l 206.41 59.293 l 206.648 59.055 l 206.648 58.812 l 206.887
 58.574 l 206.887 55.934 l 206.648 55.691 l 206.648 55.215 l 206.41 55.215
 l 206.41 54.734 l 205.93 54.254 l 205.688 54.492 l 205.688 54.254 l 205.449
 54.254 l 205.449 54.012 l 204.727 53.293 l 204.25 53.531 l 204.25 53.293
 l 201.129 53.051 l 200.887 53.293 l 200.406 53.531 l 200.168 54.012 l 200.406
 53.531 l 200.648 53.531 l 199.926 53.531 l 199.449 54.012 l 199.688 54.254
 l 199.449 54.254 l 199.449 54.492 l 199.207 54.254 l 198.727 54.734 l 198.727
 54.973 l 198.488 55.215 l 198.488 55.453 l 198.246 55.691 l 198.246 56.172
 l 198.008 56.414 l 198.008 58.336 l 198.246 58.574 l 198.246 59.055 l 198.488
 59.293 l 198.488 59.535 l 198.969 59.773 l 198.727 59.773 l 198.727 59.535
 l 198.727 60.016 l 199.926 61.215 l 200.168 61.215 l 200.648 61.695 l 201.129
 61.695 l 201.367 61.934 l 203.289 61.934 l 203.527 61.695 l 204.008 61.695
 l 204.25 61.453 l 204.488 61.453 l 204.488 60.492 l f*
1 g
207.609 80.422 m 206.168 80.18 l 204.969 79.219 l 204.008 78.02 l 203.77
 76.578 l 204.008 75.137 l 204.969 73.699 l 206.168 72.738 l 207.609 72.496
 l 209.289 72.738 l 210.488 73.699 l 211.449 75.137 l 211.691 76.578 l 211.449
 78.02 l 210.488 79.219 l 209.289 80.18 l 207.609 80.422 l f*
0.129412 0.117647 0.117647 rg
207.848 80.18 m 207.609 79.699 l 206.41 79.699 l 206.168 79.461 l 205.93
 79.461 l 205.688 79.219 l 205.449 79.461 l 205.449 79.219 l 205.207 79.219
 l 205.207 78.98 l 204.969 78.98 l 204.969 78.738 l 204.727 78.738 l 204.727
 78.5 l 204.488 78.5 l 204.727 78.258 l 204.488 78.02 l 204.488 77.777 l
 204.25 77.539 l 204.25 75.379 l 204.488 75.137 l 204.488 74.898 l 204.727
 74.656 l 204.727 74.418 l 205.93 73.219 l 205.93 72.977 l 206.41 73.219
 l 206.648 72.977 l 208.57 72.977 l 208.809 73.219 l 209.047 73.219 l 209.289
 73.457 l 209.531 73.219 l 209.531 73.457 l 209.77 73.699 l 210.488 74.418
 l 210.488 74.656 l 210.73 74.898 l 210.73 75.137 l 210.969 75.379 l 210.969
 76.578 l 211.449 76.82 l 211.691 76.098 l 211.211 76.34 l 210.969 77.539
 l 210.73 77.777 l 210.73 78.02 l 210.488 78.258 l 210.73 78.5 l 210.488
 78.5 l 210.488 78.738 l 210.25 78.738 l 210.25 78.98 l 210.008 78.98 l 
210.008 79.219 l 209.77 78.98 l 209.289 79.461 l 208.809 79.699 l 208.809
 79.938 l 207.367 79.938 l 207.129 80.422 l 207.848 80.18 l 207.367 80.66
 l 208.09 80.422 l 207.848 80.422 l 209.289 80.422 l 209.289 80.18 l 209.77
 80.422 l 210.488 79.699 l 210.488 79.461 l 210.73 79.461 l 210.73 79.219
 l 210.969 79.219 l 210.969 78.98 l 211.211 78.98 l 211.691 78.5 l 211.691
 78.258 l 211.93 78.02 l 211.691 76.82 l 211.691 77.059 l 211.93 76.34 l
 211.93 74.898 l 211.691 74.656 l 211.691 74.418 l 211.449 74.18 l 211.449
 73.938 l 210.25 72.738 l 210.008 72.977 l 210.008 72.738 l 209.77 72.496
 l 209.531 72.258 l 209.289 72.258 l 209.047 72.016 l 206.168 72.016 l 205.93
 72.258 l 205.449 72.496 l 205.449 72.738 l 205.207 72.496 l 203.77 73.938
 l 203.77 74.18 l 203.527 74.418 l 203.527 74.656 l 203.289 74.898 l 203.289
 78.02 l 203.527 78.258 l 203.527 78.5 l 203.77 78.738 l 204.008 78.98 l
 204.25 78.98 l 204.25 79.219 l 204.488 79.219 l 204.488 79.461 l 204.727
 79.461 l 204.727 79.699 l 204.969 79.699 l 204.969 79.938 l 205.449 80.422
 l 205.688 80.422 l 205.93 80.66 l 207.367 80.66 l 207.848 80.18 l f*
1 g
200.887 97.465 m 199.688 96.266 l 198.969 95.062 l 198.969 93.383 l 199.449
 91.941 l 200.406 90.742 l 201.848 90.262 l 203.527 90.023 l 204.969 90.504
 l 205.93 91.703 l 206.648 92.902 l 206.887 94.582 l 206.41 96.023 l 205.207
 97.223 l 204.008 97.945 l 202.328 97.945 l 200.887 97.465 l f*
0.129412 0.117647 0.117647 rg
201.129 97.223 m 200.887 96.742 l 200.648 96.742 l 200.406 96.504 l 200.168
 96.504 l 200.168 96.266 l 199.926 96.023 l 199.926 95.785 l 199.688 95.543
 l 199.688 95.305 l 199.449 95.062 l 199.449 94.582 l 199.207 94.344 l 199.207
 93.383 l 199.449 93.145 l 199.449 92.664 l 199.688 92.422 l 199.449 92.184
 l 199.449 92.422 l 199.926 92.184 l 199.926 91.703 l 200.648 90.98 l 200.648
 90.742 l 200.887 90.98 l 201.129 90.742 l 201.367 90.742 l 201.609 90.504
 l 203.77 90.504 l 204.008 90.742 l 204.727 90.742 l 204.727 90.98 l 204.969
 90.98 l 204.969 90.742 l 204.727 90.98 l 205.688 91.941 l 205.93 91.941
 l 205.688 92.184 l 205.93 92.422 l 205.93 92.902 l 206.168 93.145 l 206.168
 94.824 l 205.93 95.062 l 205.93 96.023 l 205.93 95.785 l 206.41 95.543 
l 205.93 95.785 l 205.449 96.266 l 205.449 96.504 l 205.207 96.504 l 205.207
 96.742 l 204.969 96.504 l 204.488 96.984 l 204.008 97.223 l 204.008 97.465
 l 201.848 97.223 l 201.609 96.984 l 200.887 96.984 l 201.129 97.223 l 200.648
 97.703 l 200.887 97.945 l 201.129 97.945 l 201.367 98.184 l 204.488 97.945
 l 204.488 97.703 l 204.969 97.945 l 205.688 97.223 l 205.688 96.984 l 205.93
 96.984 l 205.93 96.742 l 206.168 96.984 l 206.648 96.504 l 206.41 96.266
 l 206.41 96.504 l 206.887 96.266 l 206.887 95.543 l 207.129 95.305 l 207.129
 92.664 l 206.887 92.422 l 206.887 91.941 l 206.41 91.461 l 206.168 91.461
 l 206.41 91.223 l 205.449 90.262 l 204.969 90.023 l 205.207 90.023 l 205.207
 90.262 l 204.969 89.781 l 204.488 89.781 l 204.25 89.543 l 201.129 89.543
 l 200.887 89.781 l 200.648 89.781 l 200.168 90.262 l 200.168 90.504 l 199.926
 90.262 l 198.969 91.223 l 198.969 91.941 l 198.969 91.703 l 199.449 91.461
 l 198.969 91.703 l 198.488 92.184 l 198.488 92.664 l 198.246 92.902 l 198.246
 94.824 l 198.488 95.062 l 198.488 95.543 l 198.727 95.785 l 198.727 96.023
 l 198.969 96.266 l 198.969 96.504 l 199.449 96.984 l 199.688 96.742 l 199.688
 96.984 l 199.926 96.984 l 199.688 97.223 l 200.168 97.703 l 200.648 97.703
 l 201.129 97.223 l f*
1 g
185.527 109.707 m 185.047 108.266 l 185.047 106.828 l 185.766 105.387 l
 186.965 104.426 l 188.406 103.945 l 190.086 103.945 l 191.285 104.668 l
 192.246 105.867 l 192.727 107.309 l 192.727 108.988 l 192.008 110.188 l
 190.805 111.148 l 189.367 111.629 l 187.926 111.629 l 186.484 110.906 l
 185.527 109.707 l f*
0.129412 0.117647 0.117647 rg
185.766 109.469 m 185.766 108.988 l 185.527 108.746 l 185.527 108.266 l
 185.285 108.027 l 185.285 107.066 l 185.527 106.828 l 185.527 106.348 l
 185.766 106.105 l 185.527 105.867 l 185.766 105.867 l 186.004 105.625 l
 186.727 104.906 l 187.207 104.906 l 187.445 104.426 l 187.207 104.426 l
 187.445 104.668 l 187.684 104.426 l 188.164 104.426 l 188.406 104.188 l
 189.367 104.188 l 189.605 104.426 l 190.086 104.426 l 190.328 104.668 l
 190.566 104.426 l 190.566 104.668 l 191.047 104.668 l 190.805 104.906 l
 191.527 105.625 l 191.527 105.867 l 192.008 106.105 l 191.766 106.105 l
 191.766 105.867 l 191.766 106.348 l 192.008 106.586 l 192.008 107.066 l
 192.246 107.309 l 192.246 108.266 l 192.008 108.508 l 192.008 108.988 l
 191.766 109.227 l 192.008 109.469 l 191.766 109.469 l 191.766 109.945 l
 191.527 109.707 l 190.566 110.668 l 190.328 111.148 l 190.566 110.668 l
 190.805 110.668 l 190.086 110.668 l 189.844 110.906 l 189.367 110.906 l
 189.125 111.148 l 188.164 111.148 l 187.926 110.906 l 187.445 110.906 l
 187.207 110.668 l 186.965 110.906 l 186.965 110.668 l 185.766 109.469 l
 185.285 109.945 l 185.047 109.707 l 185.047 110.188 l 186.246 111.387 l
 186.484 111.148 l 186.484 111.387 l 186.965 111.867 l 187.445 111.867 l
 187.684 112.109 l 189.605 112.109 l 189.844 111.867 l 190.328 111.867 l
 190.566 111.629 l 191.047 111.629 l 191.285 111.148 l 191.047 111.148 l
 191.285 111.387 l 192.008 110.668 l 192.246 110.426 l 192.246 109.945 l
 192.488 109.945 l 192.965 109.469 l 192.965 108.988 l 193.207 108.746 l
 193.207 106.828 l 192.965 106.586 l 192.965 106.105 l 192.727 105.867 l
 192.727 105.625 l 192.488 105.625 l 192.488 105.145 l 191.766 104.426 l
 191.527 104.188 l 191.047 104.188 l 191.047 103.945 l 190.805 103.707 l
 190.566 103.465 l 190.086 103.465 l 189.844 103.227 l 187.926 103.227 l
 187.684 103.465 l 187.207 103.465 l 186.727 103.945 l 186.484 104.426 l
 186.727 103.945 l 186.965 103.945 l 186.246 103.945 l 185.047 105.145 l
 185.285 105.387 l 185.047 105.387 l 184.805 105.625 l 184.566 105.867 l
 184.566 106.348 l 184.324 106.586 l 184.324 108.508 l 184.566 108.746 l
 184.566 109.227 l 184.805 109.469 l 184.805 109.707 l 185.285 109.945 l
 185.766 109.469 l f*
1 g
166.082 112.828 m 166.324 111.387 l 167.281 110.188 l 168.484 109.227 l
 169.922 108.988 l 171.363 109.227 l 172.805 110.188 l 173.762 111.387 l
 174.004 112.828 l 173.762 114.27 l 172.805 115.711 l 171.363 116.668 l 
169.922 116.91 l 168.484 116.668 l 167.281 115.711 l 166.324 114.27 l 166.082
 112.828 l f*
0.129412 0.117647 0.117647 rg
166.562 112.828 m 166.562 111.629 l 166.801 111.387 l 166.801 111.148 l
 167.043 110.906 l 166.801 110.668 l 167.043 110.668 l 167.043 110.426 l
 167.281 110.426 l 167.281 110.188 l 167.523 110.188 l 167.523 109.945 l
 167.762 109.945 l 167.762 109.707 l 168.004 109.945 l 168.242 109.707 l
 168.484 109.707 l 168.723 109.469 l 170.883 109.469 l 171.125 109.707 l
 171.363 109.707 l 171.602 109.945 l 171.844 109.945 l 173.043 111.148 l
 173.285 111.148 l 173.043 111.629 l 173.285 111.867 l 173.285 112.828 l
 173.762 113.066 l 174.004 112.348 l 173.523 112.59 l 173.285 113.547 l 
173.043 113.789 l 173.285 114.27 l 173.043 114.27 l 172.562 114.75 l 172.805
 114.988 l 172.562 114.988 l 172.562 115.23 l 172.324 115.23 l 172.324 115.469
 l 172.082 115.469 l 172.082 115.711 l 171.844 115.469 l 171.363 115.949
 l 171.363 116.188 l 170.883 115.949 l 170.645 116.188 l 169.684 116.43 
l 169.445 116.91 l 170.164 116.668 l 169.922 116.188 l 168.961 116.188 l
 168.723 115.949 l 168.242 116.188 l 168.242 115.949 l 167.043 114.75 l 
167.043 114.508 l 166.801 114.27 l 166.801 114.027 l 166.562 113.789 l 166.562
 112.828 l 165.602 112.828 l 165.602 114.27 l 165.844 114.508 l 165.844 
114.75 l 166.082 114.988 l 166.082 115.23 l 167.523 116.668 l 167.762 116.43
 l 167.762 116.668 l 168.242 116.91 l 168.484 117.148 l 169.684 117.148 
l 170.402 116.91 l 170.164 116.91 l 171.125 117.148 l 171.363 116.91 l 171.844
 116.668 l 171.844 116.43 l 172.082 116.668 l 172.324 116.43 l 172.562 116.188
 l 172.562 115.949 l 172.805 115.949 l 172.805 115.711 l 173.043 115.711
 l 173.043 115.469 l 173.285 115.469 l 173.762 114.988 l 173.523 114.75 
l 173.762 114.75 l 174.004 114.27 l 174.242 114.027 l 174.004 113.066 l 
174.004 113.309 l 174.242 112.59 l 174.242 111.387 l 174.004 111.148 l 173.762
 110.668 l 173.523 110.668 l 173.762 110.426 l 172.324 108.988 l 172.082
 108.988 l 171.844 108.746 l 171.602 108.746 l 171.363 108.508 l 168.242
 108.508 l 168.004 108.746 l 167.762 108.746 l 167.523 108.988 l 167.281
 109.227 l 167.281 109.469 l 167.043 109.469 l 167.043 109.707 l 166.801
 109.707 l 166.801 109.945 l 166.562 109.945 l 166.562 110.188 l 166.324
 110.188 l 166.082 110.426 l 165.844 110.668 l 165.844 110.906 l 165.602
 111.148 l 165.602 112.828 l 166.562 112.828 l f*
1 g
149.039 106.105 m 150 104.906 l 151.441 104.188 l 153.121 104.188 l 154.559
 104.668 l 155.52 105.625 l 156.242 107.066 l 156.48 108.508 l 156 109.945
 l 154.801 111.148 l 153.602 111.867 l 151.922 111.867 l 150.48 111.387 
l 149.281 110.426 l 148.559 109.227 l 148.559 107.547 l 149.039 106.105 
l f*
0.129412 0.117647 0.117647 rg
149.52 106.105 m 149.52 105.867 l 150.238 105.145 l 150.48 105.145 l 150.961
 104.668 l 151.68 104.426 l 151.68 104.188 l 152.879 104.426 l 153.121 104.668
 l 153.602 104.668 l 153.84 104.906 l 154.32 104.906 l 154.32 105.145 l 
154.559 105.145 l 154.559 104.906 l 154.559 105.145 l 154.801 105.145 l 
154.801 105.387 l 155.039 105.387 l 154.801 105.625 l 155.52 106.348 l 155.52
 106.828 l 155.762 107.066 l 155.762 108.746 l 155.52 108.988 l 155.52 109.945
 l 155.52 109.707 l 156 109.469 l 155.52 109.707 l 155.039 110.188 l 155.039
 110.426 l 154.801 110.426 l 154.559 110.668 l 154.32 110.668 l 154.082 
110.906 l 153.84 110.906 l 153.602 111.148 l 153.121 111.148 l 152.879 111.387
 l 151.922 111.387 l 151.68 111.148 l 151.199 111.148 l 150.961 110.906 
l 150.48 110.906 l 150.719 110.906 l 150.719 111.148 l 150.48 110.668 l 
150.238 110.668 l 149.52 109.945 l 149.281 110.188 l 149.281 109.707 l 149.039
 109.707 l 149.281 109.469 l 149.039 109.227 l 149.039 108.746 l 148.801
 108.508 l 148.801 107.547 l 149.039 107.309 l 149.039 106.828 l 149.281
 106.586 l 149.039 106.348 l 149.039 106.586 l 149.52 106.105 l 148.559 
106.105 l 149.039 105.625 l 148.559 105.867 l 148.078 106.348 l 148.078 
106.828 l 147.84 107.066 l 147.84 108.988 l 148.078 109.227 l 148.078 109.707
 l 148.32 109.945 l 148.559 110.188 l 148.801 110.188 l 148.801 110.668 
l 149.762 111.629 l 150.238 111.629 l 150.238 111.867 l 150.48 111.867 l
 150.719 112.109 l 151.199 112.109 l 151.441 112.348 l 153.359 112.348 l
 153.602 112.109 l 154.082 112.109 l 154.32 111.867 l 154.559 111.867 l 
154.801 111.629 l 155.039 111.629 l 155.52 111.148 l 155.281 110.906 l 155.52
 110.906 l 155.52 110.668 l 155.762 110.906 l 156.242 110.426 l 156 110.188
 l 156 110.426 l 156.48 110.188 l 156.48 109.469 l 156.723 109.227 l 156.723
 106.586 l 156.48 106.348 l 156.48 105.867 l 155.762 105.145 l 155.52 104.906
 l 155.281 104.906 l 155.281 104.668 l 155.039 104.668 l 155.039 104.426
 l 154.559 104.188 l 154.801 104.188 l 154.801 104.426 l 154.559 103.945
 l 154.32 103.945 l 154.082 103.707 l 153.602 103.707 l 153.359 103.465 
l 151.199 103.707 l 151.199 103.945 l 150.48 103.707 l 150 104.188 l 149.762
 104.188 l 148.559 105.387 l 148.559 106.105 l 149.52 106.105 l f*
1 g
138.719 94.582 m 140.16 94.102 l 141.84 94.102 l 143.039 94.824 l 144 96.023
 l 144.48 97.465 l 144.48 99.145 l 143.758 100.344 l 142.559 101.305 l 141.117
 101.785 l 139.68 101.785 l 138.238 101.066 l 137.277 99.863 l 136.797 98.426
 l 136.797 96.984 l 137.52 95.543 l 138.719 94.582 l f*
0.129412 0.117647 0.117647 rg
139.199 94.582 m 138.957 94.582 l 139.199 94.824 l 139.438 94.582 l 139.918
 94.582 l 140.16 94.344 l 141.117 94.344 l 141.359 94.582 l 141.84 94.582
 l 142.078 94.824 l 142.32 94.582 l 142.32 94.824 l 142.797 94.824 l 142.559
 95.062 l 143.277 95.785 l 143.277 96.023 l 143.758 96.266 l 143.52 96.266
 l 143.52 96.023 l 143.52 96.504 l 143.758 96.742 l 143.758 97.223 l 144
 97.465 l 144 98.426 l 143.758 98.664 l 143.758 99.145 l 143.52 99.383 l
 143.758 99.625 l 143.52 99.625 l 143.52 100.105 l 143.277 99.863 l 142.32
 100.824 l 142.078 101.305 l 142.32 100.824 l 142.559 100.824 l 141.84 100.824
 l 141.598 101.066 l 141.117 101.066 l 140.879 101.305 l 139.918 101.305
 l 139.68 101.066 l 139.199 101.066 l 138.957 100.824 l 138.719 101.066 
l 138.719 100.824 l 137.758 99.863 l 137.758 99.625 l 137.52 99.625 l 137.52
 99.145 l 137.277 98.906 l 137.277 98.426 l 137.039 98.184 l 137.039 97.223
 l 137.277 96.984 l 137.277 96.504 l 137.758 96.023 l 137.758 95.785 l 138.477
 95.062 l 138.719 95.062 l 139.199 94.582 l 138.238 94.582 l 138.719 94.102
 l 138 94.102 l 136.797 95.305 l 136.797 95.543 l 136.316 96.023 l 136.316
 96.504 l 136.078 96.742 l 136.078 98.664 l 136.316 98.906 l 136.316 99.383
 l 136.559 99.625 l 136.559 99.863 l 137.039 100.105 l 136.797 100.105 l
 136.797 99.863 l 136.797 100.344 l 138 101.547 l 138.238 101.305 l 138.238
 101.547 l 138.719 102.023 l 139.199 102.023 l 139.438 102.266 l 141.359
 102.266 l 141.598 102.023 l 142.078 102.023 l 142.32 101.785 l 142.797 
101.785 l 143.039 101.305 l 142.797 101.305 l 143.039 101.547 l 143.758 
100.824 l 144 100.586 l 144 100.105 l 144.238 100.105 l 144.719 99.625 l
 144.719 99.145 l 144.961 98.906 l 144.961 96.984 l 144.719 96.742 l 144.719
 96.266 l 144.48 96.023 l 144.48 95.785 l 144.238 95.785 l 144.238 95.305
 l 143.277 94.344 l 142.797 94.344 l 142.797 94.102 l 142.32 93.625 l 141.84
 93.625 l 141.598 93.383 l 139.68 93.383 l 139.438 93.625 l 138.957 93.625
 l 138.477 94.102 l 138.238 94.582 l 139.199 94.582 l f*
1 g
133.676 71.059 m 135.117 71.297 l 136.316 72.258 l 137.277 73.699 l 137.52
 75.137 l 137.277 76.578 l 136.316 77.777 l 135.117 78.738 l 133.676 78.98
 l 131.996 78.738 l 130.797 77.777 l 129.836 76.578 l 129.598 75.137 l 129.836
 73.699 l 130.797 72.258 l 131.996 71.297 l 133.676 71.059 l f*
0.129412 0.117647 0.117647 rg
133.676 71.535 m 134.398 71.535 l 134.637 71.777 l 135.117 71.535 l 135.117
 71.777 l 135.359 72.016 l 136.316 72.977 l 136.316 73.219 l 136.559 73.457
 l 136.559 73.699 l 136.797 73.938 l 136.797 75.137 l 137.277 75.379 l 137.52
 74.656 l 137.039 74.898 l 136.797 76.098 l 136.559 76.34 l 136.559 76.578
 l 136.316 76.82 l 136.559 77.059 l 136.316 77.059 l 136.316 77.301 l 136.078
 77.301 l 136.078 77.539 l 135.836 77.539 l 135.836 77.777 l 135.598 77.777
 l 135.598 78.02 l 135.359 77.777 l 135.117 78.02 l 134.879 78.02 l 134.637
 78.258 l 133.438 78.5 l 133.199 78.98 l 133.918 78.738 l 133.676 78.258
 l 132.238 78.5 l 132.238 78.258 l 131.758 78.02 l 131.277 77.539 l 131.035
 77.777 l 131.035 77.539 l 130.797 77.539 l 130.797 77.301 l 130.559 77.301
 l 130.559 77.059 l 130.316 77.059 l 130.559 76.82 l 130.316 76.578 l 130.316
 76.34 l 130.078 76.098 l 130.078 73.938 l 130.316 73.699 l 130.316 73.457
 l 130.559 73.219 l 130.559 72.977 l 131.516 72.016 l 131.516 71.777 l 131.758
 72.016 l 131.996 71.777 l 132.238 71.777 l 132.477 71.535 l 133.676 71.535
 l 133.676 70.578 l 131.996 70.578 l 131.758 70.816 l 131.516 70.816 l 131.277
 71.059 l 131.035 71.297 l 131.035 71.535 l 130.797 71.297 l 129.598 72.496
 l 129.598 72.738 l 129.355 72.977 l 129.355 73.219 l 129.117 73.457 l 129.117
 76.578 l 129.355 76.82 l 129.355 77.059 l 129.836 77.539 l 130.078 77.539
 l 130.078 77.777 l 130.316 77.777 l 130.316 78.02 l 130.559 78.02 l 130.559
 78.258 l 131.277 78.98 l 131.758 78.738 l 131.758 78.98 l 133.199 79.219
 l 133.438 79.219 l 134.156 78.98 l 133.918 78.98 l 135.117 79.219 l 135.359
 78.98 l 135.598 78.98 l 135.836 78.738 l 136.078 78.5 l 136.078 78.258 
l 136.316 78.258 l 136.316 78.02 l 136.559 78.02 l 136.559 77.777 l 136.797
 77.777 l 136.797 77.539 l 137.039 77.539 l 137.52 77.059 l 137.52 76.82
 l 137.758 76.578 l 137.52 75.379 l 137.52 75.617 l 137.758 74.898 l 137.758
 73.457 l 137.52 73.219 l 137.52 72.977 l 137.277 72.738 l 137.277 72.496
 l 135.836 71.059 l 135.598 71.297 l 135.598 71.059 l 135.117 70.816 l 134.879
 70.578 l 133.676 70.578 l 133.676 71.535 l f*
1 g
138.477 56.172 m 139.68 57.133 l 140.398 58.574 l 140.398 60.016 l 139.918
 61.453 l 138.719 62.656 l 137.52 63.375 l 135.836 63.375 l 134.398 62.895
 l 133.199 61.934 l 132.719 60.734 l 132.477 59.055 l 132.957 57.613 l 134.156
 56.414 l 135.359 55.691 l 137.039 55.691 l 138.477 56.172 l f*
0.129412 0.117647 0.117647 rg
138.477 56.652 m 139.438 57.613 l 139.68 57.613 l 139.438 57.852 l 139.68
 58.094 l 139.68 58.574 l 139.918 58.812 l 139.918 59.773 l 139.68 60.016
 l 139.68 60.492 l 139.438 60.734 l 139.438 61.453 l 139.918 60.973 l 139.438
 61.215 l 138.957 61.695 l 138.957 61.934 l 138.719 61.934 l 138.477 62.176
 l 138.238 62.176 l 138 62.414 l 137.758 62.414 l 137.52 62.656 l 137.039
 62.656 l 136.797 62.895 l 135.836 62.895 l 135.598 62.656 l 135.117 62.656
 l 134.879 62.414 l 134.398 62.414 l 134.637 62.414 l 134.637 62.656 l 134.398
 62.176 l 134.156 62.176 l 133.438 61.453 l 133.199 61.215 l 132.957 61.215
 l 133.199 60.734 l 132.957 60.492 l 132.957 58.574 l 133.199 58.336 l 132.957
 57.852 l 132.957 58.094 l 133.438 57.852 l 133.438 57.375 l 133.676 57.133
 l 133.676 56.895 l 133.918 56.895 l 134.156 56.652 l 134.398 56.652 l 134.637
 56.414 l 134.879 56.414 l 135.117 56.172 l 135.598 56.172 l 135.836 55.934
 l 136.797 55.934 l 137.039 56.172 l 137.52 56.172 l 137.758 56.414 l 138.238
 56.414 l 138.477 56.652 l 138.477 55.691 l 138.719 55.934 l 138.477 55.453
 l 138.238 55.453 l 138 55.215 l 137.52 55.215 l 137.277 54.973 l 135.359
 54.973 l 135.117 55.215 l 134.637 55.215 l 134.398 55.453 l 134.156 55.453
 l 133.918 55.691 l 133.676 55.691 l 133.199 56.172 l 133.438 56.414 l 133.199
 56.414 l 133.199 56.652 l 132.957 56.414 l 132.477 56.895 l 132.477 57.613
 l 132.477 57.375 l 132.957 57.133 l 132.477 57.375 l 132.238 57.852 l 131.996
 58.094 l 131.996 60.973 l 132.238 61.215 l 132.477 61.695 l 132.719 61.695
 l 132.477 61.934 l 133.676 63.137 l 134.156 63.137 l 134.156 63.375 l 134.398
 63.375 l 134.637 63.613 l 135.117 63.613 l 135.359 63.855 l 137.277 63.855
 l 137.52 63.613 l 138 63.613 l 138.238 63.375 l 138.477 63.375 l 138.719
 63.137 l 138.957 63.137 l 139.438 62.656 l 139.199 62.414 l 139.438 62.414
 l 139.438 62.176 l 139.68 62.414 l 140.16 61.934 l 139.918 61.695 l 139.918
 61.934 l 140.398 61.453 l 140.398 61.215 l 140.637 60.973 l 140.637 60.492
 l 140.879 60.254 l 140.879 58.336 l 140.637 58.094 l 140.637 57.613 l 140.398
 57.375 l 140.16 57.133 l 139.918 57.133 l 140.16 56.895 l 138.957 55.691
 l 138.477 55.691 l 138.477 56.652 l f*
1 g
153.84 42.488 m 154.32 43.93 l 154.32 45.609 l 153.602 47.051 l 152.402
 48.012 l 150.961 48.492 l 149.52 48.492 l 148.078 47.77 l 147.121 46.57
 l 146.641 45.129 l 146.641 43.449 l 147.359 42.25 l 148.559 41.051 l 150
 40.57 l 151.68 40.809 l 152.879 41.527 l 153.84 42.488 l f*
0.129412 0.117647 0.117647 rg
153.359 42.488 m 153.359 42.969 l 153.602 43.211 l 153.602 43.691 l 153.84
 43.93 l 153.84 45.129 l 153.602 45.371 l 153.602 45.852 l 153.121 46.332
 l 153.121 46.57 l 152.16 47.531 l 151.922 48.012 l 152.16 47.531 l 152.402
 47.531 l 151.68 47.531 l 151.441 47.77 l 150.961 47.77 l 150.719 48.012
 l 149.762 48.012 l 149.52 47.77 l 149.039 47.77 l 148.801 47.531 l 148.559
 47.77 l 148.559 47.531 l 147.598 46.57 l 147.598 46.332 l 147.359 46.332
 l 147.359 45.852 l 147.121 45.609 l 147.121 45.129 l 146.879 44.891 l 146.879
 43.93 l 147.121 43.691 l 147.121 43.211 l 147.359 42.969 l 147.359 42.73
 l 147.598 42.488 l 147.598 42.25 l 147.84 42.008 l 147.84 41.77 l 148.078
 41.77 l 148.32 41.527 l 148.801 41.527 l 149.039 41.051 l 148.801 41.051
 l 149.281 41.289 l 149.52 41.051 l 151.199 41.051 l 151.441 41.289 l 151.922
 41.289 l 152.402 41.77 l 152.641 41.527 l 152.641 41.77 l 152.879 41.77
 l 152.879 42.008 l 153.121 42.008 l 153.121 42.25 l 153.359 42.25 l 153.121
 42.488 l 153.602 42.73 l 153.359 42.488 l 154.32 42.488 l 154.082 42.25
 l 154.082 42.008 l 153.84 41.77 l 153.602 41.77 l 153.602 41.527 l 153.359
 41.527 l 153.359 41.289 l 153.121 41.289 l 153.121 41.051 l 152.879 40.809
 l 152.402 40.328 l 151.922 40.328 l 151.68 40.09 l 149.039 40.09 l 148.801
 40.328 l 148.32 40.57 l 148.078 41.051 l 148.32 40.57 l 148.559 40.57 l
 147.84 40.57 l 147.359 41.051 l 147.598 41.289 l 147.359 41.289 l 147.359
 41.527 l 147.121 41.289 l 146.641 41.77 l 146.641 42.008 l 146.398 42.25
 l 146.398 42.488 l 146.16 42.73 l 146.16 43.211 l 145.918 43.449 l 145.918
 45.371 l 146.16 45.609 l 146.16 46.09 l 146.398 46.332 l 146.398 46.57 
l 146.879 46.812 l 146.641 46.812 l 146.641 46.57 l 146.641 47.051 l 147.84
 48.25 l 148.078 48.012 l 148.078 48.25 l 148.559 48.73 l 149.039 48.73 
l 149.281 48.973 l 151.199 48.973 l 151.441 48.73 l 151.922 48.73 l 152.16
 48.492 l 152.641 48.492 l 152.879 48.012 l 152.641 48.012 l 152.879 48.25
 l 154.082 47.051 l 154.082 46.812 l 154.559 46.332 l 154.559 45.852 l 154.801
 45.609 l 154.801 43.449 l 154.559 43.211 l 154.559 42.73 l 154.32 42.488
 l 153.359 42.488 l f*
0.682353 0.670588 0.670588 rg
271.457 59.055 m 232.332 59.055 l 232.332 48.492 l 206.168 41.527 l 206.648
 42.25 l 207.367 42.969 l 208.328 44.41 l 208.809 45.371 l 209.77 46.812
 l 211.691 49.691 l 211.93 50.41 l 212.41 51.133 l 212.891 52.094 l 213.129
 52.812 l 213.609 53.531 l 213.848 54.254 l 214.328 54.973 l 214.809 56.414
 l 215.289 57.133 l 215.531 58.094 l 216.012 59.535 l 216.492 60.973 l 216.969
 62.414 l 217.449 63.855 l 217.691 64.816 l 217.93 65.535 l 217.93 66.258
 l 218.41 67.695 l 218.41 68.418 l 218.652 69.137 l 218.652 69.855 l 218.891
 70.578 l 218.891 72.977 l 219.129 73.699 l 219.129 79.219 l 218.891 80.18
 l 218.891 81.621 l 218.652 82.34 l 218.652 83.781 l 218.172 85.223 l 218.172
 85.941 l 217.93 86.902 l 217.691 87.621 l 217.691 88.344 l 216.73 91.223
 l 216.492 91.941 l 216.25 92.902 l 215.77 94.344 l 215.289 95.062 l 214.809
 96.504 l 214.328 97.223 l 213.848 98.664 l 213.371 99.625 l 212.891 100.344
 l 212.648 101.066 l 211.691 102.504 l 211.449 103.227 l 210.008 105.387
 l 209.531 106.348 l 207.609 109.227 l 207.129 109.945 l 206.41 110.668 
l 206.168 111.148 l 232.332 104.188 l 232.332 93.863 l 271.457 93.863 l 
271.457 59.055 l f*
0.129412 0.117647 0.117647 rg
271.938 59.055 m 271.938 58.812 l 271.699 58.812 l 271.699 58.574 l 232.332
 58.574 l 232.812 59.055 l 232.812 48.25 l 232.574 48.25 l 232.574 48.012
 l 206.41 41.051 l 205.93 41.051 l 205.93 41.289 l 205.688 41.289 l 205.688
 41.77 l 206.168 42.488 l 206.41 42.488 l 207.129 43.211 l 206.887 43.211
 l 207.848 44.648 l 208.328 45.609 l 211.211 49.93 l 211.449 50.652 l 211.93
 51.371 l 212.41 52.332 l 212.648 53.051 l 213.129 53.773 l 213.371 54.492
 l 213.848 55.215 l 214.328 56.652 l 214.809 57.375 l 214.809 57.133 l 215.051
 58.094 l 215.051 58.336 l 216.969 64.094 l 216.969 63.855 l 217.211 64.816
 l 217.211 65.055 l 217.449 65.777 l 217.449 65.535 l 217.449 66.496 l 217.93
 67.938 l 217.93 67.695 l 217.93 68.656 l 218.172 69.379 l 218.172 69.137
 l 218.172 70.098 l 218.41 70.816 l 218.41 70.578 l 218.41 73.219 l 218.652
 73.938 l 218.652 73.699 l 218.652 79.219 l 218.41 80.18 l 218.41 81.621
 l 218.41 81.379 l 218.172 82.102 l 218.172 83.781 l 218.172 83.539 l 217.691
 84.98 l 217.691 85.941 l 217.449 86.902 l 217.449 86.66 l 217.211 87.383
 l 217.211 88.344 l 217.211 88.102 l 216.012 91.703 l 216.012 91.941 l 215.77
 92.902 l 215.77 92.664 l 215.289 94.102 l 214.809 94.824 l 214.328 96.266
 l 213.848 96.984 l 213.371 98.426 l 212.891 99.383 l 212.41 100.105 l 212.168
 100.824 l 211.211 102.266 l 210.969 102.984 l 209.531 105.145 l 209.047
 106.105 l 206.648 109.707 l 206.887 109.707 l 206.168 110.426 l 205.93 
110.426 l 205.688 110.906 l 205.688 111.387 l 205.93 111.387 l 205.93 111.629
 l 206.41 111.629 l 232.574 104.668 l 232.574 104.426 l 232.812 104.426 
l 232.812 93.863 l 232.332 94.344 l 271.699 94.344 l 271.699 94.102 l 271.938
 94.102 l 271.938 59.055 l 270.977 59.055 l 270.977 93.863 l 271.457 93.383
 l 232.094 93.383 l 232.094 93.625 l 231.852 93.625 l 231.852 104.188 l 
232.094 103.707 l 205.93 110.668 l 206.648 111.387 l 206.887 110.906 l 206.648
 110.906 l 207.367 110.188 l 207.609 110.188 l 210.008 106.586 l 210.488
 105.625 l 211.93 103.465 l 212.168 102.746 l 213.129 101.305 l 213.371 
100.586 l 213.848 99.863 l 214.328 98.906 l 214.809 97.465 l 215.289 96.742
 l 215.77 95.305 l 216.25 94.582 l 216.73 93.145 l 216.73 92.902 l 216.969
 91.941 l 216.969 92.184 l 218.172 88.582 l 218.172 87.621 l 218.172 87.863
 l 218.41 87.141 l 218.41 86.902 l 218.652 85.941 l 218.652 85.223 l 218.652
 85.461 l 219.129 84.02 l 219.129 82.34 l 219.129 82.578 l 219.371 81.859
 l 219.371 80.18 l 219.609 79.219 l 219.609 73.457 l 219.371 72.738 l 219.371
 72.977 l 219.371 70.336 l 219.129 69.617 l 219.129 69.855 l 219.129 68.895
 l 218.891 68.176 l 218.891 68.418 l 218.891 67.457 l 218.41 66.016 l 218.41
 66.258 l 218.41 65.297 l 218.172 64.574 l 218.172 64.816 l 217.93 63.855
 l 217.93 63.613 l 216.012 57.852 l 216.012 58.094 l 215.77 57.133 l 215.77
 56.895 l 215.289 56.172 l 214.809 54.734 l 214.328 54.012 l 214.09 53.293
 l 213.609 52.57 l 213.371 51.852 l 212.891 50.891 l 212.41 50.172 l 212.168
 49.449 l 209.289 45.129 l 208.809 44.172 l 207.848 42.73 l 207.609 42.73
 l 206.887 42.008 l 207.129 42.008 l 206.648 41.289 l 205.93 42.008 l 232.094
 48.973 l 231.852 48.492 l 231.852 59.293 l 232.094 59.293 l 232.094 59.535
 l 271.457 59.535 l 270.977 59.055 l 271.938 59.055 l f*
0.682353 0.670588 0.670588 rg
68.387 59.055 m 107.512 59.055 l 107.512 48.492 l 133.676 41.527 l 133.199
 42.25 l 132.477 42.969 l 131.516 44.41 l 131.035 45.371 l 128.156 49.691
 l 127.918 50.41 l 127.438 51.133 l 126.957 52.094 l 126.715 52.812 l 126.238
 53.531 l 125.996 54.254 l 125.516 54.973 l 125.035 56.414 l 124.555 57.133
 l 124.316 58.094 l 123.836 59.535 l 122.875 62.414 l 122.395 63.855 l 122.156
 64.816 l 121.914 65.535 l 121.914 66.258 l 121.434 67.695 l 121.434 68.418
 l 121.195 69.137 l 121.195 69.855 l 120.957 70.578 l 120.957 72.977 l 120.715
 73.699 l 120.715 79.219 l 120.957 80.18 l 120.957 81.621 l 121.195 82.34
 l 121.195 83.781 l 121.676 85.223 l 121.676 85.941 l 121.914 86.902 l 122.156
 87.621 l 122.156 88.344 l 122.637 89.781 l 123.117 91.223 l 123.355 91.941
 l 123.598 92.902 l 124.074 94.344 l 124.555 95.062 l 125.035 96.504 l 125.516
 97.223 l 125.996 98.664 l 126.477 99.625 l 126.957 100.344 l 127.195 101.066
 l 128.156 102.504 l 128.398 103.227 l 129.836 105.387 l 130.316 106.348
 l 132.719 109.945 l 133.438 110.668 l 133.676 111.148 l 107.512 104.188
 l 107.512 93.863 l 68.387 93.863 l 68.387 59.055 l f*
0.129412 0.117647 0.117647 rg
68.867 59.055 m 68.387 59.535 l 107.754 59.535 l 107.754 59.293 l 107.992
 59.293 l 107.992 48.492 l 107.754 48.973 l 133.918 42.008 l 133.199 41.289
 l 132.719 42.008 l 132.957 42.008 l 132.238 42.73 l 131.996 42.73 l 131.035
 44.172 l 130.559 45.129 l 127.676 49.449 l 127.438 50.172 l 126.957 50.891
 l 126.477 51.852 l 126.238 52.57 l 125.758 53.293 l 125.516 54.012 l 125.035
 54.734 l 124.555 56.172 l 124.074 56.895 l 124.074 57.133 l 123.836 58.094
 l 123.836 57.852 l 121.914 63.613 l 121.914 63.855 l 121.676 64.816 l 121.676
 64.574 l 121.434 65.297 l 121.434 66.258 l 121.434 66.016 l 120.957 67.457
 l 120.957 68.418 l 120.957 68.176 l 120.715 68.895 l 120.715 69.855 l 120.715
 69.617 l 120.477 70.336 l 120.477 72.977 l 120.477 72.738 l 120.234 73.457
 l 120.234 79.219 l 120.477 80.18 l 120.477 81.859 l 120.715 82.578 l 120.715
 82.34 l 120.715 84.02 l 121.195 85.461 l 121.195 85.223 l 121.195 85.941
 l 121.434 86.902 l 121.434 87.141 l 121.676 87.863 l 121.676 87.621 l 121.676
 88.582 l 122.875 92.184 l 122.875 91.941 l 123.117 92.902 l 123.117 93.145
 l 123.598 94.582 l 124.074 95.305 l 124.555 96.742 l 125.035 97.465 l 125.516
 98.906 l 125.996 99.863 l 126.477 100.586 l 126.715 101.305 l 127.676 102.746
 l 127.918 103.465 l 129.355 105.625 l 129.836 106.586 l 132.238 110.188
 l 132.477 110.188 l 133.199 110.906 l 132.957 110.906 l 133.199 111.387
 l 133.918 110.668 l 107.754 103.707 l 107.992 104.188 l 107.992 93.625 
l 107.754 93.625 l 107.754 93.383 l 68.387 93.383 l 68.867 93.863 l 68.867
 59.055 l 67.906 59.055 l 67.906 94.102 l 68.148 94.102 l 68.148 94.344 
l 107.512 94.344 l 107.035 93.863 l 107.035 104.426 l 107.273 104.426 l 
107.273 104.668 l 133.438 111.629 l 133.918 111.629 l 133.918 111.387 l 
134.156 111.387 l 134.156 110.906 l 133.918 110.426 l 133.676 110.426 l 
132.957 109.707 l 133.199 109.707 l 130.797 106.105 l 130.316 105.145 l 
128.875 102.984 l 128.637 102.266 l 127.676 100.824 l 127.438 100.105 l 
126.957 99.383 l 126.477 98.426 l 125.996 96.984 l 125.516 96.266 l 125.035
 94.824 l 124.555 94.102 l 124.074 92.664 l 124.074 92.902 l 123.836 91.941
 l 123.836 91.703 l 122.637 88.102 l 122.637 88.344 l 122.637 87.383 l 122.395
 86.66 l 122.395 86.902 l 122.156 85.941 l 122.156 84.98 l 121.676 83.539
 l 121.676 83.781 l 121.676 82.102 l 121.434 81.379 l 121.434 81.621 l 121.434
 80.18 l 121.195 79.219 l 121.195 73.699 l 121.195 73.938 l 121.434 73.219
 l 121.434 70.578 l 121.434 70.816 l 121.676 70.098 l 121.676 69.137 l 121.676
 69.379 l 121.914 68.656 l 121.914 67.695 l 121.914 67.938 l 122.395 66.496
 l 122.395 65.535 l 122.395 65.777 l 122.637 65.055 l 122.637 64.816 l 122.875
 63.855 l 122.875 64.094 l 124.797 58.336 l 124.797 58.094 l 125.035 57.133
 l 125.035 57.375 l 125.516 56.652 l 125.996 55.215 l 126.477 54.492 l 126.715
 53.773 l 127.195 53.051 l 127.438 52.332 l 127.918 51.371 l 128.395 50.652
 l 128.637 49.93 l 131.516 45.609 l 131.996 44.648 l 132.957 43.211 l 132.719
 43.211 l 133.438 42.488 l 133.676 42.488 l 134.156 41.77 l 134.156 41.289
 l 133.918 41.289 l 133.918 41.051 l 133.438 41.051 l 107.273 48.012 l 107.273
 48.25 l 107.035 48.25 l 107.035 59.055 l 107.512 58.574 l 68.148 58.574
 l 68.148 58.812 l 67.906 58.812 l 67.906 59.055 l 68.867 59.055 l f*
183.605 62.656 m 184.086 62.656 l 184.086 62.414 l 184.324 62.414 l 184.324
 61.934 l 184.086 61.934 l 184.086 61.695 l 184.086 61.934 l 183.605 61.215
 l 182.883 60.973 l 182.406 60.973 l 179.043 59.293 l 178.805 59.293 l 178.566
 59.055 l 177.844 58.812 l 177.363 58.812 l 176.883 58.574 l 176.406 58.574
 l 175.445 58.094 l 174.723 58.094 l 174.242 57.852 l 173.762 57.852 l 173.285
 57.613 l 171.844 57.613 l 171.602 57.375 l 169.922 57.375 l 169.684 57.852
 l 169.922 57.613 l 170.164 57.613 l 169.445 57.375 l 168.242 57.375 l 167.762
 57.613 l 166.324 57.613 l 165.844 57.852 l 165.602 57.852 l 165.121 58.094
 l 164.402 58.094 l 163.684 58.336 l 163.441 58.574 l 163.203 58.574 l 162.723
 58.812 l 162.48 58.812 l 161.762 59.055 l 161.52 59.293 l 161.043 59.293
 l 160.801 59.535 l 160.32 59.773 l 160.082 60.016 l 159.602 60.254 l 158.883
 60.973 l 158.402 60.973 l 157.922 61.453 l 157.68 61.934 l 157.922 61.695
 l 157.68 61.934 l 157.68 62.414 l 157.922 62.656 l 158.402 62.656 l 158.641
 62.414 l 158.883 61.934 l 159.602 61.695 l 160.082 61.215 l 160.562 60.973
 l 160.801 60.734 l 161.281 60.492 l 161.52 60.254 l 162 60.254 l 162.242
 60.016 l 162.48 59.773 l 162.723 59.773 l 163.203 59.535 l 163.922 59.535
 l 164.402 59.055 l 165.121 59.055 l 165.602 58.812 l 165.844 58.812 l 166.324
 58.574 l 167.762 58.574 l 168.242 58.336 l 169.445 58.336 l 169.684 58.574
 l 169.922 58.574 l 170.164 58.336 l 171.125 58.336 l 171.363 58.574 l 173.285
 58.574 l 173.762 58.812 l 174.242 58.812 l 174.723 59.055 l 175.445 59.055
 l 176.406 59.535 l 176.883 59.535 l 177.363 59.773 l 177.844 59.773 l 178.324
 60.254 l 179.043 60.254 l 182.406 61.934 l 182.883 61.934 l 183.125 62.176
 l 183.605 62.414 l 183.605 62.656 l f*
161.762 61.695 m 158.16 62.176 l 160.082 59.055 l 161.762 61.695 l f*
161.281 61.934 m 161.762 61.215 l 158.16 61.695 l 158.641 62.414 l 160.562
 59.293 l 159.602 59.293 l 161.281 61.934 l 162.242 61.453 l 160.562 58.812
 l 160.32 58.812 l 160.32 58.574 l 159.84 58.574 l 159.84 58.812 l 159.602
 58.812 l 157.68 61.934 l 157.68 62.414 l 157.922 62.656 l 158.16 62.656
 l 161.762 62.176 l 162 62.176 l 162 61.934 l 162.242 61.934 l 162.242 61.453
 l 161.281 61.934 l f*
165.363 22.805 10.082 12.004 re f
165.363 22.324 m 165.121 22.324 l 165.121 22.562 l 164.883 22.562 l 164.883
 34.809 l 165.121 34.809 l 165.121 35.047 l 175.445 35.047 l 175.445 34.809
 l 175.684 34.809 l 175.684 22.562 l 175.445 22.562 l 175.445 22.324 l 165.363
 22.324 l 165.363 23.285 l 175.203 23.285 l 174.723 22.805 l 174.723 34.566
 l 175.203 34.086 l 165.363 34.086 l 165.844 34.566 l 165.844 22.805 l 165.363
 23.285 l 165.363 22.324 l f*
165.121 116.668 10.082 12.004 re f
165.121 116.188 m 164.883 116.188 l 164.883 116.43 l 164.641 116.43 l 164.641
 128.672 l 164.883 128.672 l 164.883 128.91 l 175.203 128.91 l 175.203 128.672
 l 175.445 128.672 l 175.445 116.43 l 175.203 116.43 l 175.203 116.188 l
 165.121 116.188 l 165.121 117.148 l 174.965 117.148 l 174.484 116.668 l
 174.484 128.434 l 174.965 127.953 l 165.121 127.953 l 165.602 128.434 l
 165.602 116.668 l 165.121 117.148 l 165.121 116.188 l f*
169.445 22.805 m 169.445 23.043 l 169.684 23.043 l 169.684 23.285 l 170.164
 23.285 l 170.164 23.043 l 170.402 23.043 l 170.402 4.801 l 170.164 4.801
 l 170.164 4.559 l 26.383 4.559 l 26.383 4.801 l 26.141 4.801 l 26.141 5.281
 l 26.383 5.281 l 26.383 5.52 l 169.922 5.52 l 169.445 5.039 l 169.445 22.805
 l f*
170.402 126.992 m 170.402 126.754 l 170.164 126.754 l 170.164 126.512 l
 169.684 126.512 l 169.684 126.754 l 169.445 126.754 l 169.445 144.758 l
 169.922 144.277 l 26.383 144.277 l 26.383 144.516 l 26.141 144.516 l 26.141
 144.996 l 26.383 144.996 l 26.383 145.238 l 170.164 145.238 l 170.164 144.996
 l 170.402 144.996 l 170.402 126.992 l f*
27.102 5.039 m 27.102 4.801 l 26.863 4.801 l 26.863 4.559 l 26.383 4.559
 l 26.383 4.801 l 26.141 4.801 l 26.141 58.336 l 26.383 58.336 l 26.383 
58.574 l 26.863 58.574 l 26.863 58.336 l 27.102 58.336 l 27.102 5.039 l f*
27.102 88.344 m 27.102 88.102 l 26.863 88.102 l 26.863 87.863 l 26.383 
87.863 l 26.383 88.102 l 26.141 88.102 l 26.141 144.996 l 26.383 144.996
 l 26.383 145.238 l 26.863 145.238 l 26.863 144.996 l 27.102 144.996 l 27.102
 88.344 l f*
1 g
63.105 4.559 m 63.105 6.719 61.188 8.641 59.027 8.641 c 56.867 8.641 54.945
 6.719 54.945 4.559 c 54.945 2.398 56.867 0.48 59.027 0.48 c 61.188 0.48
 63.105 2.398 63.105 4.559 c f*
0.129412 0.117647 0.117647 rg
54.465 4.32 m 54.465 5.762 l 54.707 6 l 54.707 6.238 l 54.945 6.48 l 54.945
 6.719 l 56.387 8.16 l 56.625 7.922 l 56.625 8.16 l 57.105 8.402 l 57.344
 8.641 l 58.547 8.641 l 59.266 8.402 l 59.027 8.402 l 59.988 8.641 l 60.227
 8.402 l 60.707 8.16 l 60.707 7.922 l 60.945 8.16 l 61.426 7.68 l 61.426
 7.441 l 61.668 7.441 l 61.668 7.199 l 61.906 7.199 l 61.906 6.961 l 62.145
 6.961 l 62.625 6.48 l 62.387 6.238 l 62.625 6.238 l 62.867 5.762 l 63.105
 5.52 l 62.867 4.559 l 62.867 4.801 l 63.105 4.078 l 63.105 2.879 l 62.867
 2.641 l 62.625 2.16 l 62.387 2.16 l 62.625 1.918 l 61.188 0.48 l 60.945
 0.48 l 60.707 0.238 l 60.465 0.238 l 60.227 0 l 57.105 0 l 56.867 0.238
 l 56.625 0.238 l 56.145 0.719 l 56.145 0.961 l 55.906 0.961 l 55.906 1.199
 l 55.664 1.199 l 55.664 1.438 l 55.426 1.438 l 55.426 1.68 l 55.184 1.68
 l 54.707 2.16 l 54.707 2.398 l 54.465 2.641 l 54.465 4.32 l 55.426 4.32
 l 55.426 3.117 l 55.664 2.879 l 55.664 2.641 l 55.906 2.398 l 55.664 2.16
 l 55.906 2.16 l 55.906 1.918 l 56.145 1.918 l 56.145 1.68 l 56.387 1.68
 l 56.387 1.438 l 56.625 1.438 l 56.625 1.199 l 56.867 1.438 l 57.105 1.199
 l 57.344 1.199 l 57.586 0.961 l 59.746 0.961 l 59.988 1.199 l 60.227 1.199
 l 60.465 1.438 l 60.707 1.438 l 61.668 2.398 l 61.906 2.641 l 62.145 2.641
 l 61.906 3.117 l 62.145 3.359 l 62.145 4.32 l 62.625 4.559 l 62.867 3.84
 l 62.387 4.078 l 62.145 5.039 l 61.906 5.281 l 62.145 5.762 l 61.906 5.762
 l 61.668 6 l 61.426 6.238 l 61.668 6.48 l 61.426 6.48 l 61.426 6.719 l 
61.188 6.719 l 61.188 6.961 l 60.945 6.961 l 60.945 7.199 l 60.707 6.961
 l 60.465 7.199 l 60.227 7.441 l 60.227 7.68 l 59.746 7.441 l 59.508 7.68
 l 58.547 7.922 l 58.305 8.402 l 59.027 8.16 l 58.785 7.68 l 57.828 7.68
 l 57.586 7.441 l 57.105 7.68 l 57.105 7.441 l 56.867 7.199 l 55.906 6.238
 l 55.906 6 l 55.664 5.762 l 55.664 5.52 l 55.426 5.281 l 55.426 4.32 l 
54.465 4.32 l f*
1 g
63.105 145.719 m 63.105 147.879 61.188 149.797 59.027 149.797 c 56.867 
149.797 54.945 147.879 54.945 145.719 c 54.945 143.316 56.867 141.395 59.027
 141.395 c 61.188 141.395 63.105 143.316 63.105 145.719 c f*
0.129412 0.117647 0.117647 rg
54.465 145.477 m 54.465 146.918 l 54.707 147.156 l 54.707 147.398 l 54.945
 147.637 l 54.945 147.879 l 56.387 149.316 l 56.625 149.078 l 56.625 149.316
 l 57.105 149.559 l 57.344 149.797 l 58.547 149.797 l 59.266 149.559 l 59.027
 149.559 l 59.988 149.797 l 60.227 149.559 l 60.707 149.316 l 60.707 149.078
 l 60.945 149.316 l 61.426 148.84 l 61.426 148.598 l 61.668 148.598 l 61.668
 148.355 l 61.906 148.355 l 61.906 148.117 l 62.145 148.117 l 62.625 147.637
 l 62.387 147.398 l 62.625 147.398 l 62.867 146.918 l 63.105 146.676 l 62.867
 145.719 l 62.867 145.957 l 63.105 145.238 l 63.105 144.035 l 62.867 143.797
 l 62.625 143.316 l 62.387 143.316 l 62.625 143.074 l 62.145 142.598 l 61.906
 142.598 l 61.906 142.355 l 61.668 142.355 l 61.668 142.117 l 61.426 142.117
 l 61.426 141.875 l 60.945 141.395 l 60.707 141.637 l 60.707 141.395 l 60.227
 141.156 l 59.988 140.914 l 57.344 140.914 l 57.105 141.156 l 56.625 141.395
 l 56.625 141.637 l 56.387 141.395 l 54.945 142.836 l 54.945 143.074 l 54.707
 143.316 l 54.707 143.555 l 54.465 143.797 l 54.465 145.477 l 55.426 145.477
 l 55.426 144.277 l 55.664 144.035 l 55.664 143.797 l 55.906 143.555 l 55.906
 143.316 l 57.105 142.117 l 57.105 141.875 l 57.586 142.117 l 57.828 141.875
 l 59.508 141.875 l 59.746 142.117 l 60.227 141.875 l 60.227 142.117 l 60.707
 142.598 l 60.945 142.355 l 60.945 142.598 l 61.188 142.598 l 61.188 142.836
 l 61.426 142.836 l 61.426 143.074 l 61.668 143.074 l 61.426 143.316 l 61.668
 143.555 l 61.906 143.797 l 62.145 143.797 l 61.906 144.277 l 62.145 144.516
 l 62.145 145.477 l 62.625 145.719 l 62.867 144.996 l 62.387 145.238 l 62.145
 146.195 l 61.906 146.438 l 62.145 146.918 l 61.906 146.918 l 61.426 147.398
 l 61.668 147.637 l 61.426 147.637 l 61.426 147.879 l 61.188 147.879 l 61.188
 148.117 l 60.945 148.117 l 60.945 148.355 l 60.707 148.117 l 60.465 148.355
 l 60.227 148.598 l 60.227 148.84 l 59.746 148.598 l 59.508 148.84 l 58.547
 149.078 l 58.305 149.559 l 59.027 149.316 l 58.785 148.84 l 57.828 148.84
 l 57.586 148.598 l 57.105 148.84 l 57.105 148.598 l 56.867 148.355 l 55.906
 147.398 l 55.906 147.156 l 55.664 146.918 l 55.664 146.676 l 55.426 146.438
 l 55.426 145.477 l 54.465 145.477 l f*
90.488 69.062 m 93.27 69.062 l 96.77 77.344 l 96.77 69.062 l 99.129 69.062
 l 99.129 81.141 l 96.348 81.141 l 92.848 72.859 l 92.848 81.141 l 90.488
 81.141 l h
90.488 69.062 m f
248.422 68.262 m 248.422 70.809 l 247.898 70.52 247.383 70.301 246.875 
70.152 c 246.375 69.996 245.898 69.918 245.453 69.918 c 244.859 69.918 244.414
 70.023 244.125 70.23 c 243.844 70.43 243.703 70.742 243.703 71.168 c 243.703
 71.492 243.797 71.746 243.984 71.934 c 244.18 72.113 244.531 72.27 245.031
 72.402 c 246.094 72.668 l 247.164 72.941 247.926 73.352 248.375 73.902 
c 248.832 74.445 249.062 75.223 249.062 76.23 c 249.062 77.566 248.742 78.559
 248.109 79.215 c 247.484 79.863 246.52 80.184 245.219 80.184 c 244.613 
80.184 244 80.109 243.375 79.965 c 242.758 79.82 242.145 79.605 241.531 
79.324 c 241.531 76.684 l 242.145 77.102 242.738 77.414 243.312 77.621 c
 243.895 77.832 244.453 77.934 244.984 77.934 c 245.523 77.934 245.941 77.82
 246.234 77.59 c 246.523 77.363 246.672 77.039 246.672 76.621 c 246.672 
76.246 246.57 75.957 246.375 75.746 c 246.176 75.539 245.785 75.355 245.203
 75.199 c 244.234 74.934 l 243.266 74.676 242.555 74.262 242.109 73.699 
c 241.672 73.129 241.453 72.363 241.453 71.402 c 241.453 70.195 241.758 
69.27 242.375 68.621 c 243 67.977 243.895 67.652 245.062 67.652 c 245.582
 67.652 246.125 67.707 246.688 67.809 c 247.25 67.902 247.828 68.055 248.422
 68.262 c h
248.422 68.262 m f
53.266 130.113 9.359 1.441 re f
55.906 21.363 9.359 1.441 re f
59.746 17.523 1.441 9.363 re f
95.27 10.562 m 95.031 10.562 l 95.031 10.801 l 94.793 10.801 l 94.793 11.281
 l 95.031 11.281 l 95.031 11.52 l 125.035 11.52 l 125.035 11.281 l 125.277
 11.281 l 125.277 10.801 l 125.035 10.801 l 125.035 10.562 l 95.27 10.562
 l f*
121.676 9.359 m 124.797 11.043 l 121.676 12.48 l 121.676 9.359 l f*
122.156 9.359 m 121.434 9.84 l 124.555 11.52 l 124.555 10.562 l 121.434
 12 l 122.156 12.48 l 122.156 9.359 l 121.195 9.359 l 121.195 12.723 l 121.434
 12.961 l 121.914 12.961 l 125.035 11.52 l 125.035 11.281 l 125.277 11.281
 l 125.277 10.801 l 125.035 10.801 l 125.035 10.562 l 121.914 8.883 l 121.434
 8.883 l 121.434 9.121 l 121.195 9.121 l 121.195 9.359 l 122.156 9.359 l
 f*
118.797 137.316 m 119.035 137.316 l 119.035 137.074 l 119.277 137.074 l
 119.277 136.594 l 119.035 136.594 l 119.035 136.355 l 87.109 136.355 l 
87.109 136.594 l 86.871 136.594 l 86.871 137.074 l 87.109 137.074 l 87.109
 137.316 l 118.797 137.316 l f*
90.469 138.273 m 87.352 136.836 l 90.469 135.152 l 90.469 138.273 l f*
89.992 138.273 m 90.711 137.797 l 87.59 136.355 l 87.59 137.316 l 90.711
 135.633 l 89.992 135.152 l 89.992 138.273 l 90.953 138.273 l 90.953 134.914
 l 90.711 134.914 l 90.711 134.676 l 90.23 134.676 l 87.109 136.355 l 86.871
 136.594 l 86.871 137.074 l 87.109 137.316 l 90.23 138.754 l 90.711 138.754
 l 90.711 138.516 l 90.953 138.516 l 90.953 138.273 l 89.992 138.273 l f*
0.219 76.465 m 0.656 72.09 l 0.672 71.871 0.688 71.715 0.688 71.637 c 0.688
 71.527 0.641 71.434 0.547 71.355 c 0.469 71.277 0.328 71.23 0.156 71.23
 c 0 71.23 l 0.047 71.09 l 2.109 71.09 l 2.078 71.23 l 1.859 71.23 1.688
 71.262 1.609 71.309 c 1.531 71.355 1.469 71.434 1.406 71.527 c 1.391 71.59
 1.359 71.746 1.328 72.012 c 1.016 75.137 l 3.062 72.34 l 3.281 72.043 3.422
 71.84 3.484 71.715 c 3.516 71.637 3.531 71.574 3.531 71.512 c 3.531 71.449
 3.516 71.387 3.453 71.34 c 3.391 71.277 3.281 71.246 3.125 71.23 c 3.172
 71.09 l 4.75 71.09 l 4.703 71.23 l 4.578 71.246 4.484 71.277 4.406 71.309
 c 4.266 71.387 4.125 71.48 3.984 71.621 c 3.844 71.746 3.625 72.027 3.312
 72.449 c 0.359 76.465 l h
0.219 76.465 m f
156.48 53.051 m 156.48 53.293 l 156.242 53.293 l 156.242 53.773 l 156.48
 53.773 l 156.48 54.012 l 156.961 54.012 l 157.203 53.773 l 157.203 53.293
 l 158.883 52.57 l 159.121 52.57 l 161.043 51.613 l 161.52 51.613 l 162 
51.371 l 162.723 51.371 l 163.203 50.891 l 164.164 50.891 l 164.641 50.652
 l 165.121 50.652 l 165.602 50.41 l 166.801 50.41 l 167.281 50.172 l 173.523
 50.172 l 174.004 50.41 l 174.965 50.41 l 175.445 50.652 l 175.684 50.652
 l 175.922 50.891 l 176.883 50.891 l 177.363 51.371 l 178.086 51.371 l 178.566
 51.613 l 178.805 51.613 l 179.285 52.094 l 179.766 52.332 l 180.004 52.57
 l 180.484 52.57 l 180.965 53.051 l 181.445 53.293 l 182.164 53.773 l 182.164
 54.012 l 182.645 54.012 l 182.883 53.773 l 182.883 53.293 l 182.645 53.051
 l 182.645 53.293 l 181.926 52.332 l 181.445 52.094 l 180.965 51.613 l 180.484
 51.613 l 180.246 51.371 l 179.766 51.133 l 179.523 50.891 l 178.805 50.652
 l 178.566 50.652 l 178.086 50.41 l 177.844 50.41 l 177.605 50.172 l 176.883
 49.93 l 176.406 49.93 l 176.164 49.691 l 175.445 49.691 l 174.965 49.449
 l 174.004 49.449 l 173.523 49.211 l 167.281 49.211 l 166.801 49.449 l 165.602
 49.449 l 165.121 49.691 l 164.641 49.691 l 164.164 49.93 l 163.203 49.93
 l 162.48 50.172 l 162.242 50.41 l 162 50.41 l 161.52 50.652 l 161.043 50.652
 l 159.121 51.613 l 158.883 51.613 l 156.723 52.812 l 156.242 53.293 l 156.48
 53.051 l f*
160.32 53.773 m 156.723 53.531 l 158.883 50.891 l 160.32 53.773 l f*
159.84 54.012 m 160.32 53.293 l 156.723 53.051 l 157.203 53.773 l 159.363
 51.133 l 158.402 51.133 l 159.84 54.012 l 160.801 53.531 l 159.363 50.652
 l 159.121 50.41 l 158.641 50.41 l 158.402 50.652 l 156.242 53.293 l 156.242
 53.773 l 156.48 54.012 l 156.723 54.012 l 160.32 54.254 l 160.562 54.254
 l 160.562 54.012 l 160.801 54.012 l 160.801 53.531 l 159.84 54.012 l f*
152.402 47.051 m 152.402 47.293 l 152.879 47.293 l 152.879 47.051 l 153.121
 47.051 l 153.121 46.57 l 152.879 46.57 l 148.559 42.25 l 148.559 42.008
 l 148.078 42.008 l 148.078 42.25 l 147.84 42.25 l 147.84 42.73 l 148.078
 42.73 l 152.402 47.051 l f*
148.078 46.57 m 147.84 46.57 l 147.84 47.051 l 148.078 47.051 l 148.078
 47.293 l 148.559 47.293 l 148.559 47.051 l 152.879 42.73 l 153.121 42.73
 l 153.121 42.25 l 152.879 42.25 l 152.879 42.008 l 152.402 42.008 l 152.402
 42.25 l 148.078 46.57 l f*
138.238 61.695 m 138.238 61.934 l 138.719 61.934 l 138.719 61.695 l 138.957
 61.695 l 138.957 61.215 l 138.719 61.215 l 134.398 56.652 l 134.398 56.414
 l 133.918 56.414 l 133.918 56.652 l 133.676 56.652 l 133.676 57.133 l 133.918
 57.133 l 138.238 61.695 l f*
133.918 61.215 m 133.676 61.215 l 133.676 61.695 l 133.918 61.695 l 133.918
 61.934 l 134.398 61.934 l 134.398 61.695 l 138.719 57.133 l 138.957 57.133
 l 138.957 56.652 l 138.719 56.652 l 138.719 56.414 l 138.238 56.414 l 138.238
 56.652 l 133.918 61.215 l f*
135.598 77.301 m 135.598 77.539 l 136.078 77.539 l 136.078 77.301 l 136.316
 77.301 l 136.316 76.82 l 136.078 76.82 l 131.758 72.496 l 131.758 72.258
 l 131.277 72.258 l 131.277 72.496 l 131.035 72.496 l 131.035 72.977 l 131.277
 72.977 l 135.598 77.301 l f*
131.277 76.82 m 131.035 76.82 l 131.035 77.301 l 131.277 77.301 l 131.277
 77.539 l 131.758 77.539 l 131.758 77.301 l 136.078 72.977 l 136.316 72.977
 l 136.316 72.496 l 136.078 72.496 l 136.078 72.258 l 135.598 72.258 l 135.598
 72.496 l 131.277 76.82 l f*
142.559 100.344 m 142.559 100.586 l 143.039 100.586 l 143.039 100.344 l
 143.277 100.344 l 143.277 99.863 l 143.039 99.863 l 138.719 95.543 l 138.719
 95.305 l 138.238 95.305 l 138.238 95.543 l 138 95.543 l 138 96.023 l 138.238
 96.023 l 142.559 100.344 l f*
138.238 99.863 m 138 99.863 l 138 100.344 l 138.238 100.344 l 138.238 100.586
 l 138.719 100.586 l 138.719 100.344 l 143.039 96.023 l 143.277 96.023 l
 143.277 95.543 l 143.039 95.543 l 143.039 95.305 l 142.559 95.305 l 142.559
 95.543 l 138.238 99.863 l f*
154.559 110.426 m 154.559 110.668 l 155.039 110.668 l 155.039 110.426 l
 155.281 110.426 l 155.281 109.945 l 155.039 109.945 l 150.48 105.387 l 
150.48 105.145 l 150 105.145 l 150 105.387 l 149.762 105.387 l 149.762 105.867
 l 150 105.867 l 154.559 110.426 l f*
150 109.945 m 149.762 109.945 l 149.762 110.426 l 150 110.426 l 150 110.668
 l 150.48 110.668 l 150.48 110.426 l 155.039 105.867 l 155.281 105.867 l
 155.281 105.387 l 155.039 105.387 l 155.039 105.145 l 154.559 105.145 l
 154.559 105.387 l 150 109.945 l f*
189.844 44.172 m 189.125 44.648 l 188.164 44.648 l 187.684 43.93 l 187.926
 42.969 l 188.645 42.488 l 189.367 42.488 l 190.086 43.449 l 189.844 44.172
 l f*
189.844 43.691 m 189.367 43.93 l 189.367 44.172 l 188.887 44.172 l 188.887
 44.41 l 188.164 44.172 l 188.406 44.172 l 188.406 44.41 l 188.406 44.172
 l 188.164 43.93 l 187.926 43.93 l 187.926 43.449 l 187.684 43.449 l 187.926
 43.449 l 187.926 43.211 l 187.926 43.449 l 188.164 43.211 l 188.406 43.211
 l 188.406 42.969 l 188.164 42.73 l 188.645 42.73 l 188.645 42.488 l 188.887
 42.73 l 189.125 42.73 l 189.125 42.969 l 189.125 42.73 l 189.125 42.969
 l 189.367 43.211 l 189.605 43.211 l 189.367 44.172 l 189.844 43.691 l 189.844
 44.648 l 190.328 44.172 l 190.086 42.73 l 189.844 42.73 l 190.086 42.488
 l 189.605 42.25 l 189.605 42.008 l 189.605 42.25 l 189.367 41.77 l 188.164
 42.008 l 188.164 42.25 l 187.684 42.25 l 187.445 42.969 l 187.445 42.73
 l 187.684 42.73 l 187.926 42.488 l 187.445 42.73 l 187.445 42.969 l 187.207
 42.969 l 187.207 43.93 l 187.445 43.93 l 187.445 44.41 l 187.684 44.41 
l 187.445 44.648 l 187.926 44.891 l 187.926 45.129 l 188.164 45.129 l 189.367
 44.891 l 189.367 44.648 l 189.844 44.648 l 189.844 44.41 l 189.844 44.648
 l 189.844 43.691 l f*
203.289 58.574 m 202.328 58.812 l 201.609 58.094 l 201.609 57.375 l 202.086
 56.414 l 202.809 56.414 l 203.527 56.895 l 203.77 57.852 l 203.289 58.574
 l f*
203.289 58.094 m 202.086 58.336 l 202.086 58.094 l 201.848 58.094 l 202.086
 58.094 l 202.086 57.852 l 201.848 57.852 l 201.848 57.613 l 201.609 57.133
 l 201.848 57.133 l 202.086 56.895 l 202.328 56.895 l 202.57 56.414 l 202.328
 56.414 l 202.57 56.414 l 202.57 56.652 l 203.047 56.652 l 202.809 56.895
 l 203.289 57.133 l 203.047 57.133 l 203.047 56.895 l 203.289 57.613 l 203.527
 57.613 l 203.289 57.613 l 203.289 58.094 l 203.047 58.094 l 202.809 58.574
 l 203.289 58.094 l 203.289 59.055 l 203.77 58.574 l 203.527 58.574 l 203.77
 58.574 l 203.77 58.094 l 204.008 58.094 l 204.008 57.133 l 203.77 57.133
 l 204.008 56.895 l 204.008 56.652 l 203.77 56.652 l 203.77 56.414 l 203.527
 56.172 l 203.047 56.172 l 203.047 55.934 l 201.848 55.934 l 201.609 56.414
 l 201.848 55.934 l 202.086 55.934 l 201.609 55.934 l 201.129 56.414 l 201.367
 56.652 l 201.129 56.652 l 200.887 58.094 l 201.367 58.336 l 201.129 58.336
 l 201.129 58.094 l 201.367 58.574 l 201.609 58.574 l 201.609 58.812 l 203.289
 59.055 l 203.289 58.094 l f*
207.609 77.777 m 206.887 77.301 l 206.648 76.578 l 206.887 75.617 l 207.609
 75.379 l 208.57 75.617 l 208.809 76.578 l 208.57 77.301 l 207.609 77.777
 l f*
207.848 77.539 m 207.609 77.059 l 207.367 77.059 l 207.129 76.82 l 207.129
 76.578 l 206.887 75.859 l 207.129 75.859 l 207.129 75.617 l 207.609 75.859
 l 208.09 75.617 l 208.09 75.859 l 208.328 75.859 l 208.09 76.578 l 208.57
 76.82 l 208.809 76.098 l 208.328 76.34 l 208.328 76.82 l 208.09 76.82 l
 208.09 77.059 l 207.848 77.059 l 207.848 77.301 l 207.367 77.301 l 207.129
 77.777 l 207.848 77.539 l 207.367 78.02 l 208.09 77.777 l 207.848 77.777
 l 208.328 77.777 l 208.328 77.539 l 208.57 77.539 l 208.57 77.301 l 208.809
 77.301 l 208.809 76.82 l 208.809 77.059 l 209.047 76.34 l 209.047 76.098
 l 208.809 75.379 l 208.57 75.379 l 208.57 75.137 l 207.609 74.898 l 206.648
 75.137 l 206.648 75.379 l 206.41 75.379 l 206.168 76.578 l 206.168 77.301
 l 206.887 78.02 l 207.367 78.02 l 207.848 77.539 l f*
202.328 95.062 m 201.848 94.344 l 201.848 93.383 l 202.57 92.902 l 203.527
 92.902 l 204.008 93.863 l 204.008 94.582 l 203.289 95.062 l 202.328 95.062
 l f*
202.57 94.824 m 202.328 94.344 l 202.086 94.102 l 201.848 94.102 l 201.848
 93.625 l 201.848 93.863 l 202.328 93.383 l 202.086 93.145 l 202.57 93.145
 l 202.57 92.902 l 203.047 93.145 l 203.289 93.145 l 203.289 93.383 l 203.289
 93.145 l 203.047 92.902 l 203.289 93.383 l 203.527 93.383 l 203.527 93.863
 l 203.77 93.863 l 203.527 94.582 l 203.527 94.344 l 203.77 94.344 l 204.008
 94.102 l 203.289 94.344 l 203.289 94.582 l 202.809 94.582 l 202.809 94.824
 l 202.328 94.582 l 202.57 94.824 l 202.086 95.305 l 202.328 95.543 l 203.289
 95.305 l 203.289 95.062 l 203.77 95.062 l 203.77 94.824 l 204.008 95.062
 l 204.25 94.824 l 204.488 94.824 l 204.488 94.582 l 204.25 93.383 l 204.008
 93.383 l 204.008 92.902 l 203.77 92.902 l 204.008 92.902 l 203.77 92.664
 l 203.77 92.422 l 203.77 92.664 l 203.527 92.184 l 202.086 92.422 l 202.086
 92.664 l 201.609 92.664 l 201.367 93.383 l 201.848 92.902 l 201.367 93.145
 l 201.367 94.582 l 201.609 94.582 l 201.367 94.824 l 202.086 95.305 l 202.57
 94.824 l f*
187.926 108.266 m 187.684 107.547 l 188.406 106.828 l 189.125 106.586 l
 189.844 107.066 l 190.086 108.027 l 189.605 108.746 l 188.645 108.988 l
 187.926 108.266 l f*
188.164 108.027 m 188.164 107.547 l 187.926 107.785 l 187.926 107.309 l
 188.164 107.309 l 188.164 107.066 l 188.406 107.309 l 188.645 107.309 l
 188.645 107.066 l 188.887 106.828 l 188.645 106.828 l 188.887 106.828 l
 188.887 106.586 l 188.887 106.828 l 189.367 106.828 l 189.125 107.066 l
 189.605 107.309 l 189.367 107.309 l 189.367 107.066 l 189.605 107.785 l
 189.844 107.785 l 189.605 107.785 l 189.605 108.266 l 189.367 108.266 l
 189.125 108.746 l 189.367 108.266 l 189.605 108.266 l 188.645 108.508 l
 188.645 108.746 l 188.887 108.746 l 188.887 108.508 l 188.406 108.508 l
 188.406 108.266 l 188.164 108.266 l 188.406 108.266 l 188.164 108.027 l
 187.684 108.508 l 187.445 108.266 l 187.684 108.746 l 187.926 108.746 l
 187.926 108.988 l 188.406 108.988 l 188.406 109.227 l 189.125 109.227 l
 189.125 108.988 l 189.605 109.227 l 189.844 109.227 l 190.086 108.746 l
 189.844 108.746 l 190.086 108.746 l 190.086 108.266 l 190.328 108.266 l
 190.328 107.309 l 190.086 107.309 l 190.328 107.066 l 190.328 106.828 l
 190.086 106.828 l 190.086 106.586 l 189.844 106.348 l 189.367 106.348 l
 189.367 106.105 l 188.406 106.105 l 188.406 106.348 l 188.164 106.348 l
 187.926 106.828 l 188.164 106.586 l 188.164 106.348 l 188.406 106.348 l
 187.684 106.586 l 187.684 106.828 l 187.445 106.828 l 187.445 107.309 l
 186.965 107.309 l 187.207 108.027 l 187.207 108.266 l 187.684 108.508 l
 188.164 108.027 l f*
161.691 67.152 m 161.824 67.207 161.957 67.324 162.082 67.512 c 162.207
 67.699 162.332 67.957 162.457 68.277 c 163.098 69.855 l 162.426 69.855 
l 161.832 68.371 l 161.676 67.988 161.523 67.73 161.379 67.605 c 161.242
 67.48 161.051 67.418 160.801 67.418 c 160.129 67.418 l 160.129 69.855 l
 159.504 69.855 l 159.504 64.074 l 160.91 64.074 l 161.441 64.074 161.832
 64.215 162.082 64.496 c 162.34 64.77 162.473 65.184 162.473 65.746 c 162.473
 66.113 162.402 66.414 162.27 66.652 c 162.133 66.895 161.941 67.059 161.691
 67.152 c h
160.129 64.715 m 160.129 66.777 l 160.91 66.777 l 161.211 66.777 161.434
 66.691 161.582 66.512 c 161.738 66.336 161.816 66.082 161.816 65.746 c 
161.816 65.402 161.738 65.148 161.582 64.98 c 161.434 64.805 161.211 64.715
 160.91 64.715 c h
160.129 64.715 m f
166.098 66.027 m 165.793 66.027 165.555 66.18 165.379 66.48 c 165.199 66.773
 165.113 67.18 165.113 67.699 c 165.113 68.211 165.199 68.617 165.379 68.918
 c 165.555 69.223 165.793 69.371 166.098 69.371 c 166.398 69.371 166.637
 69.223 166.816 68.918 c 166.992 68.617 167.082 68.211 167.082 67.699 c 
167.082 67.18 166.992 66.773 166.816 66.48 c 166.637 66.18 166.398 66.027
 166.098 66.027 c h
166.098 65.418 m 166.586 65.418 166.973 65.621 167.254 66.027 c 167.543
 66.426 167.691 66.98 167.691 67.699 c 167.691 68.41 167.543 68.965 167.254
 69.371 c 166.973 69.77 166.586 69.965 166.098 69.965 c 165.598 69.965 165.207
 69.77 164.926 69.371 c 164.645 68.965 164.504 68.41 164.504 67.699 c 164.504
 66.98 164.645 66.426 164.926 66.027 c 165.207 65.621 165.598 65.418 166.098
 65.418 c h
166.098 65.418 m f
169.398 64.293 m 169.398 65.527 l 170.57 65.527 l 170.57 66.074 l 169.398
 66.074 l 169.398 68.434 l 169.398 68.789 169.434 69.02 169.508 69.121 c
 169.59 69.215 169.75 69.262 169.992 69.262 c 170.57 69.262 l 170.57 69.855
 l 169.992 69.855 l 169.555 69.855 169.25 69.758 169.086 69.559 c 168.918
 69.352 168.836 68.977 168.836 68.434 c 168.836 66.074 l 168.414 66.074 
l 168.414 65.527 l 168.836 65.527 l 168.836 64.293 l h
169.398 64.293 m f
172.574 67.684 m 172.113 67.684 171.797 67.754 171.621 67.887 c 171.441
 68.012 171.355 68.23 171.355 68.543 c 171.355 68.805 171.418 69.008 171.543
 69.152 c 171.676 69.301 171.859 69.371 172.09 69.371 c 172.402 69.371 172.652
 69.23 172.84 68.949 c 173.035 68.668 173.137 68.301 173.137 67.84 c 173.137
 67.684 l h
173.699 67.387 m 173.699 69.855 l 173.137 69.855 l 173.137 69.199 l 173.012
 69.461 172.848 69.652 172.652 69.777 c 172.453 69.902 172.215 69.965 171.934
 69.965 c 171.578 69.965 171.297 69.84 171.09 69.59 c 170.879 69.34 170.777
 69.008 170.777 68.59 c 170.777 68.113 170.906 67.746 171.168 67.496 c 171.426
 67.246 171.816 67.121 172.34 67.121 c 173.137 67.121 l 173.137 67.059 l
 173.137 66.727 173.047 66.473 172.871 66.293 c 172.703 66.117 172.465 66.027
 172.152 66.027 c 171.953 66.027 171.762 66.059 171.574 66.121 c 171.387
 66.176 171.207 66.258 171.043 66.371 c 171.043 65.715 l 171.25 65.621 171.449
 65.551 171.637 65.496 c 171.832 65.445 172.027 65.418 172.215 65.418 c 
172.715 65.418 173.082 65.582 173.324 65.902 c 173.574 66.227 173.699 66.723
 173.699 67.387 c h
173.699 67.387 m f
177.098 65.684 m 177.098 66.355 l 176.93 66.242 176.762 66.16 176.598 66.105
 c 176.441 66.055 176.277 66.027 176.113 66.027 c 175.746 66.027 175.461
 66.176 175.254 66.465 c 175.055 66.758 174.957 67.168 174.957 67.699 c 
174.957 68.223 175.055 68.633 175.254 68.934 c 175.461 69.227 175.746 69.371
 176.113 69.371 c 176.277 69.371 176.441 69.348 176.598 69.293 c 176.762
 69.23 176.93 69.145 177.098 69.027 c 177.098 69.684 l 176.93 69.777 176.762
 69.848 176.598 69.887 c 176.43 69.938 176.246 69.965 176.051 69.965 c 175.527
 69.965 175.113 69.762 174.801 69.355 c 174.496 68.941 174.348 68.387 174.348
 67.699 c 174.348 66.992 174.504 66.434 174.816 66.027 c 175.129 65.621 
175.555 65.418 176.098 65.418 c 176.262 65.418 176.43 65.445 176.598 65.496
 c 176.773 65.539 176.941 65.602 177.098 65.684 c h
177.098 65.684 m f
178.195 65.527 m 178.773 65.527 l 178.773 69.855 l 178.195 69.855 l h
178.195 63.84 m 178.773 63.84 l 178.773 64.73 l 178.195 64.73 l h
178.195 63.84 m f
181.699 66.027 m 181.395 66.027 181.156 66.18 180.98 66.48 c 180.801 66.773
 180.715 67.18 180.715 67.699 c 180.715 68.211 180.801 68.617 180.98 68.918
 c 181.156 69.223 181.395 69.371 181.699 69.371 c 182 69.371 182.238 69.223
 182.418 68.918 c 182.594 68.617 182.684 68.211 182.684 67.699 c 182.684
 67.18 182.594 66.773 182.418 66.48 c 182.238 66.18 182 66.027 181.699 66.027
 c h
181.699 65.418 m 182.188 65.418 182.574 65.621 182.855 66.027 c 183.145
 66.426 183.293 66.98 183.293 67.699 c 183.293 68.41 183.145 68.965 182.855
 69.371 c 182.574 69.77 182.188 69.965 181.699 69.965 c 181.199 69.965 180.809
 69.77 180.527 69.371 c 180.246 68.965 180.105 68.41 180.105 67.699 c 180.105
 66.98 180.246 66.426 180.527 66.027 c 180.809 65.621 181.199 65.418 181.699
 65.418 c h
182.137 63.512 m 182.746 63.512 l 181.746 64.98 l 181.262 64.98 l h
182.137 63.512 m f
187.07 67.246 m 187.07 69.855 l 186.508 69.855 l 186.508 67.262 l 186.508
 66.855 186.438 66.555 186.305 66.355 c 186.18 66.148 185.992 66.043 185.742
 66.043 c 185.43 66.043 185.184 66.168 185.008 66.418 c 184.828 66.66 184.742
 66.988 184.742 67.402 c 184.742 69.855 l 184.18 69.855 l 184.18 65.527 
l 184.742 65.527 l 184.742 66.199 l 184.875 65.941 185.039 65.746 185.227
 65.621 c 185.414 65.488 185.625 65.418 185.867 65.418 c 186.262 65.418 
186.559 65.574 186.758 65.887 c 186.965 66.191 187.07 66.645 187.07 67.246
 c h
187.07 67.246 m f
203.82 18.863 m 203.82 21.035 l 204.602 21.035 l 204.891 21.035 205.117
 20.941 205.273 20.754 c 205.43 20.566 205.508 20.301 205.508 19.957 c 205.508
 19.613 205.43 19.348 205.273 19.16 c 205.117 18.965 204.891 18.863 204.602
 18.863 c h
203.195 18.223 m 204.602 18.223 l 205.121 18.223 205.512 18.375 205.773
 18.676 c 206.031 18.969 206.164 19.395 206.164 19.957 c 206.164 20.531 
206.031 20.965 205.773 21.254 c 205.512 21.535 205.121 21.676 204.602 21.676
 c 203.82 21.676 l 203.82 24.004 l 203.195 24.004 l h
203.195 18.223 m f
209.062 21.832 m 208.602 21.832 208.285 21.902 208.109 22.035 c 207.93 
22.16 207.844 22.379 207.844 22.691 c 207.844 22.953 207.906 23.156 208.031
 23.301 c 208.164 23.449 208.348 23.52 208.578 23.52 c 208.891 23.52 209.141
 23.379 209.328 23.098 c 209.523 22.816 209.625 22.449 209.625 21.988 c 
209.625 21.832 l h
210.188 21.535 m 210.188 24.004 l 209.625 24.004 l 209.625 23.348 l 209.5
 23.609 209.336 23.801 209.141 23.926 c 208.941 24.051 208.703 24.113 208.422
 24.113 c 208.066 24.113 207.785 23.988 207.578 23.738 c 207.367 23.488 
207.266 23.156 207.266 22.738 c 207.266 22.262 207.395 21.895 207.656 21.645
 c 207.914 21.395 208.305 21.27 208.828 21.27 c 209.625 21.27 l 209.625 
21.207 l 209.625 20.875 209.535 20.621 209.359 20.441 c 209.191 20.266 208.953
 20.176 208.641 20.176 c 208.441 20.176 208.25 20.207 208.062 20.27 c 207.875
 20.324 207.695 20.406 207.531 20.52 c 207.531 19.863 l 207.738 19.77 207.938
 19.699 208.125 19.645 c 208.32 19.594 208.516 19.566 208.703 19.566 c 209.203
 19.566 209.57 19.73 209.812 20.051 c 210.062 20.375 210.188 20.871 210.188
 21.535 c h
210.188 21.535 m f
213.102 20.332 m 213.027 20.293 212.953 20.262 212.883 20.238 c 212.809
 20.219 212.727 20.207 212.633 20.207 c 212.309 20.207 212.059 20.34 211.883
 20.598 c 211.715 20.859 211.633 21.234 211.633 21.723 c 211.633 24.004 
l 211.07 24.004 l 211.07 19.676 l 211.633 19.676 l 211.633 20.348 l 211.758
 20.09 211.914 19.895 212.102 19.77 c 212.297 19.637 212.531 19.566 212.805
 19.566 c 212.844 19.566 212.887 19.574 212.93 19.582 c 212.98 19.582 213.031
 19.594 213.086 19.613 c h
213.102 20.332 m f
218.859 21.66 m 218.859 22.004 l 216.234 22.004 l 216.266 22.496 216.383
 22.871 216.594 23.129 c 216.801 23.391 217.094 23.52 217.469 23.52 c 217.688
 23.52 217.898 23.488 218.109 23.426 c 218.316 23.355 218.52 23.25 218.719
 23.113 c 218.719 23.785 l 218.52 23.891 218.312 23.969 218.094 24.02 c 
217.875 24.082 217.656 24.113 217.438 24.113 c 216.883 24.113 216.445 23.918
 216.125 23.52 c 215.801 23.113 215.641 22.566 215.641 21.879 c 215.641 
21.172 215.789 20.609 216.094 20.191 c 216.406 19.777 216.82 19.566 217.344
 19.566 c 217.812 19.566 218.18 19.754 218.453 20.129 c 218.723 20.504 218.859
 21.016 218.859 21.66 c h
218.281 21.457 m 218.281 21.062 218.191 20.75 218.016 20.52 c 217.848 20.293
 217.625 20.176 217.344 20.176 c 217.031 20.176 216.773 20.293 216.578 20.52
 c 216.391 20.738 216.285 21.051 216.266 21.457 c h
218.281 21.457 m f
219.254 17.988 0.578 6.016 re f
224.625 21.66 m 224.625 22.004 l 222 22.004 l 222.031 22.496 222.148 22.871
 222.359 23.129 c 222.566 23.391 222.859 23.52 223.234 23.52 c 223.453 23.52
 223.664 23.488 223.875 23.426 c 224.082 23.355 224.285 23.25 224.484 23.113
 c 224.484 23.785 l 224.285 23.891 224.078 23.969 223.859 24.02 c 223.641
 24.082 223.422 24.113 223.203 24.113 c 222.648 24.113 222.211 23.918 221.891
 23.52 c 221.566 23.113 221.406 22.566 221.406 21.879 c 221.406 21.172 221.555
 20.609 221.859 20.191 c 222.172 19.777 222.586 19.566 223.109 19.566 c 
223.578 19.566 223.945 19.754 224.219 20.129 c 224.488 20.504 224.625 21.016
 224.625 21.66 c h
224.047 21.457 m 224.047 21.062 223.957 20.75 223.781 20.52 c 223.613 20.293
 223.391 20.176 223.109 20.176 c 222.797 20.176 222.539 20.293 222.344 20.52
 c 222.156 20.738 222.051 21.051 222.031 21.457 c h
224.047 21.457 m f
227.52 19.832 m 227.52 20.504 l 227.352 20.391 227.184 20.309 227.02 20.254
 c 226.863 20.203 226.699 20.176 226.535 20.176 c 226.168 20.176 225.883
 20.324 225.676 20.613 c 225.477 20.906 225.379 21.316 225.379 21.848 c 
225.379 22.371 225.477 22.781 225.676 23.082 c 225.883 23.375 226.168 23.52
 226.535 23.52 c 226.699 23.52 226.863 23.496 227.02 23.441 c 227.184 23.379
 227.352 23.293 227.52 23.176 c 227.52 23.832 l 227.352 23.926 227.184 23.996
 227.02 24.035 c 226.852 24.086 226.668 24.113 226.473 24.113 c 225.949 
24.113 225.535 23.91 225.223 23.504 c 224.918 23.09 224.77 22.535 224.77
 21.848 c 224.77 21.141 224.926 20.582 225.238 20.176 c 225.551 19.77 225.977
 19.566 226.52 19.566 c 226.684 19.566 226.852 19.594 227.02 19.645 c 227.195
 19.688 227.363 19.75 227.52 19.832 c h
227.52 19.832 m f
229.184 18.441 m 229.184 19.676 l 230.355 19.676 l 230.355 20.223 l 229.184
 20.223 l 229.184 22.582 l 229.184 22.938 229.219 23.168 229.293 23.27 c
 229.375 23.363 229.535 23.41 229.777 23.41 c 230.355 23.41 l 230.355 24.004
 l 229.777 24.004 l 229.34 24.004 229.035 23.906 228.871 23.707 c 228.703
 23.5 228.621 23.125 228.621 22.582 c 228.621 20.223 l 228.199 20.223 l 
228.199 19.676 l 228.621 19.676 l 228.621 18.441 l h
229.184 18.441 m f
232.793 20.332 m 232.719 20.293 232.645 20.262 232.574 20.238 c 232.5 20.219
 232.418 20.207 232.324 20.207 c 232 20.207 231.75 20.34 231.574 20.598 
c 231.406 20.859 231.324 21.234 231.324 21.723 c 231.324 24.004 l 230.762
 24.004 l 230.762 19.676 l 231.324 19.676 l 231.324 20.348 l 231.449 20.09
 231.605 19.895 231.793 19.77 c 231.988 19.637 232.223 19.566 232.496 19.566
 c 232.535 19.566 232.578 19.574 232.621 19.582 c 232.672 19.582 232.723
 19.594 232.777 19.613 c h
232.793 20.332 m f
234.766 20.176 m 234.461 20.176 234.223 20.328 234.047 20.629 c 233.867
 20.922 233.781 21.328 233.781 21.848 c 233.781 22.359 233.867 22.766 234.047
 23.066 c 234.223 23.371 234.461 23.52 234.766 23.52 c 235.066 23.52 235.305
 23.371 235.484 23.066 c 235.66 22.766 235.75 22.359 235.75 21.848 c 235.75
 21.328 235.66 20.922 235.484 20.629 c 235.305 20.328 235.066 20.176 234.766
 20.176 c h
234.766 19.566 m 235.254 19.566 235.641 19.77 235.922 20.176 c 236.211 
20.574 236.359 21.129 236.359 21.848 c 236.359 22.559 236.211 23.113 235.922
 23.52 c 235.641 23.918 235.254 24.113 234.766 24.113 c 234.266 24.113 233.875
 23.918 233.594 23.52 c 233.312 23.113 233.172 22.559 233.172 21.848 c 233.172
 21.129 233.312 20.574 233.594 20.176 c 233.875 19.77 234.266 19.566 234.766
 19.566 c h
234.766 19.566 m f
240.207 20.504 m 240.34 20.184 240.508 19.949 240.707 19.801 c 240.902 
19.645 241.137 19.566 241.41 19.566 c 241.773 19.566 242.051 19.73 242.238
 20.051 c 242.434 20.363 242.535 20.812 242.535 21.395 c 242.535 24.004 
l 241.973 24.004 l 241.973 21.41 l 241.973 20.996 241.91 20.688 241.785 
20.488 c 241.668 20.293 241.492 20.191 241.254 20.191 c 240.961 20.191 240.727
 20.316 240.551 20.566 c 240.383 20.809 240.301 21.137 240.301 21.551 c 
240.301 24.004 l 239.723 24.004 l 239.723 21.41 l 239.723 20.996 239.664
 20.688 239.551 20.488 c 239.434 20.293 239.254 20.191 239.004 20.191 c 
238.711 20.191 238.477 20.316 238.301 20.566 c 238.133 20.809 238.051 21.137
 238.051 21.551 c 238.051 24.004 l 237.488 24.004 l 237.488 19.676 l 238.051
 19.676 l 238.051 20.348 l 238.184 20.078 238.34 19.879 238.52 19.754 c 
238.707 19.629 238.926 19.566 239.176 19.566 c 239.426 19.566 239.637 19.652
 239.816 19.816 c 239.992 19.973 240.121 20.203 240.207 20.504 c h
240.207 20.504 m f
245.328 21.832 m 244.867 21.832 244.551 21.902 244.375 22.035 c 244.195
 22.16 244.109 22.379 244.109 22.691 c 244.109 22.953 244.172 23.156 244.297
 23.301 c 244.43 23.449 244.613 23.52 244.844 23.52 c 245.156 23.52 245.406
 23.379 245.594 23.098 c 245.789 22.816 245.891 22.449 245.891 21.988 c 
245.891 21.832 l h
246.453 21.535 m 246.453 24.004 l 245.891 24.004 l 245.891 23.348 l 245.766
 23.609 245.602 23.801 245.406 23.926 c 245.207 24.051 244.969 24.113 244.688
 24.113 c 244.332 24.113 244.051 23.988 243.844 23.738 c 243.633 23.488 
243.531 23.156 243.531 22.738 c 243.531 22.262 243.66 21.895 243.922 21.645
 c 244.18 21.395 244.57 21.27 245.094 21.27 c 245.891 21.27 l 245.891 21.207
 l 245.891 20.875 245.801 20.621 245.625 20.441 c 245.457 20.266 245.219
 20.176 244.906 20.176 c 244.707 20.176 244.516 20.207 244.328 20.27 c 244.141
 20.324 243.961 20.406 243.797 20.52 c 243.797 19.863 l 244.004 19.77 244.203
 19.699 244.391 19.645 c 244.586 19.594 244.781 19.566 244.969 19.566 c 
245.469 19.566 245.836 19.73 246.078 20.051 c 246.328 20.375 246.453 20.871
 246.453 21.535 c h
246.453 21.535 m f
249.633 21.785 m 249.633 21.277 249.543 20.879 249.367 20.598 c 249.199
 20.309 248.965 20.16 248.664 20.16 c 248.359 20.16 248.121 20.309 247.945
 20.598 c 247.777 20.879 247.695 21.277 247.695 21.785 c 247.695 22.297 
247.777 22.699 247.945 22.988 c 248.121 23.27 248.359 23.41 248.664 23.41
 c 248.965 23.41 249.199 23.27 249.367 22.988 c 249.543 22.699 249.633 22.297
 249.633 21.785 c h
250.195 23.473 m 250.195 24.199 250.062 24.742 249.805 25.098 c 249.543
 25.461 249.141 25.645 248.602 25.645 c 248.402 25.645 248.215 25.621 248.039
 25.582 c 247.859 25.551 247.688 25.496 247.523 25.426 c 247.523 24.738 
l 247.688 24.84 247.852 24.918 248.008 24.973 c 248.172 25.035 248.344 25.066
 248.523 25.066 c 248.887 25.066 249.164 24.941 249.352 24.691 c 249.539
 24.449 249.633 24.086 249.633 23.598 c 249.633 23.238 l 249.516 23.5 249.367
 23.691 249.18 23.816 c 248.992 23.941 248.773 24.004 248.523 24.004 c 248.094
 24.004 247.75 23.801 247.492 23.395 c 247.23 22.988 247.102 22.453 247.102
 21.785 c 247.102 21.121 247.23 20.582 247.492 20.176 c 247.75 19.77 248.094
 19.566 248.523 19.566 c 248.773 19.566 248.992 19.629 249.18 19.754 c 249.367
 19.879 249.516 20.074 249.633 20.332 c 249.633 19.676 l 250.195 19.676 
l h
250.195 23.473 m f
254.066 21.395 m 254.066 24.004 l 253.504 24.004 l 253.504 21.41 l 253.504
 21.004 253.434 20.703 253.301 20.504 c 253.176 20.297 252.988 20.191 252.738
 20.191 c 252.426 20.191 252.18 20.316 252.004 20.566 c 251.824 20.809 251.738
 21.137 251.738 21.551 c 251.738 24.004 l 251.176 24.004 l 251.176 19.676
 l 251.738 19.676 l 251.738 20.348 l 251.871 20.09 252.035 19.895 252.223
 19.77 c 252.41 19.637 252.621 19.566 252.863 19.566 c 253.258 19.566 253.555
 19.723 253.754 20.035 c 253.961 20.34 254.066 20.793 254.066 21.395 c h
254.066 21.395 m f
258.242 21.66 m 258.242 22.004 l 255.617 22.004 l 255.648 22.496 255.766
 22.871 255.977 23.129 c 256.184 23.391 256.477 23.52 256.852 23.52 c 257.07
 23.52 257.281 23.488 257.492 23.426 c 257.699 23.355 257.902 23.25 258.102
 23.113 c 258.102 23.785 l 257.902 23.891 257.695 23.969 257.477 24.02 c
 257.258 24.082 257.039 24.113 256.82 24.113 c 256.266 24.113 255.828 23.918
 255.508 23.52 c 255.184 23.113 255.023 22.566 255.023 21.879 c 255.023 
21.172 255.172 20.609 255.477 20.191 c 255.789 19.777 256.203 19.566 256.727
 19.566 c 257.195 19.566 257.562 19.754 257.836 20.129 c 258.105 20.504 
258.242 21.016 258.242 21.66 c h
257.664 21.457 m 257.664 21.062 257.574 20.75 257.398 20.52 c 257.23 20.293
 257.008 20.176 256.727 20.176 c 256.414 20.176 256.156 20.293 255.961 20.52
 c 255.773 20.738 255.668 21.051 255.648 21.457 c h
257.117 17.66 m 257.727 17.66 l 256.727 19.129 l 256.242 19.129 l h
257.117 17.66 m f
259.438 18.441 m 259.438 19.676 l 260.609 19.676 l 260.609 20.223 l 259.438
 20.223 l 259.438 22.582 l 259.438 22.938 259.473 23.168 259.547 23.27 c
 259.629 23.363 259.789 23.41 260.031 23.41 c 260.609 23.41 l 260.609 24.004
 l 260.031 24.004 l 259.594 24.004 259.289 23.906 259.125 23.707 c 258.957
 23.5 258.875 23.125 258.875 22.582 c 258.875 20.223 l 258.453 20.223 l 
258.453 19.676 l 258.875 19.676 l 258.875 18.441 l h
259.438 18.441 m f
261.031 19.676 m 261.609 19.676 l 261.609 24.004 l 261.031 24.004 l h
261.031 17.988 m 261.609 17.988 l 261.609 18.879 l 261.031 18.879 l h
261.031 17.988 m f
265.691 19.832 m 265.691 20.504 l 265.523 20.391 265.355 20.309 265.191
 20.254 c 265.035 20.203 264.871 20.176 264.707 20.176 c 264.34 20.176 264.055
 20.324 263.848 20.613 c 263.648 20.906 263.551 21.316 263.551 21.848 c 
263.551 22.371 263.648 22.781 263.848 23.082 c 264.055 23.375 264.34 23.52
 264.707 23.52 c 264.871 23.52 265.035 23.496 265.191 23.441 c 265.355 23.379
 265.523 23.293 265.691 23.176 c 265.691 23.832 l 265.523 23.926 265.355
 23.996 265.191 24.035 c 265.023 24.086 264.84 24.113 264.645 24.113 c 264.121
 24.113 263.707 23.91 263.395 23.504 c 263.09 23.09 262.941 22.535 262.941
 21.848 c 262.941 21.141 263.098 20.582 263.41 20.176 c 263.723 19.77 264.148
 19.566 264.691 19.566 c 264.855 19.566 265.023 19.594 265.191 19.645 c 
265.367 19.688 265.535 19.75 265.691 19.832 c h
265.691 19.832 m f
268.137 20.176 m 267.832 20.176 267.594 20.328 267.418 20.629 c 267.238
 20.922 267.152 21.328 267.152 21.848 c 267.152 22.359 267.238 22.766 267.418
 23.066 c 267.594 23.371 267.832 23.52 268.137 23.52 c 268.438 23.52 268.676
 23.371 268.855 23.066 c 269.031 22.766 269.121 22.359 269.121 21.848 c 
269.121 21.328 269.031 20.922 268.855 20.629 c 268.676 20.328 268.438 20.176
 268.137 20.176 c h
268.137 19.566 m 268.625 19.566 269.012 19.77 269.293 20.176 c 269.582 
20.574 269.73 21.129 269.73 21.848 c 269.73 22.559 269.582 23.113 269.293
 23.52 c 269.012 23.918 268.625 24.113 268.137 24.113 c 267.637 24.113 267.246
 23.918 266.965 23.52 c 266.684 23.113 266.543 22.559 266.543 21.848 c 266.543
 21.129 266.684 20.574 266.965 20.176 c 267.246 19.77 267.637 19.566 268.137
 19.566 c h
268.137 19.566 m f
199.449 21.125 m 199.688 21.125 l 199.688 20.645 l 199.449 20.645 l 198.969
 20.402 l 196.566 20.402 l 196.328 20.645 l 195.605 20.645 l 195.125 20.883
 l 194.648 20.883 l 194.168 21.125 l 193.926 21.363 l 193.688 21.363 l 192.965
 21.605 l 192.727 21.844 l 191.766 22.324 l 191.527 22.562 l 191.047 22.805
 l 190.805 23.043 l 190.328 23.285 l 189.605 24.004 l 189.125 24.246 l 188.887
 24.727 l 188.406 24.965 l 188.164 25.445 l 187.684 25.926 l 187.445 26.645
 l 187.445 26.406 l 187.684 26.406 l 186.965 26.645 l 186.004 27.605 l 185.766
 28.086 l 184.805 29.047 l 184.566 29.766 l 183.605 30.727 l 183.125 31.445
 l 182.883 31.926 l 182.406 32.648 l 181.926 33.129 l 181.445 33.848 l 181.203
 34.328 l 179.285 37.449 l 179.043 38.168 l 178.086 39.367 l 177.605 40.328
 l 176.645 42.008 l 176.406 42.969 l 175.922 43.449 l 175.445 44.41 l 174.965
 45.129 l 174.004 47.293 l 173.762 48.25 l 173.762 48.492 l 174.242 48.492
 l 174.242 48.25 l 174.484 47.293 l 175.445 45.609 l 175.922 44.891 l 176.406
 43.93 l 176.883 42.969 l 177.125 42.008 l 178.086 40.809 l 178.566 39.848
 l 179.523 38.168 l 179.766 37.449 l 181.684 34.809 l 181.926 34.328 l 182.406
 33.605 l 182.883 33.129 l 183.367 32.406 l 183.605 31.926 l 184.086 31.207
 l 185.047 30.246 l 185.285 29.527 l 186.246 28.566 l 186.484 28.086 l 187.684
 26.887 l 187.926 26.887 l 187.926 26.645 l 188.645 25.926 l 188.887 25.445
 l 189.367 25.203 l 189.605 24.727 l 190.086 24.484 l 191.285 23.523 l 191.527
 23.285 l 192.008 23.043 l 192.246 22.805 l 193.207 22.324 l 193.688 21.844
 l 193.926 21.844 l 194.648 21.605 l 194.648 21.363 l 195.125 21.363 l 195.605
 21.125 l 196.328 21.125 l 196.566 20.883 l 198.969 20.883 l 199.449 21.125
 l f*
174.004 44.891 m 174.004 48.25 l 176.645 46.332 l 174.723 47.051 l 174.004
 44.891 l f*
174.242 44.891 m 174.242 44.648 l 173.762 44.648 l 173.762 48.492 l 174.242
 48.492 l 176.883 46.57 l 176.883 46.09 l 176.645 46.09 l 174.723 46.812
 l 174.965 47.051 l 174.242 44.891 l 173.762 44.891 l 174.484 47.051 l 174.484
 47.293 l 174.723 47.293 l 176.645 46.57 l 176.406 46.09 l 173.762 48.012
 l 174.242 48.25 l 174.242 44.891 l 173.762 44.891 l 174.242 44.891 l f*
12.941 58.336 m 12.699 58.336 l 12.699 58.574 l 12.461 58.574 l 12.461 
59.055 l 12.699 59.055 l 12.699 59.293 l 40.785 59.293 l 40.785 59.055 l
 41.023 59.055 l 41.023 58.574 l 40.785 58.574 l 40.785 58.336 l 12.941 
58.336 l f*
19.902 63.137 13.68 2.879 re f
12.941 70.098 m 12.699 70.098 l 12.699 70.336 l 12.461 70.336 l 12.461 
70.816 l 12.699 70.816 l 12.699 71.059 l 40.785 71.059 l 40.785 70.816 l
 41.023 70.816 l 41.023 70.336 l 40.785 70.336 l 40.785 70.098 l 12.941 
70.098 l f*
19.902 74.898 13.68 2.879 re f
12.941 81.859 m 12.699 81.859 l 12.699 82.102 l 12.461 82.102 l 12.461 
82.578 l 12.699 82.578 l 12.699 82.82 l 40.785 82.82 l 40.785 82.578 l 41.023
 82.578 l 41.023 82.102 l 40.785 82.102 l 40.785 81.859 l 12.941 81.859 
l f*
19.902 86.902 13.68 2.879 re f
26.141 70.578 m 26.141 70.816 l 26.383 70.816 l 26.383 71.059 l 26.863 
71.059 l 26.863 70.816 l 27.102 70.816 l 27.102 64.336 l 26.863 64.336 l
 26.863 64.094 l 26.383 64.094 l 26.383 64.336 l 26.141 64.336 l 26.141 
70.578 l f*
26.141 82.34 m 26.141 82.578 l 26.383 82.578 l 26.383 82.82 l 26.863 82.82
 l 26.863 82.578 l 27.102 82.578 l 27.102 76.098 l 26.863 76.098 l 26.863
 75.859 l 26.383 75.859 l 26.383 76.098 l 26.141 76.098 l 26.141 82.34 l
 f*
38.145 42.969 m 38.145 43.211 l 38.383 43.211 l 38.383 43.449 l 38.863 
43.449 l 38.863 43.211 l 39.102 43.211 l 39.102 25.203 l 38.863 25.203 l
 38.863 24.965 l 38.383 24.965 l 38.383 25.203 l 38.145 25.203 l 38.145 
42.969 l f*
36.941 28.566 m 38.621 25.445 l 40.062 28.566 l 36.941 28.566 l f*
36.941 28.086 m 37.422 28.805 l 39.102 25.684 l 38.145 25.684 l 39.582 
28.805 l 40.062 28.086 l 36.941 28.086 l 36.941 29.047 l 40.305 29.047 l
 40.543 28.805 l 40.543 28.324 l 39.102 25.203 l 38.863 25.203 l 38.863 
24.965 l 38.383 24.965 l 38.383 25.203 l 38.145 25.203 l 36.461 28.324 l
 36.461 28.805 l 36.703 28.805 l 36.703 29.047 l 36.941 29.047 l 36.941 
28.086 l f*
46.762 36.812 m 46.699 36.969 l 44.355 36.969 l 44.418 36.812 l 44.652 
36.797 44.809 36.781 44.887 36.75 c 44.996 36.703 45.09 36.641 45.152 36.547
 c 45.246 36.422 45.34 36.188 45.449 35.844 c 46.434 32.391 l 46.527 32.109
 46.559 31.891 46.559 31.734 c 46.559 31.672 46.543 31.609 46.512 31.562
 c 46.465 31.516 46.418 31.469 46.34 31.453 c 46.262 31.406 46.121 31.406
 45.902 31.406 c 45.949 31.25 l 48.168 31.25 l 48.121 31.406 l 47.934 31.406
 47.809 31.422 47.715 31.469 c 47.59 31.516 47.496 31.594 47.434 31.703 
c 47.355 31.812 47.277 32.031 47.168 32.391 c 46.184 35.844 l 46.09 36.172
 46.043 36.359 46.043 36.453 c 46.043 36.516 46.059 36.578 46.105 36.625
 c 46.137 36.688 46.199 36.719 46.277 36.75 c 46.355 36.766 46.512 36.797
 46.762 36.812 c h
46.762 36.812 m f
48.629 35.445 m 48.707 35.445 48.754 35.461 48.801 35.508 c 48.863 35.555
 48.879 35.617 48.879 35.68 c 48.879 35.758 48.863 35.805 48.801 35.852 
c 48.754 35.914 48.707 35.93 48.629 35.93 c 48.566 35.93 48.504 35.914 48.457
 35.852 c 48.41 35.805 48.395 35.758 48.395 35.68 c 48.395 35.617 48.41 
35.555 48.457 35.508 c 48.504 35.461 48.566 35.445 48.629 35.445 c h
48.66 36.414 m 48.176 38.148 l 48.145 38.258 48.129 38.336 48.129 38.352
 c 48.129 38.383 48.129 38.398 48.145 38.414 c 48.16 38.43 48.191 38.445
 48.207 38.445 c 48.238 38.445 48.254 38.43 48.301 38.398 c 48.395 38.336
 48.488 38.227 48.582 38.086 c 48.66 38.148 l 48.551 38.32 48.426 38.461
 48.27 38.57 c 48.16 38.664 48.051 38.711 47.941 38.711 c 47.879 38.711 
47.832 38.695 47.785 38.648 c 47.738 38.602 47.723 38.555 47.723 38.492 
c 47.723 38.43 47.738 38.336 47.785 38.195 c 48.098 37.086 l 48.16 36.914
 48.176 36.789 48.176 36.742 c 48.176 36.711 48.176 36.68 48.145 36.664 
c 48.113 36.633 48.082 36.617 48.035 36.617 c 48.004 36.617 47.926 36.633
 47.816 36.648 c 47.816 36.555 l h
48.66 36.414 m f
18.219 49.691 m 18.461 49.691 l 18.461 49.449 l 18.699 49.449 l 18.699 
48.973 l 18.461 48.973 l 18.461 48.73 l 11.02 48.73 l 11.02 48.973 l 10.777
 48.973 l 10.777 49.449 l 11.02 49.449 l 11.02 49.691 l 18.219 49.691 l f*
14.379 52.57 m 14.379 52.812 l 14.621 52.812 l 14.621 53.051 l 15.098 53.051
 l 15.098 52.812 l 15.34 52.812 l 15.34 45.371 l 15.098 45.371 l 15.098 
45.129 l 14.621 45.129 l 14.621 45.371 l 14.379 45.371 l 14.379 52.57 l f*
19.66 97.465 m 19.902 97.465 l 19.902 97.223 l 20.141 97.223 l 20.141 96.742
 l 19.902 96.742 l 19.902 96.504 l 12.461 96.504 l 12.461 96.742 l 12.219
 96.742 l 12.219 97.223 l 12.461 97.223 l 12.461 97.465 l 19.66 97.465 l
 f*
112.824 21.703 m 112.777 21.844 l 110.621 21.844 l 110.684 21.703 l 110.902
 21.688 111.043 21.672 111.105 21.641 c 111.215 21.594 111.309 21.547 111.355
 21.469 c 111.449 21.344 111.527 21.125 111.621 20.812 c 112.527 17.656 
l 112.621 17.391 112.652 17.188 112.652 17.047 c 112.652 16.984 112.637 
16.938 112.605 16.891 c 112.559 16.844 112.512 16.812 112.449 16.781 c 112.371
 16.75 112.246 16.734 112.059 16.734 c 112.09 16.594 l 114.121 16.594 l 
114.074 16.734 l 113.918 16.734 113.793 16.766 113.715 16.797 c 113.59 16.844
 113.512 16.922 113.449 17.016 c 113.387 17.109 113.309 17.328 113.215 17.656
 c 112.309 20.812 l 112.215 21.109 112.184 21.297 112.184 21.375 c 112.184
 21.438 112.199 21.484 112.23 21.531 c 112.262 21.578 112.309 21.609 112.387
 21.641 c 112.449 21.656 112.605 21.688 112.824 21.703 c h
112.824 21.703 m f
114.527 20.379 m 114.59 20.379 114.652 20.41 114.684 20.441 c 114.73 20.488
 114.762 20.551 114.762 20.613 c 114.762 20.66 114.73 20.723 114.684 20.77
 c 114.652 20.801 114.59 20.832 114.527 20.832 c 114.465 20.832 114.418 
20.801 114.371 20.77 c 114.34 20.723 114.309 20.66 114.309 20.613 c 114.309
 20.551 114.34 20.488 114.371 20.441 c 114.418 20.41 114.465 20.379 114.527
 20.379 c h
114.559 21.27 m 114.121 22.832 l 114.09 22.941 114.074 23.004 114.074 23.02
 c 114.074 23.051 114.09 23.066 114.09 23.082 c 114.105 23.098 114.121 23.098
 114.152 23.098 c 114.168 23.098 114.199 23.082 114.23 23.066 c 114.309 
23.004 114.402 22.895 114.48 22.785 c 114.559 22.832 l 114.465 22.988 114.34
 23.113 114.199 23.223 c 114.105 23.301 114.012 23.348 113.918 23.348 c 
113.855 23.348 113.809 23.316 113.762 23.285 c 113.73 23.254 113.715 23.207
 113.715 23.145 c 113.715 23.098 113.73 23.004 113.762 22.879 c 114.059 
21.879 l 114.105 21.707 114.121 21.613 114.121 21.566 c 114.121 21.535 114.121
 21.504 114.09 21.488 c 114.074 21.457 114.043 21.457 113.996 21.457 c 113.965
 21.457 113.902 21.457 113.793 21.473 c 113.793 21.395 l h
114.559 21.27 m f
104.906 129.73 m 104.859 129.871 l 102.703 129.871 l 102.766 129.73 l 102.984
 129.715 103.125 129.699 103.188 129.668 c 103.297 129.621 103.391 129.574
 103.438 129.496 c 103.531 129.371 103.609 129.152 103.703 128.84 c 104.609
 125.684 l 104.703 125.418 104.734 125.215 104.734 125.074 c 104.734 125.012
 104.719 124.965 104.688 124.918 c 104.641 124.871 104.594 124.84 104.531
 124.809 c 104.453 124.777 104.328 124.762 104.141 124.762 c 104.172 124.621
 l 106.203 124.621 l 106.156 124.762 l 106 124.762 105.875 124.793 105.797
 124.824 c 105.672 124.871 105.594 124.949 105.531 125.043 c 105.469 125.137
 105.391 125.355 105.297 125.684 c 104.391 128.84 l 104.297 129.137 104.266
 129.324 104.266 129.402 c 104.266 129.465 104.281 129.512 104.312 129.559
 c 104.344 129.605 104.391 129.637 104.469 129.668 c 104.531 129.684 104.688
 129.715 104.906 129.73 c h
104.906 129.73 m f
106.609 128.648 m 106.672 128.648 106.734 128.68 106.766 128.711 c 106.812
 128.758 106.844 128.82 106.844 128.883 c 106.844 128.93 106.812 128.992
 106.766 129.039 c 106.734 129.07 106.672 129.102 106.609 129.102 c 106.547
 129.102 106.5 129.07 106.453 129.039 c 106.422 128.992 106.391 128.93 106.391
 128.883 c 106.391 128.82 106.422 128.758 106.453 128.711 c 106.5 128.68
 106.547 128.648 106.609 128.648 c h
106.641 129.539 m 106.203 131.102 l 106.172 131.211 106.156 131.273 106.156
 131.289 c 106.156 131.32 106.172 131.336 106.172 131.352 c 106.188 131.367
 106.203 131.367 106.234 131.367 c 106.25 131.367 106.281 131.352 106.312
 131.336 c 106.391 131.273 106.484 131.164 106.562 131.055 c 106.641 131.102
 l 106.547 131.258 106.422 131.383 106.281 131.492 c 106.188 131.57 106.094
 131.617 106 131.617 c 105.938 131.617 105.891 131.586 105.844 131.555 c
 105.812 131.523 105.797 131.477 105.797 131.414 c 105.797 131.367 105.812
 131.273 105.844 131.148 c 106.141 130.148 l 106.188 129.977 106.203 129.883
 106.203 129.836 c 106.203 129.805 106.203 129.773 106.172 129.758 c 106.156
 129.727 106.125 129.727 106.078 129.727 c 106.047 129.727 105.984 129.727
 105.875 129.742 c 105.875 129.664 l h
106.641 129.539 m f
170.402 74.18 m 169.922 74.18 l 169.922 74.656 l 197.527 104.188 l 198.008
 104.188 l 198.008 103.707 l 170.402 74.18 l f*
196.805 100.586 m 197.766 103.945 l 194.406 102.746 l 196.805 100.586 l
 f*
197.047 100.824 m 196.566 100.586 l 197.527 103.945 l 197.766 103.707 l
 194.406 102.504 l 194.645 102.984 l 197.047 100.824 l 196.566 100.344 l
 194.168 102.504 l 194.168 102.984 l 194.406 102.984 l 197.766 104.188 l
 198.008 104.188 l 198.008 103.945 l 197.047 100.586 l 197.047 100.344 l
 196.566 100.344 l 197.047 100.824 l f*
185.277 87.383 m 184.355 84.602 l 184.152 84.602 183.934 84.586 183.699
 84.539 c 183.199 86.273 l 183.137 86.492 183.105 86.68 183.105 86.836 c
 183.105 86.961 183.152 87.039 183.23 87.117 c 183.293 87.164 183.465 87.195
 183.746 87.227 c 183.699 87.383 l 181.48 87.383 l 181.527 87.227 l 181.746
 87.211 181.887 87.195 181.949 87.164 c 182.074 87.117 182.152 87.055 182.215
 86.961 c 182.293 86.836 182.387 86.602 182.48 86.273 c 183.496 82.805 l
 183.559 82.586 183.59 82.398 183.59 82.273 c 183.59 82.148 183.543 82.039
 183.434 81.945 c 183.324 81.867 183.184 81.82 182.98 81.82 c 183.027 81.664
 l 184.902 81.664 l 185.527 81.664 185.965 81.773 186.246 82.023 c 186.527
 82.258 186.668 82.555 186.668 82.945 c 186.668 83.32 186.512 83.648 186.23
 83.961 c 185.949 84.258 185.559 84.461 185.074 84.539 c 185.637 86.211 
l 185.762 86.617 185.902 86.883 186.043 87.008 c 186.168 87.148 186.387 
87.211 186.684 87.227 c 186.637 87.383 l h
183.777 84.305 m 183.949 84.32 184.105 84.336 184.246 84.336 c 184.73 84.336
 185.121 84.195 185.402 83.93 c 185.684 83.664 185.824 83.336 185.824 82.93
 c 185.824 82.617 185.73 82.383 185.559 82.211 c 185.387 82.055 185.121 
81.961 184.762 81.961 c 184.684 81.961 184.574 81.977 184.449 81.992 c h
183.777 84.305 m f
174.965 76.578 m 175.203 76.578 l 175.203 76.34 l 175.445 76.34 l 175.445
 75.859 l 175.203 75.859 l 175.203 75.617 l 167.523 75.617 l 167.523 75.859
 l 167.281 75.859 l 167.281 76.34 l 167.523 76.34 l 167.523 76.578 l 174.965
 76.578 l f*
170.883 79.699 m 170.883 79.938 l 171.125 79.938 l 171.125 80.18 l 171.602
 80.18 l 171.602 79.938 l 171.844 79.938 l 171.844 72.258 l 171.602 72.258
 l 171.602 72.016 l 171.125 72.016 l 171.125 72.258 l 170.883 72.258 l 170.883
 79.699 l f*
Q Q
showpage
%%Trailer
end
%%EOF
