%!PS-Adobe-3.0 EPSF-3.0
%%Creator: graphviz version 2.40.1 (0)
%%Title: %3
%%Pages: 1
%%BoundingBox: 36 36 550 206
%%EndComments
save
%%BeginProlog
/DotDict 200 dict def
DotDict begin

/setupLatin1 {
mark
/EncodingVector 256 array def
 EncodingVector 0

ISOLatin1Encoding 0 255 getinterval putinterval
EncodingVector 45 /hyphen put

% Set up ISO Latin 1 character encoding
/starnetISO {
        dup dup findfont dup length dict begin
        { 1 index /FID ne { def }{ pop pop } ifelse
        } forall
        /Encoding EncodingVector def
        currentdict end definefont
} def
/Times-Roman starnetISO def
/Times-Italic starnetISO def
/Times-Bold starnetISO def
/Times-BoldItalic starnetISO def
/Helvetica starnetISO def
/Helvetica-Oblique starnetISO def
/Helvetica-Bold starnetISO def
/Helvetica-BoldOblique starnetISO def
/Courier starnetISO def
/Courier-Oblique starnetISO def
/Courier-Bold starnetISO def
/Courier-BoldOblique starnetISO def
cleartomark
} bind def

%%BeginResource: procset graphviz 0 0
/coord-font-family /Times-Roman def
/default-font-family /Times-Roman def
/coordfont coord-font-family findfont 8 scalefont def

/InvScaleFactor 1.0 def
/set_scale {
       dup 1 exch div /InvScaleFactor exch def
       scale
} bind def

% styles
/solid { [] 0 setdash } bind def
/dashed { [9 InvScaleFactor mul dup ] 0 setdash } bind def
/dotted { [1 InvScaleFactor mul 6 InvScaleFactor mul] 0 setdash } bind def
/invis {/fill {newpath} def /stroke {newpath} def /show {pop newpath} def} bind def
/bold { 2 setlinewidth } bind def
/filled { } bind def
/unfilled { } bind def
/rounded { } bind def
/diagonals { } bind def
/tapered { } bind def

% hooks for setting color 
/nodecolor { sethsbcolor } bind def
/edgecolor { sethsbcolor } bind def
/graphcolor { sethsbcolor } bind def
/nopcolor {pop pop pop} bind def

/beginpage {	% i j npages
	/npages exch def
	/j exch def
	/i exch def
	/str 10 string def
	npages 1 gt {
		gsave
			coordfont setfont
			0 0 moveto
			(\() show i str cvs show (,) show j str cvs show (\)) show
		grestore
	} if
} bind def

/set_font {
	findfont exch
	scalefont setfont
} def

% draw text fitted to its expected width
/alignedtext {			% width text
	/text exch def
	/width exch def
	gsave
		width 0 gt {
			[] 0 setdash
			text stringwidth pop width exch sub text length div 0 text ashow
		} if
	grestore
} def

/boxprim {				% xcorner ycorner xsize ysize
		4 2 roll
		moveto
		2 copy
		exch 0 rlineto
		0 exch rlineto
		pop neg 0 rlineto
		closepath
} bind def

/ellipse_path {
	/ry exch def
	/rx exch def
	/y exch def
	/x exch def
	matrix currentmatrix
	newpath
	x y translate
	rx ry scale
	0 0 1 0 360 arc
	setmatrix
} bind def

/endpage { showpage } bind def
/showpage { } def

/layercolorseq
	[	% layer color sequence - darkest to lightest
		[0 0 0]
		[.2 .8 .8]
		[.4 .8 .8]
		[.6 .8 .8]
		[.8 .8 .8]
	]
def

/layerlen layercolorseq length def

/setlayer {/maxlayer exch def /curlayer exch def
	layercolorseq curlayer 1 sub layerlen mod get
	aload pop sethsbcolor
	/nodecolor {nopcolor} def
	/edgecolor {nopcolor} def
	/graphcolor {nopcolor} def
} bind def

/onlayer { curlayer ne {invis} if } def

/onlayers {
	/myupper exch def
	/mylower exch def
	curlayer mylower lt
	curlayer myupper gt
	or
	{invis} if
} def

/curlayer 0 def

%%EndResource
%%EndProlog
%%BeginSetup
14 default-font-family set_font
% /arrowlength 10 def
% /arrowwidth 5 def

% make sure pdfmark is harmless for PS-interpreters other than Distiller
/pdfmark where {pop} {userdict /pdfmark /cleartomark load put} ifelse
% make '<<' and '>>' safe on PS Level 1 devices
/languagelevel where {pop languagelevel}{1} ifelse
2 lt {
    userdict (<<) cvn ([) cvn load put
    userdict (>>) cvn ([) cvn load put
} if

%%EndSetup
setupLatin1
%%Page: 1 1
%%PageBoundingBox: 36 36 550 206
%%PageOrientation: Portrait
0 0 1 beginpage
gsave
36 36 514 170 boxprim clip newpath
1 1 set_scale 0 rotate 40 40 translate
% a
gsave
1 setlinewidth
0 0 0 nodecolor
newpath 86 117 moveto
0 117 lineto
0 45 lineto
86 45 lineto
closepath stroke
0 0 0 nodecolor
14 /Times-Roman set_font
9.5 84.8 moveto 67 (Load Cell) alignedtext
0 0 0 nodecolor
14 /Times-Roman set_font
8 69.8 moveto 70 (NAU7802) alignedtext
grestore
% b
gsave
1 setlinewidth
0 0 0 nodecolor
newpath 283 117 moveto
122 117 lineto
122 45 lineto
283 45 lineto
closepath stroke
0 0 0 nodecolor
14 /Times-Roman set_font
130 77.3 moveto 145 (STM32F4-Discovery) alignedtext
grestore
% a->b
gsave
1 setlinewidth
0 0 0 edgecolor
newpath 86.163 81 moveto
94.2068 81 102.8847 81 111.7473 81 curveto
stroke
0 0 0 edgecolor
newpath 111.8082 84.5001 moveto
121.8081 81 lineto
111.8081 77.5001 lineto
closepath fill
1 setlinewidth
solid
0 0 0 edgecolor
newpath 111.8082 84.5001 moveto
121.8081 81 lineto
111.8081 77.5001 lineto
closepath stroke
grestore
% d
gsave
1 setlinewidth
0 0 0 nodecolor
newpath 384 162 moveto
319 162 lineto
319 90 lineto
384 90 lineto
closepath stroke
0 0 0 nodecolor
14 /Times-Roman set_font
327 122.3 moveto 49 (L298N) alignedtext
grestore
% b->d
gsave
1 setlinewidth
0 0 0 edgecolor
newpath 283.1052 105.3439 moveto
292.075 108.0528 300.9259 110.7259 309.1332 113.2047 curveto
stroke
0 0 0 edgecolor
newpath 308.2049 116.5804 moveto
318.7898 116.1211 lineto
310.2288 109.8793 lineto
closepath fill
1 setlinewidth
solid
0 0 0 edgecolor
newpath 308.2049 116.5804 moveto
318.7898 116.1211 lineto
310.2288 109.8793 lineto
closepath stroke
grestore
% e
gsave
1 setlinewidth
0 0 0 nodecolor
newpath 378.5 72 moveto
324.5 72 lineto
324.5 0 lineto
378.5 0 lineto
closepath stroke
0 0 0 nodecolor
14 /Times-Roman set_font
341 32.3 moveto 21 (PC) alignedtext
grestore
% b->e
gsave
1 setlinewidth
0 0 0 edgecolor
newpath 292.7537 53.7422 moveto
300.2166 51.4883 307.4585 49.3011 314.161 47.2769 curveto
stroke
0 0 0 edgecolor
newpath 291.6663 50.4144 moveto
283.1052 56.6561 lineto
293.6901 57.1154 lineto
closepath fill
1 setlinewidth
solid
0 0 0 edgecolor
newpath 291.6663 50.4144 moveto
283.1052 56.6561 lineto
293.6901 57.1154 lineto
closepath stroke
0 0 0 edgecolor
newpath 315.6426 50.4856 moveto
324.2036 44.2439 lineto
313.6187 43.7846 lineto
closepath fill
1 setlinewidth
solid
0 0 0 edgecolor
newpath 315.6426 50.4856 moveto
324.2036 44.2439 lineto
313.6187 43.7846 lineto
closepath stroke
grestore
% c
gsave
1 setlinewidth
0 0 0 nodecolor
newpath 506 162 moveto
420 162 lineto
420 90 lineto
506 90 lineto
closepath stroke
0 0 0 nodecolor
14 /Times-Roman set_font
428 122.3 moveto 70 (DC Motor) alignedtext
grestore
% d->c
gsave
1 setlinewidth
0 0 0 edgecolor
newpath 384.0502 126 moveto
392.089 126 400.9112 126 409.6543 126 curveto
stroke
0 0 0 edgecolor
newpath 409.8301 129.5001 moveto
419.8301 126 lineto
409.8301 122.5001 lineto
closepath fill
1 setlinewidth
solid
0 0 0 edgecolor
newpath 409.8301 129.5001 moveto
419.8301 126 lineto
409.8301 122.5001 lineto
closepath stroke
grestore
endpage
showpage
grestore
%%PageTrailer
%%EndPage: 1
%%Trailer
end
restore
%%EOF
